TEI_GRUPO17/simulation/qsim/TEI_GRUPO17.msim.vcd
$comment
	File created using the following command:
		vcd file TEI_GRUPO17.msim.vcd -direction
$end
$date
	Wed Jul 30 16:48:51 2025
$end
$version
	ModelSim Version 10.1d
$end
$timescale
	1ps
$end
$scope module circuito_principal_vlg_vec_tst $end
$var reg 3 ! b [2:0] $end
$var reg 1 " CLK $end
$var reg 1 # CONTINUAR $end
$var reg 12 $ treg_DATA [11:0] $end
$var reg 1 % LOAD_F $end
$var reg 1 & LOAD_I $end
$var reg 1 ' RECARGAR $end
$var reg 1 ( START $end
$var reg 1 ) UP_DOWN $end
$var wire 1 * CarryOUT $end
$var wire 1 + DATA [11] $end
$var wire 1 , DATA [10] $end
$var wire 1 - DATA [9] $end
$var wire 1 . DATA [8] $end
$var wire 1 / DATA [7] $end
$var wire 1 0 DATA [6] $end
$var wire 1 1 DATA [5] $end
$var wire 1 2 DATA [4] $end
$var wire 1 3 DATA [3] $end
$var wire 1 4 DATA [2] $end
$var wire 1 5 DATA [1] $end
$var wire 1 6 DATA [0] $end
$var wire 1 7 ERROR $end
$var wire 1 8 FIN $end
$var wire 1 9 FINDET $end
$var wire 1 : Ienb_UC $end
$var wire 1 ; IenVI_UA $end
$var wire 1 < IenVI_UC $end
$var wire 1 = OenVC_UC $end
$var wire 1 > OregA [11] $end
$var wire 1 ? OregA [10] $end
$var wire 1 @ OregA [9] $end
$var wire 1 A OregA [8] $end
$var wire 1 B OregA [7] $end
$var wire 1 C OregA [6] $end
$var wire 1 D OregA [5] $end
$var wire 1 E OregA [4] $end
$var wire 1 F OregA [3] $end
$var wire 1 G OregA [2] $end
$var wire 1 H OregA [1] $end
$var wire 1 I OregA [0] $end
$var wire 1 J OregB [11] $end
$var wire 1 K OregB [10] $end
$var wire 1 L OregB [9] $end
$var wire 1 M OregB [8] $end
$var wire 1 N OregB [7] $end
$var wire 1 O OregB [6] $end
$var wire 1 P OregB [5] $end
$var wire 1 Q OregB [4] $end
$var wire 1 R OregB [3] $end
$var wire 1 S OregB [2] $end
$var wire 1 T OregB [1] $end
$var wire 1 U OregB [0] $end
$var wire 1 V PAUSA $end
$var wire 1 W sampler $end
$scope module i1 $end
$var wire 1 X gnd $end
$var wire 1 Y vcc $end
$var wire 1 Z unknown $end
$var tri1 1 [ devclrn $end
$var tri1 1 \ devpor $end
$var tri1 1 ] devoe $end
$var wire 1 ^ DATA[11]~output_o $end
$var wire 1 _ DATA[10]~output_o $end
$var wire 1 ` DATA[9]~output_o $end
$var wire 1 a DATA[8]~output_o $end
$var wire 1 b DATA[7]~output_o $end
$var wire 1 c DATA[6]~output_o $end
$var wire 1 d DATA[5]~output_o $end
$var wire 1 e DATA[4]~output_o $end
$var wire 1 f DATA[3]~output_o $end
$var wire 1 g DATA[2]~output_o $end
$var wire 1 h DATA[1]~output_o $end
$var wire 1 i DATA[0]~output_o $end
$var wire 1 j ERROR~output_o $end
$var wire 1 k OenVC_UC~output_o $end
$var wire 1 l IenVI_UC~output_o $end
$var wire 1 m Ienb_UC~output_o $end
$var wire 1 n IenVI_UA~output_o $end
$var wire 1 o FIN~output_o $end
$var wire 1 p PAUSA~output_o $end
$var wire 1 q FINDET~output_o $end
$var wire 1 r CarryOUT~output_o $end
$var wire 1 s OregA[11]~output_o $end
$var wire 1 t OregA[10]~output_o $end
$var wire 1 u OregA[9]~output_o $end
$var wire 1 v OregA[8]~output_o $end
$var wire 1 w OregA[7]~output_o $end
$var wire 1 x OregA[6]~output_o $end
$var wire 1 y OregA[5]~output_o $end
$var wire 1 z OregA[4]~output_o $end
$var wire 1 { OregA[3]~output_o $end
$var wire 1 | OregA[2]~output_o $end
$var wire 1 } OregA[1]~output_o $end
$var wire 1 ~ OregA[0]~output_o $end
$var wire 1 !! OregB[11]~output_o $end
$var wire 1 "! OregB[10]~output_o $end
$var wire 1 #! OregB[9]~output_o $end
$var wire 1 $! OregB[8]~output_o $end
$var wire 1 %! OregB[7]~output_o $end
$var wire 1 &! OregB[6]~output_o $end
$var wire 1 '! OregB[5]~output_o $end
$var wire 1 (! OregB[4]~output_o $end
$var wire 1 )! OregB[3]~output_o $end
$var wire 1 *! OregB[2]~output_o $end
$var wire 1 +! OregB[1]~output_o $end
$var wire 1 ,! OregB[0]~output_o $end
$var wire 1 -! CLK~input_o $end
$var wire 1 .! CLK~inputclkctrl_outclk $end
$var wire 1 /! RECARGAR~input_o $end
$var wire 1 0! inst1|inst6|inst|inst51~0_combout $end
$var wire 1 1! inst1|inst6|inst|inst40~0_combout $end
$var wire 1 2! inst1|inst6|inst|inst~0_combout $end
$var wire 1 3! UP_DOWN~input_o $end
$var wire 1 4! inst1|inst5|inst4~0_combout $end
$var wire 1 5! inst1|inst5|inst4~q $end
$var wire 1 6! DATA[1]~input_o $end
$var wire 1 7! LOAD_F~input_o $end
$var wire 1 8! inst1|inst3|inst3~0_combout $end
$var wire 1 9! inst4|inst3|inst1|inst4~q $end
$var wire 1 :! DATA[0]~input_o $end
$var wire 1 ;! inst4|inst3|inst|inst4~q $end
$var wire 1 <! LOAD_I~input_o $end
$var wire 1 =! inst1|inst3|inst2~0_combout $end
$var wire 1 >! inst4|inst|inst|inst4~q $end
$var wire 1 ?! inst4|inst|inst1|inst4~feeder_combout $end
$var wire 1 @! inst4|inst|inst1|inst4~q $end
$var wire 1 A! inst1|inst8|inst6~6_combout $end
$var wire 1 B! DATA[3]~input_o $end
$var wire 1 C! inst4|inst3|inst3|inst4~q $end
$var wire 1 D! DATA[2]~input_o $end
$var wire 1 E! inst4|inst3|inst2|inst4~q $end
$var wire 1 F! inst4|inst|inst2|inst4~q $end
$var wire 1 G! inst4|inst|inst3|inst4~q $end
$var wire 1 H! inst1|inst8|inst6~5_combout $end
$var wire 1 I! DATA[8]~input_o $end
$var wire 1 J! inst4|inst3|inst8|inst4~q $end
$var wire 1 K! DATA[9]~input_o $end
$var wire 1 L! inst4|inst|inst9|inst4~q $end
$var wire 1 M! inst4|inst3|inst9|inst4~q $end
$var wire 1 N! inst4|inst|inst8|inst4~q $end
$var wire 1 O! inst1|inst8|inst6~2_combout $end
$var wire 1 P! DATA[10]~input_o $end
$var wire 1 Q! inst4|inst|inst10|inst4~q $end
$var wire 1 R! DATA[11]~input_o $end
$var wire 1 S! inst4|inst|inst11|inst4~q $end
$var wire 1 T! inst4|inst3|inst10|inst4~q $end
$var wire 1 U! inst4|inst3|inst11|inst4~q $end
$var wire 1 V! inst1|inst8|inst6~1_combout $end
$var wire 1 W! DATA[6]~input_o $end
$var wire 1 X! inst4|inst|inst6|inst4~q $end
$var wire 1 Y! DATA[7]~input_o $end
$var wire 1 Z! inst4|inst|inst7|inst4~q $end
$var wire 1 [! inst4|inst3|inst7|inst4~q $end
$var wire 1 \! inst4|inst3|inst6|inst4~q $end
$var wire 1 ]! inst1|inst8|inst6~0_combout $end
$var wire 1 ^! DATA[5]~input_o $end
$var wire 1 _! inst4|inst3|inst5|inst4~q $end
$var wire 1 `! DATA[4]~input_o $end
$var wire 1 a! inst4|inst3|inst4|inst4~q $end
$var wire 1 b! inst4|inst|inst4|inst4~q $end
$var wire 1 c! inst4|inst|inst5|inst4~q $end
$var wire 1 d! inst1|inst8|inst6~3_combout $end
$var wire 1 e! inst1|inst8|inst6~4_combout $end
$var wire 1 f! inst1|inst8|inst6~7_combout $end
$var wire 1 g! inst1|inst7|inst9~0_combout $end
$var wire 1 h! inst|inst1|inst10|inst4~q $end
$var wire 1 i! b[0]~input_o $end
$var wire 1 j! b[2]~input_o $end
$var wire 1 k! b[1]~input_o $end
$var wire 1 l! inst1|inst7|inst|inst41|inst11|inst5~0_combout $end
$var wire 1 m! inst1|inst2~combout $end
$var wire 1 n! inst|inst2|inst10|inst4~q $end
$var wire 1 o! inst|inst1|inst11|inst4~q $end
$var wire 1 p! inst|inst1|inst9|inst4~q $end
$var wire 1 q! inst|inst1|inst8|inst4~q $end
$var wire 1 r! inst|inst1|inst6|inst4~q $end
$var wire 1 s! inst|inst1|inst7|inst4~q $end
$var wire 1 t! inst1|inst7|inst|inst41|inst2|inst5~combout $end
$var wire 1 u! inst|inst2|inst2|inst4~q $end
$var wire 1 v! inst|inst1|inst2|inst4~q $end
$var wire 1 w! inst|inst1|inst|inst4~q $end
$var wire 1 x! inst1|inst7|inst|inst41|inst1|inst5~0_combout $end
$var wire 1 y! inst|inst2|inst1|inst4~q $end
$var wire 1 z! inst|inst2|inst|inst4~q $end
$var wire 1 {! inst|inst1|inst1|inst4~q $end
$var wire 1 |! inst|inst|inst1|inst~0_combout $end
$var wire 1 }! inst|inst|inst2|inst~1_combout $end
$var wire 1 ~! inst|inst1|inst3|inst4~q $end
$var wire 1 !" inst|inst2|inst3|inst4~q $end
$var wire 1 "" inst|inst|inst2|inst~0_combout $end
$var wire 1 #" inst|inst|inst4|inst~3_combout $end
$var wire 1 $" inst|inst1|inst5|inst4~q $end
$var wire 1 %" inst|inst1|inst4|inst4~q $end
$var wire 1 &" inst|inst|inst3|inst~0_combout $end
$var wire 1 '" inst|inst|inst4|inst~2_combout $end
$var wire 1 (" inst|inst|inst5|inst~0_combout $end
$var wire 1 )" inst|inst|inst7|inst~0_combout $end
$var wire 1 *" inst|inst|inst9|inst~0_combout $end
$var wire 1 +" inst|inst|inst11|inst~0_combout $end
$var wire 1 ," inst1|inst8|inst6~8_combout $end
$var wire 1 -" inst|inst|inst7|inst6~combout $end
$var wire 1 ." inst|inst|inst6|inst6~0_combout $end
$var wire 1 /" inst|inst|inst4|inst6~0_combout $end
$var wire 1 0" inst|inst|inst3|inst6~combout $end
$var wire 1 1" inst|inst|inst2|inst6~0_combout $end
$var wire 1 2" inst|inst|inst12|inst6~combout $end
$var wire 1 3" inst|inst|inst1|inst6~0_combout $end
$var wire 1 4" inst1|inst8|inst|inst7|inst10~0_combout $end
$var wire 1 5" inst1|inst8|inst|inst7|inst10~1_combout $end
$var wire 1 6" inst1|inst8|inst|inst7|inst10~2_combout $end
$var wire 1 7" inst1|inst8|inst|inst7|inst10~3_combout $end
$var wire 1 8" inst|inst|inst5|inst6~combout $end
$var wire 1 9" inst1|inst8|inst|inst7|inst10~4_combout $end
$var wire 1 :" inst1|inst8|inst|inst7|inst10~5_combout $end
$var wire 1 ;" inst|inst|inst9|inst6~combout $end
$var wire 1 <" inst1|inst8|inst|inst8|inst2~combout $end
$var wire 1 =" inst|inst|inst10|inst6~0_combout $end
$var wire 1 >" inst|inst|inst10|inst6~1_combout $end
$var wire 1 ?" inst|inst|inst11|inst6~combout $end
$var wire 1 @" inst1|inst8|inst|inst11|inst5~1_combout $end
$var wire 1 A" inst1|inst8|inst|inst11|inst5~2_combout $end
$var wire 1 B" inst1|inst8|inst|inst11|inst9~1_combout $end
$var wire 1 C" inst1|inst8|inst6~14_combout $end
$var wire 1 D" inst1|inst8|inst|inst11|inst9~0_combout $end
$var wire 1 E" inst1|inst8|inst6~13_combout $end
$var wire 1 F" inst1|inst8|inst6~15_combout $end
$var wire 1 G" inst1|inst8|inst6~10_combout $end
$var wire 1 H" inst1|inst8|inst6~11_combout $end
$var wire 1 I" inst1|inst8|inst|inst7|inst4~0_combout $end
$var wire 1 J" inst1|inst8|inst|inst7|inst4~1_combout $end
$var wire 1 K" inst1|inst8|inst|inst7|inst4~2_combout $end
$var wire 1 L" inst1|inst8|inst|inst7|inst4~3_combout $end
$var wire 1 M" inst1|inst8|inst|inst7|inst4~4_combout $end
$var wire 1 N" inst1|inst8|inst|inst7|inst4~5_combout $end
$var wire 1 O" inst1|inst8|inst|inst7|inst4~6_combout $end
$var wire 1 P" inst1|inst8|inst|inst11|inst5~0_combout $end
$var wire 1 Q" inst1|inst8|inst6~9_combout $end
$var wire 1 R" inst1|inst8|inst6~12_combout $end
$var wire 1 S" inst1|inst8|inst6~16_combout $end
$var wire 1 T" START~input_o $end
$var wire 1 U" inst1|inst1|inst|inst7|inst4~0_combout $end
$var wire 1 V" inst1|inst1|inst|inst7|inst4~1_combout $end
$var wire 1 W" inst1|inst1|inst|inst7|inst4~2_combout $end
$var wire 1 X" inst1|inst1|inst|inst7|inst4~3_combout $end
$var wire 1 Y" inst1|inst1|inst|inst7|inst4~4_combout $end
$var wire 1 Z" inst1|inst1|inst4~0_combout $end
$var wire 1 [" inst1|inst1|inst4~1_combout $end
$var wire 1 \" inst1|inst1|inst4~2_combout $end
$var wire 1 ]" inst1|inst1|inst|inst7|inst10~0_combout $end
$var wire 1 ^" inst1|inst1|inst|inst7|inst10~1_combout $end
$var wire 1 _" inst1|inst1|inst|inst7|inst10~2_combout $end
$var wire 1 `" inst1|inst1|inst|inst7|inst10~3_combout $end
$var wire 1 a" inst1|inst1|inst|inst7|inst10~4_combout $end
$var wire 1 b" inst1|inst1|inst|inst7|inst10~5_combout $end
$var wire 1 c" inst1|inst1|inst|inst7|inst10~6_combout $end
$var wire 1 d" inst1|inst1|inst4~3_combout $end
$var wire 1 e" inst1|inst1|inst4~4_combout $end
$var wire 1 f" inst1|inst1|inst4~5_combout $end
$var wire 1 g" inst1|inst1|inst4~6_combout $end
$var wire 1 h" inst1|inst1|inst4~7_combout $end
$var wire 1 i" inst1|inst6|inst|inst40~1_combout $end
$var wire 1 j" inst1|inst6|inst|inst51~1_combout $end
$var wire 1 k" inst1|inst6|inst1|inst1~q $end
$var wire 1 l" inst1|inst6|inst|inst40~5_combout $end
$var wire 1 m" CONTINUAR~input_o $end
$var wire 1 n" inst1|inst6|inst|inst40~3_combout $end
$var wire 1 o" inst1|inst6|inst|inst40~2_combout $end
$var wire 1 p" inst1|inst6|inst|inst40~4_combout $end
$var wire 1 q" inst1|inst6|inst|inst40~6_combout $end
$var wire 1 r" inst1|inst6|inst1|inst~q $end
$var wire 1 s" inst1|inst6|inst|inst60~1_combout $end
$var wire 1 t" inst1|inst6|inst|inst52~0_combout $end
$var wire 1 u" inst1|inst6|inst|inst60~0_combout $end
$var wire 1 v" inst1|inst6|inst|inst60~2_combout $end
$var wire 1 w" inst1|inst6|inst1|inst2~q $end
$var wire 1 x" inst1|inst6|inst|inst~1_combout $end
$var wire 1 y" inst1|inst7|inst3~0_combout $end
$var wire 1 z" inst4|inst2[11]~12_combout $end
$var wire 1 {" inst4|inst2[11]~13_combout $end
$var wire 1 |" inst4|inst2[10]~14_combout $end
$var wire 1 }" inst4|inst2[9]~15_combout $end
$var wire 1 ~" inst|inst|inst8|inst6~0_combout $end
$var wire 1 !# inst4|inst2[8]~16_combout $end
$var wire 1 "# inst4|inst2[7]~17_combout $end
$var wire 1 ## inst4|inst2[6]~18_combout $end
$var wire 1 $# inst4|inst2[5]~19_combout $end
$var wire 1 %# inst4|inst2[4]~20_combout $end
$var wire 1 &# inst4|inst2[3]~21_combout $end
$var wire 1 '# inst4|inst2[2]~22_combout $end
$var wire 1 (# inst4|inst2[1]~23_combout $end
$var wire 1 )# inst4|inst2[0]~24_combout $end
$var wire 1 *# inst1|inst4|inst3~0_combout $end
$var wire 1 +# inst1|inst4|inst4~0_combout $end
$var wire 1 ,# inst1|inst4|inst2~0_combout $end
$upscope $end
$upscope $end
$enddefinitions $end
#0
$dumpvars
b1 !
0"
1#
b1010 $
0%
1&
0'
0(
1)
0*
06
15
04
13
02
01
00
0/
0.
0-
0,
0+
07
08
19
1:
1;
1<
0=
0I
0H
0G
0F
0E
0D
0C
0B
0A
0@
0?
0>
0U
0T
0S
0R
0Q
0P
0O
0N
0M
0L
0K
0J
0V
xW
0X
1Y
xZ
1[
1\
1]
z^
z_
z`
za
zb
zc
zd
ze
zf
zg
zh
zi
0j
0k
1l
1m
1n
0o
0p
1q
0r
0s
0t
0u
0v
0w
0x
0y
0z
0{
0|
0}
0~
0!!
0"!
0#!
0$!
0%!
0&!
0'!
0(!
0)!
0*!
0+!
0,!
0-!
0.!
0/!
00!
01!
12!
13!
14!
05!
16!
07!
08!
09!
0:!
0;!
1<!
1=!
0>!
1?!
0@!
1A!
1B!
0C!
0D!
0E!
0F!
0G!
1H!
0I!
0J!
0K!
0L!
0M!
0N!
1O!
0P!
0Q!
0R!
0S!
0T!
0U!
1V!
0W!
0X!
0Y!
0Z!
0[!
0\!
1]!
0^!
0_!
0`!
0a!
0b!
0c!
1d!
1e!
1f!
1g!
0h!
1i!
0j!
0k!
0l!
1m!
0n!
0o!
0p!
0q!
0r!
0s!
0t!
0u!
0v!
0w!
0x!
0y!
0z!
0{!
0|!
0}!
0~!
0!"
0""
0#"
0$"
0%"
0&"
0'"
0("
0)"
0*"
0+"
1,"
0-"
0."
0/"
00"
01"
02"
03"
04"
05"
06"
07"
08"
09"
0:"
0;"
0<"
1="
0>"
0?"
1@"
1A"
0B"
1C"
0D"
1E"
0F"
1G"
0H"
0I"
0J"
0K"
0L"
0M"
0N"
0O"
0P"
1Q"
0R"
1S"
0T"
0U"
0V"
0W"
0X"
0Y"
0Z"
0["
0\"
0]"
0^"
0_"
0`"
0a"
0b"
0c"
0d"
0e"
0f"
0g"
0h"
0i"
0j"
0k"
0l"
1m"
0n"
0o"
0p"
0q"
0r"
0s"
0t"
0u"
0v"
0w"
0x"
1y"
1z"
0{"
1|"
1}"
0~"
1!#
1"#
1##
1$#
1%#
1&#
1'#
1(#
1)#
0*#
0+#
1,#
$end
#10000
1"
1-!
1.!
0W
1~!
1{!
1z!
15!
1G!
1@!
10"
13"
12"
1x!
1t!
1l!
1_"
0H!
1]"
0A!
1{
1}
1F
1H
16"
14"
1`"
0f!
1^"
17"
15"
1a"
0,"
19"
1b"
0S"
1:"
1c"
0q
09
1B"
#20000
b10 $
b11 $
1%
0&
0"
16
03
1:!
0B!
17!
0<!
0-!
0.!
1W
18!
0g!
0=!
0l
0n
0<
0;
#30000
1"
1-!
1.!
0W
1!"
1y!
1u!
1n!
1;!
19!
00"
1/"
1&"
1#"
03"
1|!
11"
1~"
1D"
1?"
0="
1<"
1;"
18"
1."
1-"
0]"
1V"
04"
1,!
1+!
1U
1T
0/"
08"
1("
1I"
01"
1""
0E"
0C"
0@"
1>"
0A"
0^"
1W"
0."
0-"
1)"
1J"
05"
10"
1E"
0B"
0~"
0D"
0>"
0<"
0;"
1*"
0?"
1+"
1C"
1@"
1r
1*
1A"
1B"
#40000
bz00000000011 $
bz0000000011 $
bz000000011 $
bz00000011 $
bz0000011 $
bz000011 $
bz00011 $
bz0011 $
bz0z11 $
bz0zz1 $
1(
bz1 $
bz $
0%
0"
z6
z5
z4
z3
z2
z1
z0
z/
z.
z-
z,
z+
z:!
z6!
zD!
zB!
z`!
z^!
zW!
zY!
zI!
zK!
zP!
zR!
1T"
07!
0-!
0.!
1W
x?!
1s"
1i"
08!
1q"
1j"
#50000
1"
1-!
1.!
0W
1r"
1k"
0y"
1l"
02!
11!
1{"
1g!
0i"
1F"
1p"
1k
1i
1h
1g
1f
1e
1d
1c
1b
1a
1`
1_
1^
1l
1=
16
15
14
13
12
11
10
1/
1.
1-
1,
1+
1<
0(#
0'#
0%#
0$#
0##
0"#
0!#
0}"
0|"
0z"
1:!
16!
1D!
1B!
1`!
1^!
1W!
1Y!
1I!
1K!
1P!
1R!
0h
0g
0e
0d
0c
0b
0a
0`
0_
0^
05
04
02
01
00
0/
0.
0-
0,
0+
1?!
06!
0D!
0`!
0^!
0W!
0Y!
0I!
0K!
0P!
0R!
0?!
#60000
0(
0"
0T"
0-!
0.!
1W
#70000
1"
1-!
1.!
0W
0{!
1w!
02"
0)#
0i
06
0:!
#80000
0"
0-!
0.!
1W
#90000
1"
1-!
1.!
0W
0w!
13"
12"
0|!
0I"
11"
0""
1(#
1)#
0J"
15"
00"
1h
1i
15
16
1'#
16!
1:!
1g
14
0&#
1?!
1D!
0f
03
0B!
#100000
0"
0-!
0.!
1W
#110000
1"
1-!
1.!
0W
0~!
1{!
1w!
1v!
10"
0&"
0#"
1|!
02"
01"
1}!
1/"
18"
0("
11"
1""
1I"
05"
00"
1&"
1#"
1&#
0)#
0'#
1."
1-"
0)"
15"
06"
0/"
08"
1("
1f
0i
0g
13
06
04
1%#
1$#
1'#
0&#
1~"
1D"
1>"
1<"
1;"
0*"
16"
07"
0."
0-"
1)"
1B!
0:!
0D!
1e
1d
1g
0f
12
11
14
03
1##
1"#
0%#
0$#
0E"
0C"
0@"
0A"
1?"
17"
09"
0~"
0D"
0>"
0<"
0;"
1*"
1`!
1^!
1D!
0B!
1c
1b
0e
0d
10
1/
02
01
1!#
1|"
1}"
0+"
0##
0"#
0F"
1E"
0B"
19"
0:"
0?"
1W!
1Y!
0`!
0^!
1H"
1,"
1a
1_
1`
0r
0c
0b
1.
1,
1-
0*
00
0/
1z"
0!#
0|"
0}"
1+"
1:"
1C"
1@"
1R"
1I!
1P!
1K!
0W!
0Y!
0H"
0,"
1^
0a
0_
0`
1r
1+
0.
0,
0-
1*
1S"
0z"
1F"
1A"
0R"
1R!
0I!
0P!
0K!
1v"
0j"
1q
0^
19
0+
1B"
0R!
0S"
0v"
1j"
0q
09
#120000
0"
0-!
0.!
1W
#130000
1"
1-!
1.!
0W
0w!
03"
12"
0(#
1)#
0h
1i
05
16
06!
1:!
0?!
#140000
0"
0-!
0.!
1W
#150000
1"
1-!
1.!
0W
0{!
1w!
02"
0)#
0i
06
0:!
#160000
0"
0-!
0.!
1W
#170000
1"
1-!
1.!
0W
0w!
13"
12"
0|!
0I"
01"
0""
1(#
1)#
05"
1h
1i
15
16
0'#
06"
16!
1:!
0g
04
07"
1?!
0D!
09"
0:"
0B"
1S"
1v"
0j"
1q
19
#180000
0"
0-!
0.!
1W
#190000
1"
1-!
1.!
0W
1w"
0k"
1{!
1w!
0v!
1u"
1n"
0l"
01!
10!
1|!
02"
11"
0}!
0g!
1+#
0s"
1j"
01"
1""
1I"
15"
10"
0&"
0#"
0l
1o
0<
18
0)#
1'#
1J"
05"
00"
1&"
1#"
16"
1/"
18"
0("
0i
1g
06
14
0'#
1&#
1K"
06"
0/"
08"
1("
17"
19"
1."
1-"
0)"
0:!
1D!
0g
1f
04
13
0&#
1%#
1$#
1L"
07"
0."
0-"
1)"
1:"
1B"
1~"
1D"
1>"
1<"
1;"
0*"
0D!
1B!
0f
1e
1d
03
12
11
0%#
0$#
1##
1"#
1M"
09"
0~"
0D"
0>"
0<"
0;"
1*"
0E"
0C"
0@"
0A"
1?"
0B!
1`!
1^!
0e
0d
1c
1b
02
01
10
1/
0##
0"#
0S"
1!#
1|"
1}"
0+"
1N"
0:"
1E"
0?"
0F"
0B"
0`!
0^!
1W!
1Y!
1H"
1,"
0c
0b
0q
1a
1_
1`
0r
00
0/
09
1.
1,
1-
0*
0!#
0|"
0}"
1+"
1z"
1O"
1C"
1@"
1R"
0W!
0Y!
1I!
1P!
1K!
0H"
0,"
0a
0_
0`
1r
1^
0.
0,
0-
1*
1+
0z"
1S"
0R"
1F"
1A"
0I!
0P!
0K!
1R!
0^
1q
0+
19
0R!
#200000
0"
0-!
0.!
1W
#210000
1"
1-!
1.!
0W
1k"
1y"
1x"
0u"
0+#
0m!
1g!
0v"
0k
0o
0m
1l
0=
08
0:
1<
1&#
1f
13
1B!
#220000
0"
0-!
0.!
1W
#230000
1"
1-!
1.!
0W
0w"
1~!
0w!
0y"
0x"
0n"
1l"
11!
00!
10"
03"
12"
1m!
1s"
0j"
0K"
16"
1k
1m
1=
1:
1)#
0(#
1v"
0L"
17"
1i
0h
16
05
0M"
19"
1:!
06!
0N"
1:"
0?!
0O"
1B"
0S"
0v"
1j"
0q
09
#240000
0"
0-!
0.!
1W
#250000
1"
1-!
1.!
0W
0{!
1w!
02"
0)#
0i
06
0:!
#260000
0"
0-!
0.!
1W
#270000
1"
1-!
1.!
0W
0w!
13"
12"
0|!
0I"
11"
0""
1(#
1)#
0J"
15"
00"
1h
1i
15
16
1'#
16!
1:!
1g
14
0&#
1?!
1D!
0f
03
0B!
#280000
0"
0-!
0.!
1W
#290000
1"
1-!
1.!
0W
0~!
1{!
1w!
1v!
10"
0&"
0#"
1|!
02"
01"
1}!
1/"
18"
0("
11"
1""
1I"
05"
00"
1&"
1#"
1&#
0)#
0'#
1."
1-"
0)"
15"
06"
0/"
08"
1("
1f
0i
0g
13
06
04
1%#
1$#
1'#
0&#
1~"
1D"
1>"
1<"
1;"
0*"
16"
07"
0."
0-"
1)"
1B!
0:!
0D!
1e
1d
1g
0f
12
11
14
03
1##
1"#
0%#
0$#
0E"
0C"
0@"
0A"
1?"
17"
09"
0~"
0D"
0>"
0<"
0;"
1*"
1`!
1^!
1D!
0B!
1c
1b
0e
0d
10
1/
02
01
1!#
1|"
1}"
0+"
0##
0"#
0F"
1E"
0B"
19"
0:"
0?"
1W!
1Y!
0`!
0^!
1H"
1,"
1a
1_
1`
0r
0c
0b
1.
1,
1-
0*
00
0/
1z"
0!#
0|"
0}"
1+"
1:"
1C"
1@"
1R"
1I!
1P!
1K!
0W!
0Y!
0H"
0,"
1^
0a
0_
0`
1r
1+
0.
0,
0-
1*
1S"
0z"
1F"
1A"
0R"
1R!
0I!
0P!
0K!
1v"
0j"
1q
0^
19
0+
1B"
0R!
0S"
0v"
1j"
0q
09
#300000
0"
0-!
0.!
1W
#310000
1"
1-!
1.!
0W
0w!
03"
12"
0(#
1)#
0h
1i
05
16
06!
1:!
0?!
#320000
0"
0-!
0.!
1W
#330000
1"
1-!
1.!
0W
0{!
1w!
02"
0)#
0i
06
0:!
#340000
0"
0-!
0.!
1W
#350000
1"
1-!
1.!
0W
0w!
13"
12"
0|!
0I"
01"
0""
1(#
1)#
05"
1h
1i
15
16
0'#
06"
16!
1:!
0g
04
07"
1?!
0D!
09"
0:"
0B"
1S"
1v"
0j"
1q
19
#360000
0"
0-!
0.!
1W
#370000
1"
1-!
1.!
0W
1w"
0k"
1{!
1w!
0v!
1u"
1n"
0l"
01!
10!
1|!
02"
11"
0}!
0g!
1+#
0s"
1j"
01"
1""
1I"
15"
10"
0&"
0#"
0l
1o
0<
18
0)#
1'#
1J"
05"
00"
1&"
1#"
16"
1/"
18"
0("
0i
1g
06
14
0'#
1&#
1K"
06"
0/"
08"
1("
17"
19"
1."
1-"
0)"
0:!
1D!
0g
1f
04
13
0&#
1%#
1$#
1L"
07"
0."
0-"
1)"
1:"
1B"
1~"
1D"
1>"
1<"
1;"
0*"
0D!
1B!
0f
1e
1d
03
12
11
0%#
0$#
1##
1"#
1M"
09"
0~"
0D"
0>"
0<"
0;"
1*"
0E"
0C"
0@"
0A"
1?"
0B!
1`!
1^!
0e
0d
1c
1b
02
01
10
1/
0##
0"#
0S"
1!#
1|"
1}"
0+"
1N"
0:"
1E"
0?"
0F"
0B"
0`!
0^!
1W!
1Y!
1H"
1,"
0c
0b
0q
1a
1_
1`
0r
00
0/
09
1.
1,
1-
0*
0!#
0|"
0}"
1+"
1z"
1O"
1C"
1@"
1R"
0W!
0Y!
1I!
1P!
1K!
0H"
0,"
0a
0_
0`
1r
1^
0.
0,
0-
1*
1+
0z"
1S"
0R"
1F"
1A"
0I!
0P!
0K!
1R!
0^
1q
0+
19
0R!
#380000
0"
0-!
0.!
1W
#390000
1"
1-!
1.!
0W
1k"
1y"
1x"
0u"
0+#
0m!
1g!
0v"
0k
0o
0m
1l
0=
08
0:
1<
1&#
1f
13
1B!
#400000
0"
0-!
0.!
1W
#410000
1"
1-!
1.!
0W
0w"
1~!
0w!
0y"
0x"
0n"
1l"
11!
00!
10"
03"
12"
1m!
1s"
0j"
0K"
16"
1k
1m
1=
1:
1)#
0(#
1v"
0L"
17"
1i
0h
16
05
0M"
19"
1:!
06!
0N"
1:"
0?!
0O"
1B"
0S"
0v"
1j"
0q
09
#420000
0"
0-!
0.!
1W
#430000
1"
1-!
1.!
0W
0{!
1w!
02"
0)#
0i
06
0:!
#440000
0"
0-!
0.!
1W
#450000
1"
1-!
1.!
0W
0w!
13"
12"
0|!
0I"
11"
0""
1(#
1)#
0J"
15"
00"
1h
1i
15
16
1'#
16!
1:!
1g
14
0&#
1?!
1D!
0f
03
0B!
#460000
0"
0-!
0.!
1W
#470000
1"
1-!
1.!
0W
0~!
1{!
1w!
1v!
10"
0&"
0#"
1|!
02"
01"
1}!
1/"
18"
0("
11"
1""
1I"
05"
00"
1&"
1#"
1&#
0)#
0'#
1."
1-"
0)"
15"
06"
0/"
08"
1("
1f
0i
0g
13
06
04
1%#
1$#
1'#
0&#
1~"
1D"
1>"
1<"
1;"
0*"
16"
07"
0."
0-"
1)"
1B!
0:!
0D!
1e
1d
1g
0f
12
11
14
03
1##
1"#
0%#
0$#
0E"
0C"
0@"
0A"
1?"
17"
09"
0~"
0D"
0>"
0<"
0;"
1*"
1`!
1^!
1D!
0B!
1c
1b
0e
0d
10
1/
02
01
1!#
1|"
1}"
0+"
0##
0"#
0F"
1E"
0B"
19"
0:"
0?"
1W!
1Y!
0`!
0^!
1H"
1,"
1a
1_
1`
0r
0c
0b
1.
1,
1-
0*
00
0/
1z"
0!#
0|"
0}"
1+"
1:"
1C"
1@"
1R"
1I!
1P!
1K!
0W!
0Y!
0H"
0,"
1^
0a
0_
0`
1r
1+
0.
0,
0-
1*
1S"
0z"
1F"
1A"
0R"
1R!
0I!
0P!
0K!
1v"
0j"
1q
0^
19
0+
1B"
0R!
0S"
0v"
1j"
0q
09
#480000
0"
0-!
0.!
1W
#490000
1"
1-!
1.!
0W
0w!
03"
12"
0(#
1)#
0h
1i
05
16
06!
1:!
0?!
#500000
0"
0-!
0.!
1W
#510000
1"
1-!
1.!
0W
0{!
1w!
02"
0)#
0i
06
0:!
#520000
0"
0-!
0.!
1W
