TEI_GRUPO17/simulation/qsim/TEI_GRUPO17.msim.vcd
$comment
	File created using the following command:
		vcd file TEI_GRUPO17.msim.vcd -direction
$end
$date
	Wed Jul 30 05:30:07 2025
$end
$version
	ModelSim Version 10.1d
$end
$timescale
	1ps
$end
$scope module circuito_principal_vlg_vec_tst $end
$var reg 3 ! b [2:0] $end
$var reg 1 " CLK $end
$var reg 1 # CONTINUAR $end
$var reg 12 $ treg_DATA [11:0] $end
$var reg 1 % LOAD_F $end
$var reg 1 & LOAD_I $end
$var reg 1 ' RECARGAR $end
$var reg 1 ( START $end
$var reg 1 ) UP_DOWN $end
$var wire 1 * CarryOUT $end
$var wire 1 + DATA [11] $end
$var wire 1 , DATA [10] $end
$var wire 1 - DATA [9] $end
$var wire 1 . DATA [8] $end
$var wire 1 / DATA [7] $end
$var wire 1 0 DATA [6] $end
$var wire 1 1 DATA [5] $end
$var wire 1 2 DATA [4] $end
$var wire 1 3 DATA [3] $end
$var wire 1 4 DATA [2] $end
$var wire 1 5 DATA [1] $end
$var wire 1 6 DATA [0] $end
$var wire 1 7 ERROR $end
$var wire 1 8 FIN $end
$var wire 1 9 FINDET $end
$var wire 1 : Ienb_UC $end
$var wire 1 ; IenVI_UA $end
$var wire 1 < IenVI_UC $end
$var wire 1 = OenVC_UC $end
$var wire 1 > OregA [11] $end
$var wire 1 ? OregA [10] $end
$var wire 1 @ OregA [9] $end
$var wire 1 A OregA [8] $end
$var wire 1 B OregA [7] $end
$var wire 1 C OregA [6] $end
$var wire 1 D OregA [5] $end
$var wire 1 E OregA [4] $end
$var wire 1 F OregA [3] $end
$var wire 1 G OregA [2] $end
$var wire 1 H OregA [1] $end
$var wire 1 I OregA [0] $end
$var wire 1 J OregB [11] $end
$var wire 1 K OregB [10] $end
$var wire 1 L OregB [9] $end
$var wire 1 M OregB [8] $end
$var wire 1 N OregB [7] $end
$var wire 1 O OregB [6] $end
$var wire 1 P OregB [5] $end
$var wire 1 Q OregB [4] $end
$var wire 1 R OregB [3] $end
$var wire 1 S OregB [2] $end
$var wire 1 T OregB [1] $end
$var wire 1 U OregB [0] $end
$var wire 1 V PAUSA $end
$var wire 1 W sampler $end
$scope module i1 $end
$var wire 1 X gnd $end
$var wire 1 Y vcc $end
$var wire 1 Z unknown $end
$var tri1 1 [ devclrn $end
$var tri1 1 \ devpor $end
$var tri1 1 ] devoe $end
$var wire 1 ^ DATA[11]~output_o $end
$var wire 1 _ DATA[10]~output_o $end
$var wire 1 ` DATA[9]~output_o $end
$var wire 1 a DATA[8]~output_o $end
$var wire 1 b DATA[7]~output_o $end
$var wire 1 c DATA[6]~output_o $end
$var wire 1 d DATA[5]~output_o $end
$var wire 1 e DATA[4]~output_o $end
$var wire 1 f DATA[3]~output_o $end
$var wire 1 g DATA[2]~output_o $end
$var wire 1 h DATA[1]~output_o $end
$var wire 1 i DATA[0]~output_o $end
$var wire 1 j ERROR~output_o $end
$var wire 1 k OenVC_UC~output_o $end
$var wire 1 l IenVI_UC~output_o $end
$var wire 1 m Ienb_UC~output_o $end
$var wire 1 n IenVI_UA~output_o $end
$var wire 1 o FIN~output_o $end
$var wire 1 p PAUSA~output_o $end
$var wire 1 q FINDET~output_o $end
$var wire 1 r CarryOUT~output_o $end
$var wire 1 s OregA[11]~output_o $end
$var wire 1 t OregA[10]~output_o $end
$var wire 1 u OregA[9]~output_o $end
$var wire 1 v OregA[8]~output_o $end
$var wire 1 w OregA[7]~output_o $end
$var wire 1 x OregA[6]~output_o $end
$var wire 1 y OregA[5]~output_o $end
$var wire 1 z OregA[4]~output_o $end
$var wire 1 { OregA[3]~output_o $end
$var wire 1 | OregA[2]~output_o $end
$var wire 1 } OregA[1]~output_o $end
$var wire 1 ~ OregA[0]~output_o $end
$var wire 1 !! OregB[11]~output_o $end
$var wire 1 "! OregB[10]~output_o $end
$var wire 1 #! OregB[9]~output_o $end
$var wire 1 $! OregB[8]~output_o $end
$var wire 1 %! OregB[7]~output_o $end
$var wire 1 &! OregB[6]~output_o $end
$var wire 1 '! OregB[5]~output_o $end
$var wire 1 (! OregB[4]~output_o $end
$var wire 1 )! OregB[3]~output_o $end
$var wire 1 *! OregB[2]~output_o $end
$var wire 1 +! OregB[1]~output_o $end
$var wire 1 ,! OregB[0]~output_o $end
$var wire 1 -! CLK~input_o $end
$var wire 1 .! CLK~inputclkctrl_outclk $end
$var wire 1 /! RECARGAR~input_o $end
$var wire 1 0! inst1|inst6|inst|inst40~0_combout $end
$var wire 1 1! b[0]~input_o $end
$var wire 1 2! b[1]~input_o $end
$var wire 1 3! b[2]~input_o $end
$var wire 1 4! inst1|inst6|inst|inst40~2_combout $end
$var wire 1 5! CONTINUAR~input_o $end
$var wire 1 6! inst1|inst6|inst|inst40~3_combout $end
$var wire 1 7! inst1|inst6|inst|inst40~4_combout $end
$var wire 1 8! inst1|inst6|inst|inst40~5_combout $end
$var wire 1 9! DATA[10]~input_o $end
$var wire 1 :! LOAD_I~input_o $end
$var wire 1 ;! inst1|inst7|inst9~0_combout $end
$var wire 1 <! inst|inst1|inst10|inst4~q $end
$var wire 1 =! UP_DOWN~input_o $end
$var wire 1 >! inst1|inst6|inst|inst~0_combout $end
$var wire 1 ?! inst1|inst5|inst4~0_combout $end
$var wire 1 @! inst1|inst5|inst4~q $end
$var wire 1 A! inst1|inst7|inst|inst41|inst11|inst5~0_combout $end
$var wire 1 B! inst|inst2|inst10|inst4~q $end
$var wire 1 C! DATA[11]~input_o $end
$var wire 1 D! inst|inst1|inst11|inst4~q $end
$var wire 1 E! DATA[8]~input_o $end
$var wire 1 F! inst|inst1|inst8|inst4~q $end
$var wire 1 G! DATA[9]~input_o $end
$var wire 1 H! inst|inst1|inst9|inst4~q $end
$var wire 1 I! DATA[6]~input_o $end
$var wire 1 J! inst|inst1|inst6|inst4~q $end
$var wire 1 K! DATA[7]~input_o $end
$var wire 1 L! inst|inst1|inst7|inst4~q $end
$var wire 1 M! DATA[5]~input_o $end
$var wire 1 N! inst|inst1|inst5|inst4~q $end
$var wire 1 O! DATA[3]~input_o $end
$var wire 1 P! inst|inst1|inst3|inst4~q $end
$var wire 1 Q! inst|inst2|inst3|inst4~q $end
$var wire 1 R! inst1|inst7|inst|inst41|inst2|inst5~combout $end
$var wire 1 S! inst|inst2|inst2|inst4~q $end
$var wire 1 T! inst1|inst7|inst|inst41|inst1|inst5~0_combout $end
$var wire 1 U! inst|inst2|inst1|inst4~q $end
$var wire 1 V! DATA[1]~input_o $end
$var wire 1 W! inst|inst1|inst1|inst4~q $end
$var wire 1 X! inst|inst2|inst|inst4~q $end
$var wire 1 Y! DATA[0]~input_o $end
$var wire 1 Z! inst|inst1|inst|inst4~q $end
$var wire 1 [! inst|inst|inst1|inst~0_combout $end
$var wire 1 \! inst|inst|inst2|inst~0_combout $end
$var wire 1 ]! DATA[2]~input_o $end
$var wire 1 ^! inst|inst1|inst2|inst4~q $end
$var wire 1 _! inst|inst|inst2|inst~1_combout $end
$var wire 1 `! inst|inst|inst4|inst~5_combout $end
$var wire 1 a! inst|inst|inst4|inst~6_combout $end
$var wire 1 b! DATA[4]~input_o $end
$var wire 1 c! inst|inst1|inst4|inst4~q $end
$var wire 1 d! inst|inst|inst4|inst~4_combout $end
$var wire 1 e! inst|inst|inst5|inst~0_combout $end
$var wire 1 f! inst|inst|inst7|inst~0_combout $end
$var wire 1 g! inst|inst|inst9|inst~0_combout $end
$var wire 1 h! inst|inst|inst11|inst~0_combout $end
$var wire 1 i! LOAD_F~input_o $end
$var wire 1 j! inst1|inst3|inst3~0_combout $end
$var wire 1 k! inst4|inst3|inst10|inst4~q $end
$var wire 1 l! inst1|inst8|inst|inst11|inst9~0_combout $end
$var wire 1 m! inst4|inst3|inst11|inst4~q $end
$var wire 1 n! inst|inst|inst11|inst6~combout $end
$var wire 1 o! inst1|inst8|inst11~4_combout $end
$var wire 1 p! inst4|inst3|inst9|inst4~q $end
$var wire 1 q! inst4|inst3|inst8|inst4~q $end
$var wire 1 r! inst1|inst8|inst|inst11|inst9~1_combout $end
$var wire 1 s! inst|inst|inst9|inst6~combout $end
$var wire 1 t! inst|inst|inst7|inst6~combout $end
$var wire 1 u! inst4|inst3|inst7|inst4~q $end
$var wire 1 v! inst4|inst3|inst6|inst4~q $end
$var wire 1 w! inst4|inst3|inst5|inst4~q $end
$var wire 1 x! inst|inst|inst5|inst6~combout $end
$var wire 1 y! inst4|inst3|inst4|inst4~q $end
$var wire 1 z! inst|inst|inst3|inst~0_combout $end
$var wire 1 {! inst|inst|inst4|inst6~0_combout $end
$var wire 1 |! inst4|inst3|inst3|inst4~q $end
$var wire 1 }! inst|inst|inst3|inst6~combout $end
$var wire 1 ~! inst4|inst3|inst2|inst4~q $end
$var wire 1 !" inst|inst|inst2|inst6~0_combout $end
$var wire 1 "" inst|inst|inst12|inst6~combout $end
$var wire 1 #" inst4|inst3|inst1|inst4~q $end
$var wire 1 $" inst4|inst3|inst|inst4~q $end
$var wire 1 %" inst|inst|inst1|inst6~0_combout $end
$var wire 1 &" inst1|inst8|inst|inst7|inst10~0_combout $end
$var wire 1 '" inst1|inst8|inst|inst7|inst10~1_combout $end
$var wire 1 (" inst1|inst8|inst|inst7|inst10~2_combout $end
$var wire 1 )" inst1|inst8|inst|inst7|inst10~3_combout $end
$var wire 1 *" inst1|inst8|inst|inst7|inst10~4_combout $end
$var wire 1 +" inst|inst|inst6|inst6~0_combout $end
$var wire 1 ," inst1|inst8|inst|inst7|inst10~5_combout $end
$var wire 1 -" inst1|inst8|inst|inst8|inst2~combout $end
$var wire 1 ." inst1|inst8|inst11~5_combout $end
$var wire 1 /" inst1|inst8|inst11~6_combout $end
$var wire 1 0" inst|inst|inst10|inst6~0_combout $end
$var wire 1 1" inst1|inst8|inst|inst11|inst5~0_combout $end
$var wire 1 2" inst1|inst8|inst11~7_combout $end
$var wire 1 3" inst1|inst8|inst|inst11|inst5~1_combout $end
$var wire 1 4" inst1|inst8|inst11~0_combout $end
$var wire 1 5" inst1|inst8|inst|inst11|inst5~2_combout $end
$var wire 1 6" inst1|inst8|inst|inst7|inst4~0_combout $end
$var wire 1 7" inst1|inst8|inst|inst7|inst4~1_combout $end
$var wire 1 8" inst1|inst8|inst|inst7|inst4~2_combout $end
$var wire 1 9" inst1|inst8|inst|inst7|inst4~3_combout $end
$var wire 1 :" inst1|inst8|inst|inst7|inst4~4_combout $end
$var wire 1 ;" inst1|inst8|inst|inst7|inst4~5_combout $end
$var wire 1 <" inst1|inst8|inst11~1_combout $end
$var wire 1 =" inst1|inst8|inst11~2_combout $end
$var wire 1 >" inst1|inst8|inst11~3_combout $end
$var wire 1 ?" inst1|inst8|inst11~8_combout $end
$var wire 1 @" START~input_o $end
$var wire 1 A" inst1|inst3|inst2~0_combout $end
$var wire 1 B" inst4|inst|inst11|inst4~q $end
$var wire 1 C" inst4|inst|inst10|inst4~q $end
$var wire 1 D" inst4|inst|inst9|inst4~q $end
$var wire 1 E" inst4|inst|inst8|inst4~q $end
$var wire 1 F" inst4|inst|inst7|inst4~q $end
$var wire 1 G" inst4|inst|inst6|inst4~q $end
$var wire 1 H" inst4|inst|inst5|inst4~q $end
$var wire 1 I" inst4|inst|inst4|inst4~q $end
$var wire 1 J" inst4|inst|inst3|inst4~q $end
$var wire 1 K" inst4|inst|inst2|inst4~q $end
$var wire 1 L" inst4|inst|inst1|inst4~q $end
$var wire 1 M" inst4|inst|inst|inst4~q $end
$var wire 1 N" inst1|inst1|inst|inst7|inst10~0_combout $end
$var wire 1 O" inst1|inst1|inst|inst7|inst10~1_combout $end
$var wire 1 P" inst1|inst1|inst|inst7|inst10~2_combout $end
$var wire 1 Q" inst1|inst1|inst|inst7|inst10~3_combout $end
$var wire 1 R" inst1|inst1|inst|inst7|inst10~4_combout $end
$var wire 1 S" inst1|inst1|inst|inst7|inst10~5_combout $end
$var wire 1 T" inst1|inst1|inst|inst7|inst10~6_combout $end
$var wire 1 U" inst1|inst1|inst4~4_combout $end
$var wire 1 V" inst1|inst1|inst|inst7|inst4~0_combout $end
$var wire 1 W" inst1|inst1|inst|inst7|inst4~1_combout $end
$var wire 1 X" inst1|inst1|inst|inst7|inst4~2_combout $end
$var wire 1 Y" inst1|inst1|inst|inst7|inst4~3_combout $end
$var wire 1 Z" inst1|inst1|inst4~0_combout $end
$var wire 1 [" inst1|inst1|inst4~1_combout $end
$var wire 1 \" inst1|inst1|inst4~2_combout $end
$var wire 1 ]" inst1|inst1|inst4~3_combout $end
$var wire 1 ^" inst1|inst1|inst4~5_combout $end
$var wire 1 _" inst1|inst1|inst4~6_combout $end
$var wire 1 `" inst1|inst1|inst4~7_combout $end
$var wire 1 a" inst1|inst1|inst4~8_combout $end
$var wire 1 b" inst1|inst6|inst|inst40~1_combout $end
$var wire 1 c" inst1|inst6|inst|inst40~6_combout $end
$var wire 1 d" inst1|inst6|inst1|inst~q $end
$var wire 1 e" inst1|inst6|inst|inst60~1_combout $end
$var wire 1 f" inst1|inst6|inst|inst60~0_combout $end
$var wire 1 g" inst1|inst6|inst|inst52~0_combout $end
$var wire 1 h" inst1|inst6|inst|inst60~2_combout $end
$var wire 1 i" inst1|inst6|inst1|inst2~q $end
$var wire 1 j" inst1|inst6|inst|inst51~0_combout $end
$var wire 1 k" inst1|inst6|inst|inst51~1_combout $end
$var wire 1 l" inst1|inst6|inst1|inst1~q $end
$var wire 1 m" inst1|inst7|inst3~0_combout $end
$var wire 1 n" inst1|inst6|inst|inst~1_combout $end
$var wire 1 o" inst4|inst2[11]~12_combout $end
$var wire 1 p" inst4|inst2[11]~13_combout $end
$var wire 1 q" inst4|inst2[10]~14_combout $end
$var wire 1 r" inst4|inst2[9]~15_combout $end
$var wire 1 s" inst|inst|inst8|inst6~0_combout $end
$var wire 1 t" inst4|inst2[8]~16_combout $end
$var wire 1 u" inst4|inst2[7]~17_combout $end
$var wire 1 v" inst4|inst2[6]~18_combout $end
$var wire 1 w" inst4|inst2[5]~19_combout $end
$var wire 1 x" inst4|inst2[4]~20_combout $end
$var wire 1 y" inst4|inst2[3]~21_combout $end
$var wire 1 z" inst4|inst2[2]~22_combout $end
$var wire 1 {" inst4|inst2[1]~23_combout $end
$var wire 1 |" inst4|inst2[0]~24_combout $end
$var wire 1 }" inst1|inst4|inst3~0_combout $end
$var wire 1 ~" inst1|inst4|inst4~0_combout $end
$var wire 1 !# inst1|inst4|inst2~0_combout $end
$upscope $end
$upscope $end
$enddefinitions $end
#0
$dumpvars
b1 !
0"
0#
b1010 $
0%
1&
0'
0(
1)
0*
06
15
04
13
02
01
00
0/
0.
0-
0,
0+
07
08
19
0:
1;
1<
0=
0I
0H
0G
0F
0E
0D
0C
0B
0A
0@
0?
0>
0U
0T
0S
0R
0Q
0P
0O
0N
0M
0L
0K
0J
0V
xW
0X
1Y
xZ
1[
1\
1]
z^
z_
z`
za
zb
zc
zd
ze
zf
zg
zh
zi
0j
0k
1l
0m
1n
0o
0p
1q
0r
0s
0t
0u
0v
0w
0x
0y
0z
0{
0|
0}
0~
0!!
0"!
0#!
0$!
0%!
0&!
0'!
0(!
0)!
0*!
0+!
0,!
0-!
0.!
0/!
00!
11!
02!
03!
04!
05!
06!
07!
08!
09!
1:!
1;!
0<!
1=!
1>!
1?!
0@!
0A!
0B!
0C!
0D!
0E!
0F!
0G!
0H!
0I!
0J!
0K!
0L!
0M!
0N!
1O!
0P!
0Q!
0R!
0S!
0T!
0U!
1V!
0W!
0X!
0Y!
0Z!
0[!
0\!
0]!
0^!
0_!
0`!
0a!
0b!
0c!
0d!
0e!
0f!
0g!
0h!
0i!
0j!
0k!
0l!
0m!
0n!
0o!
0p!
0q!
0r!
0s!
0t!
0u!
0v!
0w!
0x!
0y!
0z!
0{!
0|!
0}!
0~!
0!"
0""
0#"
0$"
0%"
0&"
0'"
0("
0)"
0*"
0+"
0,"
0-"
0."
0/"
00"
11"
02"
03"
14"
05"
06"
07"
08"
09"
0:"
0;"
0<"
0="
1>"
1?"
0@"
1A"
0B"
0C"
0D"
0E"
0F"
0G"
0H"
0I"
0J"
0K"
0L"
0M"
0N"
0O"
0P"
0Q"
0R"
0S"
0T"
0U"
0V"
0W"
0X"
0Y"
0Z"
0["
0\"
0]"
0^"
0_"
0`"
0a"
0b"
0c"
0d"
0e"
0f"
0g"
0h"
0i"
0j"
0k"
0l"
1m"
0n"
1o"
0p"
1q"
1r"
0s"
1t"
1u"
1v"
1w"
1x"
1y"
1z"
1{"
1|"
0}"
0~"
1!#
$end
#10000
1"
1-!
1.!
0W
1W!
1P!
1@!
1L"
1J"
1%"
1}!
1T!
1R!
1A!
1N"
1P"
1}
1{
1H
1F
1&"
1("
1O"
1Q"
1'"
1)"
1R"
1*"
1S"
1,"
1T"
1."
1/"
#20000
b10 $
b11 $
1%
0&
0"
16
03
1Y!
0O!
1i!
0:!
0-!
0.!
1W
1j!
0A"
0;!
0n
0l
0;
0<
#30000
1"
1-!
1.!
0W
1$"
1#"
1V"
0N"
16"
0&"
1,!
1+!
1U
1T
1W"
0O"
17"
0'"
#40000
bz00000000011 $
bz0000000011 $
bz000000011 $
bz00000011 $
bz0000011 $
bz000011 $
bz00011 $
bz0011 $
bz0z11 $
bz0zz1 $
1(
bz1 $
bz $
0%
0"
z6
z5
z4
z3
z2
z1
z0
z/
z.
z-
z,
z+
zY!
zV!
z]!
zO!
zb!
zM!
zI!
zK!
zE!
zG!
z9!
zC!
1@"
0i!
0-!
0.!
1W
1e"
1b"
0j!
1h"
1c"
#50000
1"
1-!
1.!
0W
1i"
1d"
0m"
1j"
1f"
0>!
0e"
0b"
1p"
1~"
1k"
0c"
1k
1m
1i
1h
1g
1f
1e
1d
1c
1b
1a
1`
1_
1^
1o
1=
1:
16
15
14
13
12
11
10
1/
1.
1-
1,
1+
18
0|"
0z"
0x"
0w"
0v"
0u"
0t"
0r"
0q"
0o"
1Y!
1V!
1]!
1O!
1b!
1M!
1I!
1K!
1E!
1G!
19!
1C!
0i
0g
0e
0d
0c
0b
0a
0`
0_
0^
06
04
02
01
00
0/
0.
0-
0,
0+
0Y!
0]!
0b!
0M!
0I!
0K!
0E!
0G!
09!
0C!
#60000
0(
0"
0@"
0-!
0.!
1W
#70000
1"
1-!
1.!
0W
1l"
0d"
1X!
1U!
1S!
1Q!
1B!
0%"
1""
1[!
1!"
1a!
0}!
1{!
1z!
1`!
1s"
10"
1-"
1+"
1x!
1t!
1s!
1r!
1n!
1l!
0~"
0!"
1\!
07"
1'"
18"
0("
0{!
0x!
1e!
01"
0."
0o
08
0{"
1|"
1z"
0y"
1x"
1t"
1q"
1v"
1w"
1u"
1r"
1o"
17"
0'"
1}!
08"
1("
19"
0)"
0+"
0t!
1f!
0h
1i
1g
0f
1e
1a
1_
1c
1d
1b
1`
1^
05
16
14
03
12
1.
1,
10
11
1/
1-
1+
0z"
0x"
0w"
09"
1)"
1:"
0*"
0s"
0-"
0s!
0r!
1g!
0V!
1Y!
1]!
0O!
1b!
1E!
19!
1I!
1M!
1K!
1G!
1C!
0g
0e
0d
04
02
01
1y"
0v"
0u"
0:"
1*"
1;"
0,"
1."
0/"
00"
0n!
0l!
0]!
0b!
0M!
1f
0c
0b
13
00
0/
0t"
0r"
1h!
0;"
1,"
1<"
0."
1/"
11"
04"
1o!
1O!
0I!
0K!
0a
0`
1r
0.
0-
1*
0q"
0o"
0<"
1."
1="
0/"
0>"
0E!
0G!
0_
0^
0,
0+
0="
1/"
12"
09!
0C!
0?"
02"
0q
09
1?"
1q
19
0?"
0q
09
#80000
0"
0-!
0.!
1W
#90000
1"
1-!
1.!
0W
#100000
0"
0-!
0.!
1W
#110000
1"
1-!
1.!
0W
#120000
0"
0-!
0.!
1W
#130000
1"
1-!
1.!
0W
#140000
0"
0-!
0.!
1W
#150000
1"
1-!
1.!
0W
#160000
0"
0-!
0.!
1W
#170000
1"
1-!
1.!
0W
#180000
0"
0-!
0.!
1W
#190000
1"
1-!
1.!
0W
#200000
0"
0-!
0.!
1W
#210000
1"
1-!
1.!
0W
#220000
0"
0-!
0.!
1W
#230000
1"
1-!
1.!
0W
#240000
0"
0-!
0.!
1W
#250000
1"
1-!
1.!
0W
#260000
0"
0-!
0.!
1W
#270000
1"
1-!
1.!
0W
#280000
0"
0-!
0.!
1W
#290000
1"
1-!
1.!
0W
#300000
0"
0-!
0.!
1W
#310000
1"
1-!
1.!
0W
#320000
0"
0-!
0.!
1W
#330000
1"
1-!
1.!
0W
#340000
0"
0-!
0.!
1W
#350000
1"
1-!
1.!
0W
#360000
0"
0-!
0.!
1W
#370000
1"
1-!
1.!
0W
#380000
0"
0-!
0.!
1W
#390000
1"
1-!
1.!
0W
#400000
0"
0-!
0.!
1W
#410000
1"
1-!
1.!
0W
#420000
0"
0-!
0.!
1W
#430000
1"
1-!
1.!
0W
#440000
0"
0-!
0.!
1W
#450000
1"
1-!
1.!
0W
#460000
0"
0-!
0.!
1W
#470000
1"
1-!
1.!
0W
#480000
0"
0-!
0.!
1W
#490000
1"
1-!
1.!
0W
#500000
0"
0-!
0.!
1W
#510000
1"
1-!
1.!
0W
#520000
0"
0-!
0.!
1W
#530000
1"
1-!
1.!
0W
#540000
0"
0-!
0.!
1W
#550000
1"
1-!
1.!
0W
#560000
0"
0-!
0.!
1W
#570000
1"
1-!
1.!
0W
#580000
0"
0-!
0.!
1W
#590000
1"
1-!
1.!
0W
#600000
0"
0-!
0.!
1W
#610000
1"
1-!
1.!
0W
#620000
0"
0-!
0.!
1W
#630000
1"
1-!
1.!
0W
#640000
0"
0-!
0.!
1W
#650000
1"
1-!
1.!
0W
#660000
0"
0-!
0.!
1W
#670000
1"
1-!
1.!
0W
#680000
0"
0-!
0.!
1W
#690000
1"
1-!
1.!
0W
#700000
0"
0-!
0.!
1W
#710000
1"
1-!
1.!
0W
#720000
0"
0-!
0.!
1W
#730000
1"
1-!
1.!
0W
#740000
0"
0-!
0.!
1W
#750000
1"
1-!
1.!
0W
#760000
0"
0-!
0.!
1W
#770000
1"
1-!
1.!
0W
#780000
0"
0-!
0.!
1W
#790000
1"
1-!
1.!
0W
#800000
0"
0-!
0.!
1W
#810000
1"
1-!
1.!
0W
#820000
0"
0-!
0.!
1W
#830000
1"
1-!
1.!
0W
#840000
0"
0-!
0.!
1W
#850000
1"
1-!
1.!
0W
#860000
0"
0-!
0.!
1W
#870000
1"
1-!
1.!
0W
#880000
0"
0-!
0.!
1W
#890000
1"
1-!
1.!
0W
#900000
0"
0-!
0.!
1W
#910000
1"
1-!
1.!
0W
#920000
0"
0-!
0.!
1W
#930000
1"
1-!
1.!
0W
#940000
0"
0-!
0.!
1W
#950000
1"
1-!
1.!
0W
#960000
0"
0-!
0.!
1W
#970000
1"
1-!
1.!
0W
#980000
0"
0-!
0.!
1W
#990000
1"
1-!
1.!
0W
