TEI_GRUPO17/simulation/qsim/TEI_GRUPO17.msim.vcd
$comment
	File created using the following command:
		vcd file TEI_GRUPO17.msim.vcd -direction
$end
$date
	Wed Jul 30 21:09:09 2025
$end
$version
	ModelSim Version 10.1d
$end
$timescale
	1ps
$end
$scope module circuito_principal_bloque_vlg_vec_tst $end
$var reg 3 ! b [2:0] $end
$var reg 1 " CLK $end
$var reg 1 # CONTINUAR $end
$var reg 12 $ treg_DATA [11:0] $end
$var reg 1 % LOAD_F $end
$var reg 1 & LOAD_I $end
$var reg 1 ' RECARGAR $end
$var reg 1 ( START $end
$var reg 1 ) UP_DOWN $end
$var wire 1 * DATA [11] $end
$var wire 1 + DATA [10] $end
$var wire 1 , DATA [9] $end
$var wire 1 - DATA [8] $end
$var wire 1 . DATA [7] $end
$var wire 1 / DATA [6] $end
$var wire 1 0 DATA [5] $end
$var wire 1 1 DATA [4] $end
$var wire 1 2 DATA [3] $end
$var wire 1 3 DATA [2] $end
$var wire 1 4 DATA [1] $end
$var wire 1 5 DATA [0] $end
$var wire 1 6 ERROR $end
$var wire 1 7 FIN $end
$var wire 1 8 FINDET $end
$var wire 1 9 PAUSA $end
$var wire 1 : sampler $end
$scope module i1 $end
$var wire 1 ; gnd $end
$var wire 1 < vcc $end
$var wire 1 = unknown $end
$var tri1 1 > devclrn $end
$var tri1 1 ? devpor $end
$var tri1 1 @ devoe $end
$var wire 1 A DATA[11]~output_o $end
$var wire 1 B DATA[10]~output_o $end
$var wire 1 C DATA[9]~output_o $end
$var wire 1 D DATA[8]~output_o $end
$var wire 1 E DATA[7]~output_o $end
$var wire 1 F DATA[6]~output_o $end
$var wire 1 G DATA[5]~output_o $end
$var wire 1 H DATA[4]~output_o $end
$var wire 1 I DATA[3]~output_o $end
$var wire 1 J DATA[2]~output_o $end
$var wire 1 K DATA[1]~output_o $end
$var wire 1 L DATA[0]~output_o $end
$var wire 1 M ERROR~output_o $end
$var wire 1 N FIN~output_o $end
$var wire 1 O PAUSA~output_o $end
$var wire 1 P FINDET~output_o $end
$var wire 1 Q CLK~input_o $end
$var wire 1 R CLK~inputclkctrl_outclk $end
$var wire 1 S DATA[11]~input_o $end
$var wire 1 T inst|inst4|inst|inst11|inst4~feeder_combout $end
$var wire 1 U START~input_o $end
$var wire 1 V RECARGAR~input_o $end
$var wire 1 W CONTINUAR~input_o $end
$var wire 1 X inst|inst1|inst6|inst|inst40~5_combout $end
$var wire 1 Y b[2]~input_o $end
$var wire 1 Z b[1]~input_o $end
$var wire 1 [ inst|inst1|inst6|inst|inst40~2_combout $end
$var wire 1 \ inst|inst1|inst6|inst|inst~2_combout $end
$var wire 1 ] DATA[10]~input_o $end
$var wire 1 ^ inst|inst4|inst|inst10|inst4~q $end
$var wire 1 _ LOAD_F~input_o $end
$var wire 1 ` inst|inst1|inst3|inst3~0_combout $end
$var wire 1 a inst|inst4|inst3|inst10|inst4~q $end
$var wire 1 b inst|inst4|inst3|inst11|inst4~feeder_combout $end
$var wire 1 c inst|inst4|inst3|inst11|inst4~q $end
$var wire 1 d inst|inst1|inst8|inst6~1_combout $end
$var wire 1 e inst|inst1|inst6|inst|inst~1_combout $end
$var wire 1 f UP_DOWN~input_o $end
$var wire 1 g inst|inst1|inst5|inst4~0_combout $end
$var wire 1 h inst|inst1|inst5|inst4~q $end
$var wire 1 i inst|inst1|inst1|inst4~0_combout $end
$var wire 1 j inst|inst1|inst1|inst4~1_combout $end
$var wire 1 k DATA[9]~input_o $end
$var wire 1 l inst|inst4|inst3|inst9|inst4~q $end
$var wire 1 m inst|inst4|inst|inst9|inst4~q $end
$var wire 1 n DATA[8]~input_o $end
$var wire 1 o inst|inst4|inst|inst8|inst4~q $end
$var wire 1 p inst|inst4|inst3|inst8|inst4~q $end
$var wire 1 q DATA[6]~input_o $end
$var wire 1 r inst|inst4|inst3|inst6|inst4~q $end
$var wire 1 s DATA[7]~input_o $end
$var wire 1 t inst|inst4|inst|inst7|inst4~q $end
$var wire 1 u inst|inst4|inst|inst6|inst4~q $end
$var wire 1 v inst|inst4|inst3|inst7|inst4~q $end
$var wire 1 w inst|inst1|inst1|inst|inst7|inst10~5_combout $end
$var wire 1 x inst|inst1|inst8|inst6~0_combout $end
$var wire 1 y inst|inst1|inst1|inst|inst7|inst4~0_combout $end
$var wire 1 z DATA[3]~input_o $end
$var wire 1 { inst|inst4|inst3|inst3|inst4~q $end
$var wire 1 | DATA[4]~input_o $end
$var wire 1 } inst|inst4|inst3|inst4|inst4~q $end
$var wire 1 ~ DATA[5]~input_o $end
$var wire 1 !! inst|inst4|inst3|inst5|inst4~q $end
$var wire 1 "! inst|inst4|inst|inst5|inst4~q $end
$var wire 1 #! inst|inst4|inst|inst4|inst4~q $end
$var wire 1 $! inst|inst1|inst8|inst6~2_combout $end
$var wire 1 %! inst|inst4|inst|inst3|inst4~q $end
$var wire 1 &! DATA[2]~input_o $end
$var wire 1 '! inst|inst4|inst|inst2|inst4~q $end
$var wire 1 (! inst|inst4|inst3|inst2|inst4~q $end
$var wire 1 )! DATA[0]~input_o $end
$var wire 1 *! inst|inst4|inst|inst|inst4~q $end
$var wire 1 +! DATA[1]~input_o $end
$var wire 1 ,! inst|inst4|inst3|inst1|inst4~q $end
$var wire 1 -! inst|inst4|inst|inst1|inst4~q $end
$var wire 1 .! inst|inst4|inst3|inst|inst4~q $end
$var wire 1 /! inst|inst1|inst1|inst|inst7|inst4~1_combout $end
$var wire 1 0! inst|inst1|inst1|inst|inst7|inst4~2_combout $end
$var wire 1 1! inst|inst1|inst1|inst|inst7|inst4~3_combout $end
$var wire 1 2! inst|inst1|inst1|inst|inst7|inst4~4_combout $end
$var wire 1 3! inst|inst1|inst1|inst|inst7|inst4~5_combout $end
$var wire 1 4! inst|inst1|inst1|inst|inst7|inst10~0_combout $end
$var wire 1 5! inst|inst1|inst1|inst|inst7|inst10~1_combout $end
$var wire 1 6! inst|inst1|inst1|inst|inst7|inst10~2_combout $end
$var wire 1 7! inst|inst1|inst1|inst|inst7|inst10~3_combout $end
$var wire 1 8! inst|inst1|inst1|inst|inst7|inst10~4_combout $end
$var wire 1 9! inst|inst1|inst1|inst4~3_combout $end
$var wire 1 :! inst|inst1|inst1|inst4~4_combout $end
$var wire 1 ;! inst|inst1|inst1|inst4~2_combout $end
$var wire 1 <! inst|inst1|inst6|inst|inst40~3_combout $end
$var wire 1 =! inst|inst1|inst6|inst|inst40~4_combout $end
$var wire 1 >! b[0]~input_o $end
$var wire 1 ?! inst|inst1|inst7|inst|inst41|inst4|inst5~0_combout $end
$var wire 1 @! inst|inst1|inst2~combout $end
$var wire 1 A! inst|inst|inst2|inst10|inst4~q $end
$var wire 1 B! LOAD_I~input_o $end
$var wire 1 C! inst|inst1|inst7|inst11~0_combout $end
$var wire 1 D! inst|inst1|inst7|inst9~0_combout $end
$var wire 1 E! inst|inst1|inst7|inst5~0_combout $end
$var wire 1 F! inst|inst1|inst7|inst|inst41|inst2|inst5~combout $end
$var wire 1 G! inst|inst|inst2|inst2|inst4~q $end
$var wire 1 H! inst|inst|inst2|inst|inst4~q $end
$var wire 1 I! inst|inst|inst4|inst3[0]~8_combout $end
$var wire 1 J! inst|inst|inst4|inst3[0]~9_combout $end
$var wire 1 K! inst|inst|inst1|inst|inst4~q $end
$var wire 1 L! inst|inst1|inst7|inst|inst41|inst1|inst5~0_combout $end
$var wire 1 M! inst|inst|inst2|inst1|inst4~q $end
$var wire 1 N! inst|inst|inst|inst1|inst6~0_combout $end
$var wire 1 O! inst|inst|inst4|inst3[1]~10_combout $end
$var wire 1 P! inst|inst|inst1|inst1|inst4~q $end
$var wire 1 Q! inst|inst|inst|inst1|inst~0_combout $end
$var wire 1 R! inst|inst|inst|inst2|inst~0_combout $end
$var wire 1 S! inst|inst|inst2|inst3|inst4~q $end
$var wire 1 T! inst|inst|inst4|inst3[2]~11_combout $end
$var wire 1 U! inst|inst|inst4|inst3[2]~12_combout $end
$var wire 1 V! inst|inst|inst1|inst2|inst4~q $end
$var wire 1 W! inst|inst|inst|inst2|inst~1_combout $end
$var wire 1 X! inst|inst|inst|inst3|inst6~combout $end
$var wire 1 Y! inst|inst|inst4|inst3[3]~13_combout $end
$var wire 1 Z! inst|inst|inst1|inst3|inst4~q $end
$var wire 1 [! inst|inst|inst|inst3|inst~0_combout $end
$var wire 1 \! inst|inst|inst4|inst3[4]~14_combout $end
$var wire 1 ]! inst|inst|inst4|inst3[4]~15_combout $end
$var wire 1 ^! inst|inst|inst1|inst4|inst4~q $end
$var wire 1 _! inst|inst|inst|inst4|inst~1_combout $end
$var wire 1 `! inst|inst|inst|inst4|inst~0_combout $end
$var wire 1 a! inst|inst|inst|inst5|inst6~combout $end
$var wire 1 b! inst|inst|inst4|inst3[5]~16_combout $end
$var wire 1 c! inst|inst|inst1|inst5|inst4~q $end
$var wire 1 d! inst|inst|inst|inst5|inst~0_combout $end
$var wire 1 e! inst|inst|inst4|inst3[6]~6_combout $end
$var wire 1 f! inst|inst|inst4|inst3[6]~7_combout $end
$var wire 1 g! inst|inst|inst1|inst6|inst4~q $end
$var wire 1 h! inst|inst|inst|inst7|inst6~combout $end
$var wire 1 i! inst|inst|inst4|inst3[7]~17_combout $end
$var wire 1 j! inst|inst|inst1|inst7|inst4~q $end
$var wire 1 k! inst|inst|inst|inst7|inst~0_combout $end
$var wire 1 l! inst|inst|inst4|inst3[8]~4_combout $end
$var wire 1 m! inst|inst|inst4|inst3[8]~5_combout $end
$var wire 1 n! inst|inst|inst1|inst8|inst4~q $end
$var wire 1 o! inst|inst|inst|inst9|inst6~combout $end
$var wire 1 p! inst|inst|inst4|inst3[9]~18_combout $end
$var wire 1 q! inst|inst|inst1|inst9|inst4~q $end
$var wire 1 r! inst|inst|inst|inst9|inst~0_combout $end
$var wire 1 s! inst|inst|inst4|inst3[10]~2_combout $end
$var wire 1 t! inst|inst|inst4|inst3[10]~3_combout $end
$var wire 1 u! inst|inst|inst1|inst10|inst4~q $end
$var wire 1 v! inst|inst|inst4|inst3[11]~19_combout $end
$var wire 1 w! inst|inst|inst4|inst3[11]~21_combout $end
$var wire 1 x! inst|inst|inst4|inst3[11]~20_combout $end
$var wire 1 y! inst|inst|inst1|inst11|inst4~q $end
$var wire 1 z! inst|inst|inst|inst11|inst~0_combout $end
$var wire 1 {! inst|inst1|inst8|inst|inst11|inst9~0_combout $end
$var wire 1 |! inst|inst1|inst8|inst|inst11|inst5~1_combout $end
$var wire 1 }! inst|inst1|inst8|inst6~13_combout $end
$var wire 1 ~! inst|inst1|inst8|inst6~12_combout $end
$var wire 1 !" inst|inst1|inst8|inst|inst8|inst2~combout $end
$var wire 1 "" inst|inst1|inst8|inst|inst11|inst5~2_combout $end
$var wire 1 #" inst|inst1|inst8|inst|inst7|inst10~0_combout $end
$var wire 1 $" inst|inst1|inst8|inst|inst7|inst10~1_combout $end
$var wire 1 %" inst|inst1|inst8|inst|inst7|inst10~2_combout $end
$var wire 1 &" inst|inst1|inst8|inst|inst7|inst10~3_combout $end
$var wire 1 '" inst|inst1|inst8|inst|inst7|inst10~4_combout $end
$var wire 1 (" inst|inst1|inst8|inst|inst7|inst10~5_combout $end
$var wire 1 )" inst|inst1|inst8|inst|inst11|inst9~1_combout $end
$var wire 1 *" inst|inst1|inst8|inst6~14_combout $end
$var wire 1 +" inst|inst1|inst8|inst6~6_combout $end
$var wire 1 ," inst|inst1|inst8|inst6~5_combout $end
$var wire 1 -" inst|inst1|inst8|inst6~3_combout $end
$var wire 1 ." inst|inst1|inst8|inst6~4_combout $end
$var wire 1 /" inst|inst1|inst8|inst6~7_combout $end
$var wire 1 0" inst|inst1|inst8|inst6~8_combout $end
$var wire 1 1" inst|inst1|inst8|inst|inst11|inst5~0_combout $end
$var wire 1 2" inst|inst1|inst8|inst6~9_combout $end
$var wire 1 3" inst|inst1|inst8|inst|inst7|inst4~6_combout $end
$var wire 1 4" inst|inst1|inst8|inst|inst7|inst4~0_combout $end
$var wire 1 5" inst|inst1|inst8|inst|inst7|inst4~1_combout $end
$var wire 1 6" inst|inst1|inst8|inst|inst7|inst4~2_combout $end
$var wire 1 7" inst|inst1|inst8|inst|inst7|inst4~3_combout $end
$var wire 1 8" inst|inst1|inst8|inst|inst7|inst4~4_combout $end
$var wire 1 9" inst|inst1|inst8|inst|inst7|inst4~5_combout $end
$var wire 1 :" inst|inst1|inst8|inst|inst11|inst5~3_combout $end
$var wire 1 ;" inst|inst1|inst8|inst6~10_combout $end
$var wire 1 <" inst|inst1|inst8|inst6~11_combout $end
$var wire 1 =" inst|inst1|inst8|inst6~15_combout $end
$var wire 1 >" inst|inst1|inst6|inst|inst40~6_combout $end
$var wire 1 ?" inst|inst1|inst6|inst|inst40~7_combout $end
$var wire 1 @" inst|inst1|inst6|inst1|inst~q $end
$var wire 1 A" inst|inst1|inst6|inst|inst40~0_combout $end
$var wire 1 B" inst|inst1|inst6|inst|inst60~1_combout $end
$var wire 1 C" inst|inst1|inst6|inst|inst60~0_combout $end
$var wire 1 D" inst|inst1|inst6|inst|inst52~0_combout $end
$var wire 1 E" inst|inst1|inst6|inst|inst60~2_combout $end
$var wire 1 F" inst|inst1|inst6|inst1|inst2~q $end
$var wire 1 G" inst|inst1|inst6|inst|inst40~1_combout $end
$var wire 1 H" inst|inst1|inst6|inst|inst51~0_combout $end
$var wire 1 I" inst|inst1|inst6|inst|inst51~1_combout $end
$var wire 1 J" inst|inst1|inst6|inst|inst51~2_combout $end
$var wire 1 K" inst|inst1|inst6|inst1|inst1~q $end
$var wire 1 L" inst|inst1|inst3|inst2~0_combout $end
$var wire 1 M" inst|inst4|inst|inst11|inst4~q $end
$var wire 1 N" inst|inst1|inst7|inst3~combout $end
$var wire 1 O" inst|inst4|inst2[11]~12_combout $end
$var wire 1 P" inst|inst4|inst2[11]~13_combout $end
$var wire 1 Q" inst|inst4|inst2[10]~14_combout $end
$var wire 1 R" inst|inst4|inst2[9]~15_combout $end
$var wire 1 S" inst|inst4|inst2[8]~16_combout $end
$var wire 1 T" inst|inst4|inst2[7]~17_combout $end
$var wire 1 U" inst|inst4|inst2[6]~18_combout $end
$var wire 1 V" inst|inst4|inst2[5]~24_combout $end
$var wire 1 W" inst|inst4|inst2[4]~23_combout $end
$var wire 1 X" inst|inst4|inst2[3]~22_combout $end
$var wire 1 Y" inst|inst4|inst2[2]~21_combout $end
$var wire 1 Z" inst|inst4|inst2[1]~20_combout $end
$var wire 1 [" inst|inst4|inst2[0]~19_combout $end
$var wire 1 \" inst|inst1|inst6|inst|inst~0_combout $end
$var wire 1 ]" inst|inst1|inst4|inst4~0_combout $end
$var wire 1 ^" inst|inst1|inst4|inst2~0_combout $end
$upscope $end
$upscope $end
$enddefinitions $end
#0
$dumpvars
b1 !
0"
1#
b0 $
0%
1&
0'
0(
0)
05
04
03
02
01
00
0/
0.
0-
0,
0+
0*
06
07
18
09
x:
0;
1<
x=
1>
1?
1@
zA
zB
zC
zD
zE
zF
zG
zH
zI
zJ
zK
zL
0M
0N
0O
1P
0Q
0R
0S
0T
0U
0V
1W
0X
0Y
0Z
0[
0\
0]
0^
0_
0`
0a
0b
0c
1d
1e
0f
0g
0h
0i
0j
0k
0l
0m
0n
0o
0p
0q
0r
0s
0t
0u
0v
0w
1x
0y
0z
0{
0|
0}
0~
0!!
0"!
0#!
1$!
0%!
0&!
0'!
0(!
0)!
0*!
0+!
0,!
0-!
0.!
0/!
00!
01!
02!
03!
04!
05!
06!
07!
08!
09!
0:!
0;!
0<!
0=!
1>!
0?!
1@!
0A!
1B!
1C!
1D!
0E!
0F!
0G!
0H!
1I!
0J!
0K!
0L!
0M!
0N!
0O!
0P!
0Q!
0R!
0S!
1T!
0U!
0V!
0W!
0X!
0Y!
0Z!
0[!
1\!
0]!
0^!
0_!
0`!
0a!
0b!
0c!
0d!
1e!
0f!
0g!
0h!
0i!
0j!
0k!
1l!
0m!
0n!
0o!
0p!
0q!
0r!
1s!
0t!
0u!
0v!
0w!
0x!
0y!
0z!
0{!
1|!
1}!
1~!
0!"
1""
0#"
0$"
0%"
0&"
0'"
0("
0)"
1*"
1+"
1,"
1-"
1."
1/"
10"
01"
12"
03"
14"
05"
06"
07"
08"
09"
0:"
1;"
1<"
1="
1>"
0?"
0@"
0A"
0B"
0C"
0D"
0E"
0F"
0G"
0H"
1I"
0J"
0K"
1L"
0M"
1N"
1O"
0P"
1Q"
1R"
1S"
1T"
1U"
1V"
1W"
1X"
1Y"
1Z"
1["
0\"
0]"
1^"
$end
#10000
1"
1Q
1R
0:
1H!
#20000
b100 $
b101 $
0&
1%
0"
15
13
1)!
1&!
0B!
1_
0Q
0R
1:
1#"
1J!
1$"
1U!
0L"
0D!
0C!
1`
1%"
1x!
1t!
1m!
1f!
1]!
1p!
1i!
1b!
1Y!
1O!
1&"
1'"
1("
1)"
#30000
1"
1Q
1R
0:
1.!
1(!
0+"
0#"
1/!
0,"
10!
0/"
0$"
11!
0<"
0%"
13!
0I"
0&"
0="
0'"
0P
08
0("
0)"
#40000
bz00000000101 $
bz0000000101 $
bz000000101 $
bz00000101 $
bz0000101 $
bz000101 $
bz00101 $
bz0101 $
bz101 $
bz1z1 $
1(
bz1 $
bz $
0%
0"
z5
z4
z3
z2
z1
z0
z/
z.
z-
z,
z+
z*
z)!
z+!
z&!
zz
z|
z~
zq
zs
zn
zk
z]
zS
1U
0_
0Q
0R
1:
x5"
x#"
x6"
x%"
x&"
x'"
x4"
x("
x)"
x!"
x{!
x""
x}!
x~!
x|!
xb
xT
1A"
0`
x$"
x7"
1B"
1<!
x8"
1J"
1=!
x9"
1?"
x:"
x;"
#50000
1"
1Q
1R
0:
1K"
1@"
0N"
1G"
0A"
1w!
1E!
1D!
0e
1P"
0<!
0x!
0s!
0p!
0l!
0i!
0e!
0b!
0\!
0Y!
0T!
0O!
x<"
1L
1K
1J
1I
1H
1G
1F
1E
1D
1C
1B
1A
15
14
13
12
11
10
1/
1.
1-
1,
1+
1*
0["
0Z"
0Y"
0X"
0W"
0V"
0U"
0T"
0S"
0R"
0Q"
0O"
0=!
0t!
0m!
0f!
0]!
0U!
xI"
1)!
1+!
1&!
1z
1|
1~
1q
1s
1n
1k
1]
1S
0L
0K
0J
0I
0H
0G
0F
0E
0D
0C
0B
0A
05
04
03
02
01
00
0/
0.
0-
0,
0+
0*
x="
xJ"
05"
1#"
07"
1%"
08"
1&"
09"
1'"
04"
1("
1!"
1{!
0""
0~!
0|!
1b
1T
0)!
0+!
0&!
0z
0|
0~
0q
0s
0n
0k
0]
0S
xE"
xP
x8
16"
0$"
0:"
0)"
1}!
15"
0#"
x7"
x%"
14"
0!"
0{!
1~!
1|!
0b
0T
17"
0%"
1;"
x8"
x&"
1""
18"
0&"
1<"
x9"
x'"
1)"
19"
0'"
1I"
x:"
x("
1="
1:"
0("
0J"
x;"
x)"
1E"
1P
18
0;"
0)"
x<"
0<"
xI"
x="
0I"
xJ"
xE"
xP
x8
0="
1J"
0E"
0P
08
#60000
0(
0"
0U
0Q
0R
1:
#70000
1"
1Q
1R
0:
1K!
1N!
0I!
1["
1O!
0J!
1L
15
1)!
05"
#80000
0"
0Q
0R
1:
#90000
1"
1Q
1R
0:
1P!
0K!
1I!
1Z"
0["
1J!
1K
0L
14
05
1+!
0)!
1#"
#100000
0"
0Q
0R
1:
#110000
1"
1Q
1R
0:
1K!
1Q!
0N!
0I!
1["
1T!
0O!
0J!
1L
15
1U!
1)!
#120000
0"
0Q
0R
1:
#130000
1"
1Q
1R
0:
1V!
0P!
0K!
1W!
0T!
0Q!
1I!
1Y"
0Z"
0["
1X!
0U!
0W!
1T!
1J!
1J
0K
0L
13
04
05
1Y!
0X!
1U!
1&!
0+!
0)!
0Y!
06"
1$"
15"
0#"
07"
1%"
16"
0$"
08"
1&"
17"
0%"
09"
1'"
18"
0&"
0:"
1("
19"
0'"
1;"
1)"
1:"
0("
1<"
0;"
0)"
1I"
0<"
1="
0J"
0I"
1E"
1P
18
0="
1J"
0E"
0P
08
#140000
0"
0Q
0R
1:
#150000
1"
1Q
1R
0:
1K!
1N!
0I!
1["
1O!
0J!
1L
15
1)!
05"
06"
07"
08"
09"
0:"
1;"
1<"
1I"
1="
0J"
1E"
1P
18
#160000
0"
0Q
0R
1:
#170000
1"
1Q
1R
0:
0K"
1F"
1P!
0K!
1H"
0G"
1C"
0?"
0w!
1I!
0E!
0D!
1X
1]"
1Z"
0["
1J"
0B"
1x!
1J!
1s!
1p!
1l!
1i!
1e!
1b!
1\!
1Y!
1t!
1m!
1f!
1]!
1?"
1N
1K
0L
17
14
05
1+!
0)!
1#"
1$"
1%"
1&"
1'"
1("
1)"
#180000
0"
0Q
0R
1:
#190000
1"
1Q
1R
0:
1K"
1N"
0C"
0?"
1D!
1C!
0@!
1\
0]"
0E"
0x!
0t!
0m!
0f!
0]!
0J!
0p!
0i!
0b!
0Y!
1=!
0N
07
0Z"
0Y"
1?"
0K
0J
04
03
0+!
0&!
15"
0#"
0O!
16"
0$"
0U!
17"
0%"
18"
0&"
19"
0'"
1:"
0("
0;"
0)"
0<"
0I"
0="
0P
08
#200000
0"
0Q
0R
1:
#210000
1"
1Q
1R
0:
0F"
0V!
0P!
0N"
0H"
1G"
1w!
1E!
0C!
1@!
0\
0X
0N!
1B"
0s!
0l!
0e!
0\!
0T!
1t!
1m!
1f!
1]!
1U!
1J!
0=!
0t!
0m!
0f!
0]!
0U!
#220000
0"
0Q
0R
1:
#230000
1"
1Q
1R
0:
1K!
1N!
0I!
1["
1O!
0J!
1L
15
1)!
05"
#240000
0"
0Q
0R
1:
#250000
1"
1Q
1R
0:
1P!
0K!
1I!
1Z"
0["
1J!
1K
0L
14
05
1+!
0)!
1#"
#260000
0"
0Q
0R
1:
#270000
1"
1Q
1R
0:
1K!
1Q!
0N!
0I!
1["
1T!
0O!
0J!
1L
15
1U!
1)!
#280000
0"
0Q
0R
1:
#290000
1"
1Q
1R
0:
1V!
0P!
0K!
1W!
0T!
0Q!
1I!
1Y"
0Z"
0["
1X!
0U!
0W!
1T!
1J!
1J
0K
0L
13
04
05
1Y!
0X!
1U!
1&!
0+!
0)!
0Y!
06"
1$"
15"
0#"
07"
1%"
16"
0$"
08"
1&"
17"
0%"
09"
1'"
18"
0&"
0:"
1("
19"
0'"
1;"
1)"
1:"
0("
1<"
0;"
0)"
1I"
0<"
1="
0J"
0I"
1E"
1P
18
0="
1J"
0E"
0P
08
#300000
0"
0Q
0R
1:
#310000
1"
1Q
1R
0:
1K!
1N!
0I!
1["
1O!
0J!
1L
15
1)!
05"
06"
07"
08"
09"
0:"
1;"
1<"
1I"
1="
0J"
1E"
1P
18
#320000
0"
0Q
0R
1:
#330000
1"
1Q
1R
0:
0K"
1F"
1P!
0K!
1H"
0G"
1C"
0?"
0w!
1I!
0E!
0D!
1X
1]"
1Z"
0["
1J"
0B"
1x!
1J!
1s!
1p!
1l!
1i!
1e!
1b!
1\!
1Y!
1t!
1m!
1f!
1]!
1?"
1N
1K
0L
17
14
05
1+!
0)!
1#"
1$"
1%"
1&"
1'"
1("
1)"
#340000
0"
0Q
0R
1:
#350000
1"
1Q
1R
0:
1K"
1N"
0C"
0?"
1D!
1C!
0@!
1\
0]"
0E"
0x!
0t!
0m!
0f!
0]!
0J!
0p!
0i!
0b!
0Y!
1=!
0N
07
0Z"
0Y"
1?"
0K
0J
04
03
0+!
0&!
15"
0#"
0O!
16"
0$"
0U!
17"
0%"
18"
0&"
19"
0'"
1:"
0("
0;"
0)"
0<"
0I"
0="
0P
08
#360000
0"
0Q
0R
1:
#370000
1"
1Q
1R
0:
0F"
0V!
0P!
0N"
0H"
1G"
1w!
1E!
0C!
1@!
0\
0X
0N!
1B"
0s!
0l!
0e!
0\!
0T!
1t!
1m!
1f!
1]!
1U!
1J!
0=!
0t!
0m!
0f!
0]!
0U!
#380000
0"
0Q
0R
1:
#390000
1"
1Q
1R
0:
1K!
1N!
0I!
1["
1O!
0J!
1L
15
1)!
05"
#400000
0"
0Q
0R
1:
#410000
1"
1Q
1R
0:
1P!
0K!
1I!
1Z"
0["
1J!
1K
0L
14
05
1+!
0)!
1#"
#420000
0"
0Q
0R
1:
#430000
1"
1Q
1R
0:
1K!
1Q!
0N!
0I!
1["
1T!
0O!
0J!
1L
15
1U!
1)!
#440000
0"
0Q
0R
1:
#450000
1"
1Q
1R
0:
1V!
0P!
0K!
1W!
0T!
0Q!
1I!
1Y"
0Z"
0["
1X!
0U!
0W!
1T!
1J!
1J
0K
0L
13
04
05
1Y!
0X!
1U!
1&!
0+!
0)!
0Y!
06"
1$"
15"
0#"
07"
1%"
16"
0$"
08"
1&"
17"
0%"
09"
1'"
18"
0&"
0:"
1("
19"
0'"
1;"
1)"
1:"
0("
1<"
0;"
0)"
1I"
0<"
1="
0J"
0I"
1E"
1P
18
0="
1J"
0E"
0P
08
#460000
0"
0Q
0R
1:
#470000
1"
1Q
1R
0:
1K!
1N!
0I!
1["
1O!
0J!
1L
15
1)!
05"
06"
07"
08"
09"
0:"
1;"
1<"
1I"
1="
0J"
1E"
1P
18
#480000
0"
0Q
0R
1:
#490000
1"
1Q
1R
0:
0K"
1F"
1P!
0K!
1H"
0G"
1C"
0?"
0w!
1I!
0E!
0D!
1X
1]"
1Z"
0["
1J"
0B"
1x!
1J!
1s!
1p!
1l!
1i!
1e!
1b!
1\!
1Y!
1t!
1m!
1f!
1]!
1?"
1N
1K
0L
17
14
05
1+!
0)!
1#"
1$"
1%"
1&"
1'"
1("
1)"
#500000
0"
0Q
0R
1:
#510000
1"
1Q
1R
0:
1K"
1N"
0C"
0?"
1D!
1C!
0@!
1\
0]"
0E"
0x!
0t!
0m!
0f!
0]!
0J!
0p!
0i!
0b!
0Y!
1=!
0N
07
0Z"
0Y"
1?"
0K
0J
04
03
0+!
0&!
15"
0#"
0O!
16"
0$"
0U!
17"
0%"
18"
0&"
19"
0'"
1:"
0("
0;"
0)"
0<"
0I"
0="
0P
08
#520000
0"
0Q
0R
1:
#530000
1"
1Q
1R
0:
0F"
0V!
0P!
0N"
0H"
1G"
1w!
1E!
0C!
1@!
0\
0X
0N!
1B"
0s!
0l!
0e!
0\!
0T!
1t!
1m!
1f!
1]!
1U!
1J!
0=!
0t!
0m!
0f!
0]!
0U!
#540000
0"
0Q
0R
1:
#550000
1"
1Q
1R
0:
1K!
1N!
0I!
1["
1O!
0J!
1L
15
1)!
05"
#560000
0"
0Q
0R
1:
#570000
1"
1Q
1R
0:
1P!
0K!
1I!
1Z"
0["
1J!
1K
0L
14
05
1+!
0)!
1#"
#580000
0"
0Q
0R
1:
#590000
1"
1Q
1R
0:
1K!
1Q!
0N!
0I!
1["
1T!
0O!
0J!
1L
15
1U!
1)!
#600000
0"
0Q
0R
1:
#610000
1"
1Q
1R
0:
1V!
0P!
0K!
1W!
0T!
0Q!
1I!
1Y"
0Z"
0["
1X!
0U!
0W!
1T!
1J!
1J
0K
0L
13
04
05
1Y!
0X!
1U!
1&!
0+!
0)!
0Y!
06"
1$"
15"
0#"
07"
1%"
16"
0$"
08"
1&"
17"
0%"
09"
1'"
18"
0&"
0:"
1("
19"
0'"
1;"
1)"
1:"
0("
1<"
0;"
0)"
1I"
0<"
1="
0J"
0I"
1E"
1P
18
0="
1J"
0E"
0P
08
#620000
0"
0Q
0R
1:
#630000
1"
1Q
1R
0:
1K!
1N!
0I!
1["
1O!
0J!
1L
15
1)!
05"
06"
07"
08"
09"
0:"
1;"
1<"
1I"
1="
0J"
1E"
1P
18
#640000
0"
0Q
0R
1:
#650000
1"
1Q
1R
0:
0K"
1F"
1P!
0K!
1H"
0G"
1C"
0?"
0w!
1I!
0E!
0D!
1X
1]"
1Z"
0["
1J"
0B"
1x!
1J!
1s!
1p!
1l!
1i!
1e!
1b!
1\!
1Y!
1t!
1m!
1f!
1]!
1?"
1N
1K
0L
17
14
05
1+!
0)!
1#"
1$"
1%"
1&"
1'"
1("
1)"
#660000
0"
0Q
0R
1:
#670000
1"
1Q
1R
0:
1K"
1N"
0C"
0?"
1D!
1C!
0@!
1\
0]"
0E"
0x!
0t!
0m!
0f!
0]!
0J!
0p!
0i!
0b!
0Y!
1=!
0N
07
0Z"
0Y"
1?"
0K
0J
04
03
0+!
0&!
15"
0#"
0O!
16"
0$"
0U!
17"
0%"
18"
0&"
19"
0'"
1:"
0("
0;"
0)"
0<"
0I"
0="
0P
08
#680000
0"
0Q
0R
1:
#690000
1"
1Q
1R
0:
0F"
0V!
0P!
0N"
0H"
1G"
1w!
1E!
0C!
1@!
0\
0X
0N!
1B"
0s!
0l!
0e!
0\!
0T!
1t!
1m!
1f!
1]!
1U!
1J!
0=!
0t!
0m!
0f!
0]!
0U!
#700000
0"
0Q
0R
1:
#710000
1"
1Q
1R
0:
1K!
1N!
0I!
1["
1O!
0J!
1L
15
1)!
05"
#720000
0"
0Q
0R
1:
#730000
1"
1Q
1R
0:
1P!
0K!
1I!
1Z"
0["
1J!
1K
0L
14
05
1+!
0)!
1#"
#740000
0"
0Q
0R
1:
#750000
1"
1Q
1R
0:
1K!
1Q!
0N!
0I!
1["
1T!
0O!
0J!
1L
15
1U!
1)!
#760000
0"
0Q
0R
1:
