TEI_GRUPO17/simulation/qsim/TEI_GRUPO17.msim.vcd
$comment
	File created using the following command:
		vcd file TEI_GRUPO17.msim.vcd -direction
$end
$date
	Wed Jul 30 19:26:28 2025
$end
$version
	ModelSim Version 10.1d
$end
$timescale
	1ps
$end
$scope module circuito_principal_bloque_vlg_vec_tst $end
$var reg 3 ! b [2:0] $end
$var reg 1 " CLK $end
$var reg 1 # CONTINUAR $end
$var reg 12 $ treg_DATA [11:0] $end
$var reg 1 % LOAD_F $end
$var reg 1 & LOAD_I $end
$var reg 1 ' RECARGAR $end
$var reg 1 ( START $end
$var reg 1 ) UP_DOWN $end
$var wire 1 * CarryOUT $end
$var wire 1 + DATA [11] $end
$var wire 1 , DATA [10] $end
$var wire 1 - DATA [9] $end
$var wire 1 . DATA [8] $end
$var wire 1 / DATA [7] $end
$var wire 1 0 DATA [6] $end
$var wire 1 1 DATA [5] $end
$var wire 1 2 DATA [4] $end
$var wire 1 3 DATA [3] $end
$var wire 1 4 DATA [2] $end
$var wire 1 5 DATA [1] $end
$var wire 1 6 DATA [0] $end
$var wire 1 7 ERROR $end
$var wire 1 8 FIN $end
$var wire 1 9 FINDET $end
$var wire 1 : Ienb_UC $end
$var wire 1 ; IenVI_UA $end
$var wire 1 < OenVC_UC $end
$var wire 1 = OregA [11] $end
$var wire 1 > OregA [10] $end
$var wire 1 ? OregA [9] $end
$var wire 1 @ OregA [8] $end
$var wire 1 A OregA [7] $end
$var wire 1 B OregA [6] $end
$var wire 1 C OregA [5] $end
$var wire 1 D OregA [4] $end
$var wire 1 E OregA [3] $end
$var wire 1 F OregA [2] $end
$var wire 1 G OregA [1] $end
$var wire 1 H OregA [0] $end
$var wire 1 I OregB [11] $end
$var wire 1 J OregB [10] $end
$var wire 1 K OregB [9] $end
$var wire 1 L OregB [8] $end
$var wire 1 M OregB [7] $end
$var wire 1 N OregB [6] $end
$var wire 1 O OregB [5] $end
$var wire 1 P OregB [4] $end
$var wire 1 Q OregB [3] $end
$var wire 1 R OregB [2] $end
$var wire 1 S OregB [1] $end
$var wire 1 T OregB [0] $end
$var wire 1 U PAUSA $end
$var wire 1 V regA [11] $end
$var wire 1 W regA [10] $end
$var wire 1 X regA [9] $end
$var wire 1 Y regA [8] $end
$var wire 1 Z regA [7] $end
$var wire 1 [ regA [6] $end
$var wire 1 \ regA [5] $end
$var wire 1 ] regA [4] $end
$var wire 1 ^ regA [3] $end
$var wire 1 _ regA [2] $end
$var wire 1 ` regA [1] $end
$var wire 1 a regA [0] $end
$var wire 1 b sampler $end
$scope module i1 $end
$var wire 1 c gnd $end
$var wire 1 d vcc $end
$var wire 1 e unknown $end
$var tri1 1 f devclrn $end
$var tri1 1 g devpor $end
$var tri1 1 h devoe $end
$var wire 1 i DATA[11]~output_o $end
$var wire 1 j DATA[10]~output_o $end
$var wire 1 k DATA[9]~output_o $end
$var wire 1 l DATA[8]~output_o $end
$var wire 1 m DATA[7]~output_o $end
$var wire 1 n DATA[6]~output_o $end
$var wire 1 o DATA[5]~output_o $end
$var wire 1 p DATA[4]~output_o $end
$var wire 1 q DATA[3]~output_o $end
$var wire 1 r DATA[2]~output_o $end
$var wire 1 s DATA[1]~output_o $end
$var wire 1 t DATA[0]~output_o $end
$var wire 1 u ERROR~output_o $end
$var wire 1 v FIN~output_o $end
$var wire 1 w PAUSA~output_o $end
$var wire 1 x IenVI_UA~output_o $end
$var wire 1 y CarryOUT~output_o $end
$var wire 1 z Ienb_UC~output_o $end
$var wire 1 { OenVC_UC~output_o $end
$var wire 1 | FINDET~output_o $end
$var wire 1 } OregA[11]~output_o $end
$var wire 1 ~ OregA[10]~output_o $end
$var wire 1 !! OregA[9]~output_o $end
$var wire 1 "! OregA[8]~output_o $end
$var wire 1 #! OregA[7]~output_o $end
$var wire 1 $! OregA[6]~output_o $end
$var wire 1 %! OregA[5]~output_o $end
$var wire 1 &! OregA[4]~output_o $end
$var wire 1 '! OregA[3]~output_o $end
$var wire 1 (! OregA[2]~output_o $end
$var wire 1 )! OregA[1]~output_o $end
$var wire 1 *! OregA[0]~output_o $end
$var wire 1 +! OregB[11]~output_o $end
$var wire 1 ,! OregB[10]~output_o $end
$var wire 1 -! OregB[9]~output_o $end
$var wire 1 .! OregB[8]~output_o $end
$var wire 1 /! OregB[7]~output_o $end
$var wire 1 0! OregB[6]~output_o $end
$var wire 1 1! OregB[5]~output_o $end
$var wire 1 2! OregB[4]~output_o $end
$var wire 1 3! OregB[3]~output_o $end
$var wire 1 4! OregB[2]~output_o $end
$var wire 1 5! OregB[1]~output_o $end
$var wire 1 6! OregB[0]~output_o $end
$var wire 1 7! regA[11]~output_o $end
$var wire 1 8! regA[10]~output_o $end
$var wire 1 9! regA[9]~output_o $end
$var wire 1 :! regA[8]~output_o $end
$var wire 1 ;! regA[7]~output_o $end
$var wire 1 <! regA[6]~output_o $end
$var wire 1 =! regA[5]~output_o $end
$var wire 1 >! regA[4]~output_o $end
$var wire 1 ?! regA[3]~output_o $end
$var wire 1 @! regA[2]~output_o $end
$var wire 1 A! regA[1]~output_o $end
$var wire 1 B! regA[0]~output_o $end
$var wire 1 C! CLK~input_o $end
$var wire 1 D! CLK~inputclkctrl_outclk $end
$var wire 1 E! DATA[9]~input_o $end
$var wire 1 F! LOAD_I~input_o $end
$var wire 1 G! RECARGAR~input_o $end
$var wire 1 H! CONTINUAR~input_o $end
$var wire 1 I! inst|inst1|inst6|inst|inst40~4_combout $end
$var wire 1 J! b[0]~input_o $end
$var wire 1 K! b[2]~input_o $end
$var wire 1 L! b[1]~input_o $end
$var wire 1 M! inst|inst1|inst6|inst|inst40~3_combout $end
$var wire 1 N! inst|inst1|inst6|inst|inst40~5_combout $end
$var wire 1 O! inst|inst1|inst6|inst|inst40~6_combout $end
$var wire 1 P! inst|inst1|inst6|inst|inst~0_combout $end
$var wire 1 Q! UP_DOWN~input_o $end
$var wire 1 R! inst|inst1|inst5|inst4~0_combout $end
$var wire 1 S! inst|inst1|inst5|inst4~q $end
$var wire 1 T! DATA[11]~input_o $end
$var wire 1 U! LOAD_F~input_o $end
$var wire 1 V! inst|inst1|inst3|inst3~0_combout $end
$var wire 1 W! inst|inst4|inst3|inst11|inst4~q $end
$var wire 1 X! DATA[10]~input_o $end
$var wire 1 Y! inst|inst1|inst3|inst2~0_combout $end
$var wire 1 Z! inst|inst4|inst|inst10|inst4~q $end
$var wire 1 [! inst|inst4|inst3|inst10|inst4~q $end
$var wire 1 \! inst|inst1|inst1|inst4~0_combout $end
$var wire 1 ]! inst|inst4|inst|inst11|inst4~q $end
$var wire 1 ^! inst|inst1|inst1|inst4~1_combout $end
$var wire 1 _! START~input_o $end
$var wire 1 `! inst|inst1|inst6|inst|inst40~0_combout $end
$var wire 1 a! inst|inst1|inst8|inst6~1_combout $end
$var wire 1 b! inst|inst4|inst3|inst9|inst4~q $end
$var wire 1 c! inst|inst4|inst|inst9|inst4~q $end
$var wire 1 d! DATA[8]~input_o $end
$var wire 1 e! inst|inst4|inst3|inst8|inst4~q $end
$var wire 1 f! DATA[7]~input_o $end
$var wire 1 g! inst|inst4|inst|inst7|inst4~feeder_combout $end
$var wire 1 h! inst|inst4|inst|inst7|inst4~q $end
$var wire 1 i! inst|inst4|inst3|inst7|inst4~feeder_combout $end
$var wire 1 j! inst|inst4|inst3|inst7|inst4~q $end
$var wire 1 k! DATA[6]~input_o $end
$var wire 1 l! inst|inst4|inst3|inst6|inst4~q $end
$var wire 1 m! inst|inst4|inst|inst6|inst4~q $end
$var wire 1 n! inst|inst1|inst1|inst|inst7|inst10~5_combout $end
$var wire 1 o! DATA[5]~input_o $end
$var wire 1 p! inst|inst4|inst3|inst5|inst4~q $end
$var wire 1 q! inst|inst4|inst|inst5|inst4~q $end
$var wire 1 r! inst|inst1|inst8|inst6~0_combout $end
$var wire 1 s! DATA[4]~input_o $end
$var wire 1 t! inst|inst4|inst3|inst4|inst4~q $end
$var wire 1 u! inst|inst4|inst|inst4|inst4~q $end
$var wire 1 v! DATA[3]~input_o $end
$var wire 1 w! inst|inst4|inst3|inst3|inst4~q $end
$var wire 1 x! inst|inst4|inst|inst3|inst4~q $end
$var wire 1 y! DATA[2]~input_o $end
$var wire 1 z! inst|inst4|inst3|inst2|inst4~q $end
$var wire 1 {! inst|inst4|inst|inst2|inst4~q $end
$var wire 1 |! DATA[1]~input_o $end
$var wire 1 }! inst|inst4|inst3|inst1|inst4~q $end
$var wire 1 ~! inst|inst4|inst|inst1|inst4~q $end
$var wire 1 !" DATA[0]~input_o $end
$var wire 1 "" inst|inst4|inst|inst|inst4~q $end
$var wire 1 #" inst|inst4|inst3|inst|inst4~q $end
$var wire 1 $" inst|inst1|inst1|inst|inst7|inst10~0_combout $end
$var wire 1 %" inst|inst1|inst1|inst|inst7|inst10~1_combout $end
$var wire 1 &" inst|inst1|inst1|inst|inst7|inst10~2_combout $end
$var wire 1 '" inst|inst1|inst1|inst|inst7|inst10~3_combout $end
$var wire 1 (" inst|inst1|inst1|inst|inst7|inst10~4_combout $end
$var wire 1 )" inst|inst1|inst1|inst|inst7|inst4~4_combout $end
$var wire 1 *" inst|inst1|inst1|inst|inst7|inst4~0_combout $end
$var wire 1 +" inst|inst1|inst8|inst6~2_combout $end
$var wire 1 ," inst|inst1|inst1|inst|inst7|inst4~1_combout $end
$var wire 1 -" inst|inst1|inst1|inst|inst7|inst4~2_combout $end
$var wire 1 ." inst|inst1|inst1|inst|inst7|inst4~3_combout $end
$var wire 1 /" inst|inst1|inst1|inst|inst7|inst4~5_combout $end
$var wire 1 0" inst|inst1|inst1|inst4~3_combout $end
$var wire 1 1" inst|inst4|inst|inst8|inst4~feeder_combout $end
$var wire 1 2" inst|inst4|inst|inst8|inst4~q $end
$var wire 1 3" inst|inst1|inst1|inst4~4_combout $end
$var wire 1 4" inst|inst1|inst1|inst4~2_combout $end
$var wire 1 5" inst|inst1|inst6|inst|inst40~2_combout $end
$var wire 1 6" inst|inst1|inst8|inst6~6_combout $end
$var wire 1 7" inst|inst1|inst8|inst6~3_combout $end
$var wire 1 8" inst|inst1|inst8|inst6~4_combout $end
$var wire 1 9" inst|inst1|inst8|inst6~5_combout $end
$var wire 1 :" inst|inst1|inst8|inst6~7_combout $end
$var wire 1 ;" inst|inst|inst1|inst11|inst4~q $end
$var wire 1 <" inst|inst|inst1|inst10|inst4~q $end
$var wire 1 =" inst|inst|inst1|inst8|inst4~q $end
$var wire 1 >" inst|inst1|inst8|inst6~8_combout $end
$var wire 1 ?" inst|inst1|inst8|inst6~9_combout $end
$var wire 1 @" inst|inst1|inst8|inst6~10_combout $end
$var wire 1 A" inst|inst1|inst8|inst6~11_combout $end
$var wire 1 B" inst|inst|inst1|inst7|inst4~q $end
$var wire 1 C" inst|inst1|inst8|inst|inst8|inst2~combout $end
$var wire 1 D" inst|inst1|inst8|inst|inst11|inst5~0_combout $end
$var wire 1 E" inst|inst1|inst8|inst|inst11|inst5~1_combout $end
$var wire 1 F" inst|inst|inst1|inst6|inst4~q $end
$var wire 1 G" inst|inst|inst1|inst5|inst4~q $end
$var wire 1 H" inst|inst|inst1|inst4|inst4~q $end
$var wire 1 I" inst|inst|inst1|inst3|inst4~q $end
$var wire 1 J" inst|inst|inst1|inst2|inst4~q $end
$var wire 1 K" inst|inst|inst1|inst1|inst4~q $end
$var wire 1 L" inst|inst|inst1|inst|inst4~q $end
$var wire 1 M" inst|inst1|inst8|inst|inst7|inst10~0_combout $end
$var wire 1 N" inst|inst1|inst8|inst|inst7|inst10~1_combout $end
$var wire 1 O" inst|inst1|inst8|inst|inst7|inst10~2_combout $end
$var wire 1 P" inst|inst1|inst8|inst|inst7|inst10~3_combout $end
$var wire 1 Q" inst|inst1|inst8|inst|inst7|inst10~4_combout $end
$var wire 1 R" inst|inst1|inst8|inst6~12_combout $end
$var wire 1 S" inst|inst1|inst8|inst6~13_combout $end
$var wire 1 T" inst|inst1|inst8|inst6~14_combout $end
$var wire 1 U" inst|inst1|inst8|inst6~15_combout $end
$var wire 1 V" inst|inst1|inst8|inst|inst11|inst5~2_combout $end
$var wire 1 W" inst|inst1|inst8|inst6~16_combout $end
$var wire 1 X" inst|inst1|inst8|inst6~17_combout $end
$var wire 1 Y" inst|inst1|inst8|inst|inst7|inst4~0_combout $end
$var wire 1 Z" inst|inst1|inst8|inst|inst7|inst4~1_combout $end
$var wire 1 [" inst|inst1|inst8|inst|inst7|inst4~2_combout $end
$var wire 1 \" inst|inst1|inst8|inst|inst7|inst4~3_combout $end
$var wire 1 ]" inst|inst1|inst8|inst|inst7|inst4~4_combout $end
$var wire 1 ^" inst|inst1|inst8|inst|inst11|inst5~3_combout $end
$var wire 1 _" inst|inst1|inst8|inst|inst11|inst5~4_combout $end
$var wire 1 `" inst|inst1|inst8|inst6~18_combout $end
$var wire 1 a" inst|inst1|inst7|inst|inst41|inst4|inst5~0_combout $end
$var wire 1 b" inst|inst1|inst2~combout $end
$var wire 1 c" inst|inst|inst2|inst10|inst4~q $end
$var wire 1 d" inst|inst|inst|inst11|inst~0_combout $end
$var wire 1 e" inst|inst1|inst8|inst6~19_combout $end
$var wire 1 f" inst|inst1|inst6|inst|inst40~7_combout $end
$var wire 1 g" inst|inst1|inst6|inst1|inst~q $end
$var wire 1 h" inst|inst1|inst6|inst|inst60~0_combout $end
$var wire 1 i" inst|inst1|inst6|inst|inst60~1_combout $end
$var wire 1 j" inst|inst1|inst6|inst|inst52~0_combout $end
$var wire 1 k" inst|inst1|inst6|inst|inst60~2_combout $end
$var wire 1 l" inst|inst1|inst6|inst1|inst2~q $end
$var wire 1 m" inst|inst1|inst6|inst|inst40~1_combout $end
$var wire 1 n" inst|inst1|inst6|inst|inst51~0_combout $end
$var wire 1 o" inst|inst1|inst6|inst|inst51~1_combout $end
$var wire 1 p" inst|inst1|inst6|inst1|inst1~q $end
$var wire 1 q" inst|inst1|inst7|inst9~0_combout $end
$var wire 1 r" inst|inst|inst1|inst9|inst4~q $end
$var wire 1 s" inst|inst|inst2|inst3|inst4~q $end
$var wire 1 t" inst|inst1|inst7|inst|inst41|inst2|inst5~combout $end
$var wire 1 u" inst|inst|inst2|inst2|inst4~q $end
$var wire 1 v" inst|inst|inst2|inst|inst4~q $end
$var wire 1 w" inst|inst1|inst7|inst|inst41|inst1|inst5~0_combout $end
$var wire 1 x" inst|inst|inst2|inst1|inst4~q $end
$var wire 1 y" inst|inst|inst|inst1|inst~0_combout $end
$var wire 1 z" inst|inst|inst|inst2|inst~0_combout $end
$var wire 1 {" inst|inst|inst|inst2|inst~1_combout $end
$var wire 1 |" inst|inst|inst|inst4|inst~3_combout $end
$var wire 1 }" inst|inst|inst|inst3|inst~0_combout $end
$var wire 1 ~" inst|inst|inst|inst4|inst~2_combout $end
$var wire 1 !# inst|inst|inst|inst5|inst~0_combout $end
$var wire 1 "# inst|inst|inst|inst7|inst~0_combout $end
$var wire 1 ## inst|inst|inst|inst9|inst~0_combout $end
$var wire 1 $# inst|inst4|inst2[11]~13_combout $end
$var wire 1 %# inst|inst4|inst2[11]~12_combout $end
$var wire 1 &# inst|inst1|inst7|inst3~0_combout $end
$var wire 1 '# inst|inst4|inst2[11]~14_combout $end
$var wire 1 (# inst|inst4|inst2[11]~15_combout $end
$var wire 1 )# inst|inst4|inst2[10]~16_combout $end
$var wire 1 *# inst|inst1|inst6|inst|inst~1_combout $end
$var wire 1 +# inst|inst4|inst2[10]~17_combout $end
$var wire 1 ,# inst|inst|inst|inst9|inst6~combout $end
$var wire 1 -# inst|inst4|inst2[9]~18_combout $end
$var wire 1 .# inst|inst4|inst2[8]~19_combout $end
$var wire 1 /# inst|inst4|inst2[8]~20_combout $end
$var wire 1 0# inst|inst|inst|inst7|inst6~combout $end
$var wire 1 1# inst|inst4|inst2[7]~21_combout $end
$var wire 1 2# inst|inst4|inst2[6]~22_combout $end
$var wire 1 3# inst|inst4|inst2[6]~23_combout $end
$var wire 1 4# inst|inst|inst|inst5|inst6~combout $end
$var wire 1 5# inst|inst4|inst2[5]~24_combout $end
$var wire 1 6# inst|inst4|inst2[4]~25_combout $end
$var wire 1 7# inst|inst4|inst2[4]~26_combout $end
$var wire 1 8# inst|inst|inst|inst3|inst6~combout $end
$var wire 1 9# inst|inst4|inst2[3]~27_combout $end
$var wire 1 :# inst|inst4|inst2[2]~28_combout $end
$var wire 1 ;# inst|inst4|inst2[2]~29_combout $end
$var wire 1 <# inst|inst|inst|inst1|inst6~0_combout $end
$var wire 1 =# inst|inst4|inst2[1]~30_combout $end
$var wire 1 ># inst|inst4|inst2[0]~31_combout $end
$var wire 1 ?# inst|inst4|inst2[0]~32_combout $end
$var wire 1 @# inst|inst1|inst4|inst3~0_combout $end
$var wire 1 A# inst|inst1|inst4|inst4~0_combout $end
$var wire 1 B# inst|inst1|inst4|inst2~0_combout $end
$upscope $end
$upscope $end
$enddefinitions $end
#0
$dumpvars
b1 !
0"
0#
b1111 $
0%
1&
0'
0(
0)
0*
16
15
14
13
02
01
00
0/
0.
0-
0,
0+
07
08
19
1:
1;
0<
0H
0G
0F
0E
0D
0C
0B
0A
0@
0?
0>
0=
0T
0S
0R
0Q
0P
0O
0N
0M
0L
0K
0J
0I
0U
0a
0`
0_
0^
0]
0\
0[
0Z
0Y
0X
0W
0V
xb
0c
1d
xe
1f
1g
1h
zi
zj
zk
zl
zm
zn
zo
zp
zq
zr
zs
zt
0u
0v
0w
1x
0y
1z
0{
1|
0}
0~
0!!
0"!
0#!
0$!
0%!
0&!
0'!
0(!
0)!
0*!
0+!
0,!
0-!
0.!
0/!
00!
01!
02!
03!
04!
05!
06!
07!
08!
09!
0:!
0;!
0<!
0=!
0>!
0?!
0@!
0A!
0B!
0C!
0D!
0E!
1F!
0G!
0H!
0I!
1J!
0K!
0L!
0M!
0N!
0O!
1P!
0Q!
0R!
0S!
0T!
0U!
0V!
0W!
0X!
1Y!
0Z!
0[!
0\!
0]!
0^!
0_!
0`!
1a!
0b!
0c!
0d!
0e!
0f!
0g!
0h!
0i!
0j!
0k!
0l!
0m!
0n!
0o!
0p!
0q!
1r!
0s!
0t!
0u!
1v!
0w!
0x!
1y!
0z!
0{!
1|!
0}!
0~!
1!"
0""
0#"
0$"
0%"
0&"
0'"
0("
0)"
0*"
1+"
0,"
0-"
0."
0/"
00"
01"
02"
03"
04"
05"
16"
17"
18"
19"
1:"
0;"
0<"
0="
0>"
0?"
0@"
0A"
0B"
0C"
1D"
1E"
0F"
0G"
0H"
0I"
0J"
0K"
0L"
0M"
0N"
0O"
0P"
0Q"
1R"
1S"
1T"
1U"
0V"
1W"
0X"
0Y"
0Z"
0["
0\"
0]"
0^"
0_"
0`"
0a"
1b"
0c"
0d"
1e"
0f"
0g"
0h"
0i"
0j"
0k"
0l"
0m"
0n"
0o"
0p"
1q"
0r"
0s"
0t"
0u"
0v"
0w"
0x"
0y"
0z"
0{"
0|"
0}"
0~"
0!#
0"#
0##
0$#
1%#
1&#
1'#
0(#
1)#
0*#
1+#
0,#
1-#
1.#
1/#
00#
11#
12#
13#
04#
15#
16#
17#
08#
19#
1:#
1;#
0<#
1=#
1>#
1?#
0@#
0A#
1B#
$end
#10000
1"
1)
1C!
1Q!
1D!
0b
1R!
1v"
1L"
1K"
1J"
1I"
1""
1~!
1{!
1x!
1y"
1M"
1N"
18#
1O"
06"
1$"
09"
1%"
1&"
1B!
1A!
1@!
1?!
1*!
1)!
1(!
1'!
1a
1`
1_
1^
1H
1G
1F
1E
1{"
1P"
0:"
1'"
08#
1}"
1Q"
0T"
1("
0e"
0R"
10"
0|
09
0S"
13"
14"
#20000
b111 $
b11 $
0&
1%
0"
0)
04
03
0y!
0v!
0F!
1U!
0C!
0Q!
0D!
1b
0q"
1V!
0R!
0Y!
0x
0;
#30000
1"
1C!
1D!
0b
1#"
1}!
0M"
16"
0$"
16!
15!
1T
1S
#40000
bz00000000011 $
bz0000000011 $
bz000000011 $
bz00000011 $
bz0000011 $
bz000011 $
bz00011 $
bz0011 $
bz00z1 $
bz00zz $
1(
bz0zz $
bz $
0%
0"
z6
z5
z4
z3
z2
z1
z0
z/
z.
z-
z,
z+
z!"
z|!
zy!
zv!
zs!
zo!
zk!
zf!
zd!
zE!
zX!
zT!
1_!
0U!
0C!
0D!
1b
xi!
xg!
x1"
1`!
0V!
1j"
1i"
1k"
#50000
1"
1C!
1D!
0b
1l"
1h"
0`!
0P!
1@#
0b"
0j"
0i"
1X"
1A"
1u
0z
17
0:
1`"
1T"
1e"
1|
19
#60000
0(
0"
0_!
0C!
0D!
1b
#70000
1"
1C!
1D!
0b
#80000
0"
0C!
0D!
1b
#90000
1"
1C!
1D!
0b
#100000
1'
0"
1G!
0C!
0D!
1b
0h"
0k"
#110000
1"
1C!
1D!
0b
0l"
1P!
0@#
1b"
0X"
0A"
0u
1z
07
1:
0`"
0T"
0e"
0|
09
#120000
0'
0"
0G!
0C!
0D!
1b
#130000
1"
1C!
1D!
0b
#140000
1&
b0zzzzzzzzzzz $
b0zzzzzzzzzz $
b0zzzzzzzzz $
b0zzzzzzzz $
b0zzzzzzz $
b0zzzzzz $
b0zzzzz $
b0zzzz $
b0zz1z $
b0zz10 $
b0z10 $
b10 $
0"
06
15
04
03
02
01
00
0/
0.
0-
0,
0+
1F!
0!"
1|!
0y!
0v!
0s!
0o!
0k!
0f!
0d!
0E!
0X!
0T!
0C!
0D!
1b
1q"
0i!
0g!
01"
1Y!
1x
1;
#150000
1"
1C!
1D!
0b
0L"
0J"
0I"
0""
0{!
0x!
1<#
0y"
1Y"
0{"
0N"
18#
0}"
06"
1,"
19"
0%"
0B!
0@!
0?!
0*!
0(!
0'!
0a
0_
0^
0H
0F
0E
1Z"
08#
0O"
1-"
0&"
1["
0P"
1."
0'"
1\"
0Q"
1/"
0("
1]"
1R"
00"
1^"
1S"
03"
1_"
04"
#160000
1#
1%
0&
b0 $
b100 $
0"
05
14
1H!
1U!
0F!
0|!
1y!
0C!
0D!
1b
1V!
0q"
0Y!
0x
0;
#170000
0#
1"
0H!
1C!
1D!
0b
0#"
0}!
1z!
0Y"
1M"
0,"
1$"
09"
06!
05!
14!
0T
0S
1R
#180000
bz00000000100 $
bz0000000100 $
bz000000100 $
bz00000100 $
bz0000100 $
bz000100 $
bz00100 $
bz0100 $
bz010z $
bz10z $
0%
bz1zz $
bz $
0"
z6
z5
z4
z3
z2
z1
z0
z/
z.
z-
z,
z+
z!"
z|!
zy!
zv!
zs!
zo!
zk!
zf!
zd!
zE!
zX!
zT!
0U!
0C!
0D!
1b
xi!
xg!
x1"
0V!
#190000
1"
1C!
1D!
0b
#200000
1(
0"
1_!
0C!
0D!
1b
1`!
1i"
15"
1o"
1f"
#210000
1"
1C!
1D!
0b
1p"
1g"
0&#
1q"
1m"
0`!
0P!
1O!
1(#
0:#
06#
02#
0.#
0)#
1N!
05"
1X"
1A"
1{
1t
1s
1r
1q
1p
1o
1n
1m
1l
1k
1j
1i
1<
16
15
14
13
12
11
10
1/
1.
1-
1,
1+
09#
05#
01#
0-#
0'#
1T"
1!"
1|!
1y!
1v!
1s!
1o!
1k!
1f!
1d!
1E!
1X!
1T!
0q
0o
0m
0k
0i
03
01
0/
0-
0+
0;#
07#
03#
0/#
0+#
1i!
1g!
11"
0v!
0o!
0f!
0E!
0T!
0r
0p
0n
0l
0j
04
02
00
0.
0,
0i!
0g!
0y!
0s!
0k!
0d!
0X!
01"
#220000
1#
0(
0"
1H!
0_!
0C!
0D!
1b
#230000
1"
1C!
1D!
0b
1L"
0<#
1y"
1B!
1a
0?#
1:#
0t
06
0=#
0!"
0s
05
1;#
0|!
1r
14
1y!
#240000
0"
0C!
0D!
1b
#250000
1"
1C!
1D!
0b
0L"
0K"
1J"
0y"
0M"
0:#
1{"
0Z"
1N"
0B!
0A!
1@!
0a
0`
1_
1?#
1:#
0{"
0N"
18#
0["
1O"
1t
16
0;#
08#
0O"
0\"
1P"
1!"
0r
04
1;#
19#
0P"
0]"
1Q"
0y!
1r
1q
14
13
09#
0Q"
0^"
0R"
1y!
1v!
0q
03
1R"
0_"
0S"
0v!
1S"
1`"
1e"
0o"
1k"
1|
19
#260000
0"
0C!
0D!
1b
#270000
1"
1C!
1D!
0b
0p"
1l"
1L"
0q"
1n"
0m"
1h"
0O!
1I!
1<#
1M"
1B!
1a
1A#
0?#
1o"
0i"
1N"
1v
0t
18
06
1=#
1O"
0!"
1s
15
1P"
1|!
1Q"
0R"
0S"
#280000
0"
0C!
0D!
1b
#290000
1"
1C!
1D!
0b
1p"
0>#
1*#
1&#
0%#
1q"
0h"
0A#
0b"
16#
12#
1.#
1)#
0k"
0{
0v
0z
0<
08
0:
0;#
0r
04
0y!
#300000
0"
0C!
0D!
1b
#310000
1"
1C!
1D!
0b
0l"
0L"
1K"
0J"
1>#
0*#
0&#
1%#
0n"
1m"
1O!
0I!
1Z"
0N"
0B!
1A!
0@!
0a
1`
0_
1b"
0:#
06#
02#
0.#
0)#
0o"
1i"
1["
0O"
1{
1z
1<
1:
1?#
1;#
17#
13#
1/#
1+#
1k"
1\"
0P"
1t
1r
1p
1n
1l
1j
16
14
12
10
1.
1,
0;#
07#
03#
0/#
0+#
1]"
0Q"
1!"
1y!
1s!
1k!
1d!
1X!
0r
0p
0n
0l
0j
04
02
00
0.
0,
1^"
1R"
11"
0y!
0s!
0k!
0d!
0X!
1_"
1S"
01"
0`"
0e"
1o"
0k"
0|
09
#320000
b0 !
0"
0J!
0C!
0D!
1b
0N!
0f"
#330000
1"
1C!
1D!
0b
0v"
0g"
1L"
0B#
1n"
0i"
0O!
1B!
1a
1w
1U
#340000
0"
0C!
0D!
1b
#350000
1"
1C!
1D!
0b
#360000
0"
0C!
0D!
1b
#370000
b10 !
1"
1L!
1C!
1D!
0b
1w"
1M!
1N!
1f"
#380000
0"
0C!
0D!
1b
#390000
1"
1C!
1D!
0b
1x"
1g"
0<#
1y"
1B#
0n"
1i"
1O!
1:#
0w
0U
0=#
0s
05
1;#
0|!
1r
14
1y!
#400000
0"
0C!
0D!
1b
#410000
1"
1C!
1D!
0b
0K"
1J"
1<#
0y"
0:#
1{"
0Z"
1N"
0A!
1@!
0`
1_
1:#
0{"
18#
0["
1O"
1=#
0;#
08#
0\"
1P"
1s
0r
15
04
1;#
19#
0]"
1Q"
1|!
0y!
1r
1q
14
13
09#
0^"
0R"
1y!
1v!
0q
03
0_"
0S"
0v!
1`"
1e"
0o"
1k"
1|
19
#420000
0"
0C!
0D!
1b
#430000
1"
1C!
1D!
0b
0p"
1l"
1K"
0q"
1n"
0m"
1h"
0O!
1I!
0<#
1y"
1A!
1`
1A#
1o"
0i"
0M!
0:#
1{"
1v
18
0=#
18#
0s
05
0;#
0|!
0r
04
19#
0y!
1q
13
1v!
#440000
b11 !
b1 !
0"
1J!
0L!
0C!
0D!
1b
0w"
#450000
1"
1C!
1D!
0b
0x"
1v"
1p"
0>#
1*#
1&#
0%#
1q"
0h"
0?#
0A#
0b"
1:#
16#
12#
1.#
1)#
0k"
0{
0t
0v
0z
0<
06
08
0:
1=#
09#
0!"
1s
0q
15
03
1|!
0v!
#460000
0"
0C!
0D!
1b
#470000
1"
1C!
1D!
0b
0l"
0L"
0J"
1>#
0*#
0&#
1%#
0n"
1m"
1O!
0I!
1<#
0y"
0{"
1Z"
0N"
0B!
0@!
0a
0_
1b"
0:#
06#
02#
0.#
0)#
0o"
1i"
08#
1["
0O"
1{
1z
1<
1:
1?#
1;#
19#
17#
13#
1/#
1+#
1k"
1\"
0P"
1t
1r
1q
1p
1n
1l
1j
16
14
13
12
10
1.
1,
0;#
07#
03#
0/#
0+#
09#
1]"
0Q"
1!"
1y!
1v!
1s!
1k!
1d!
1X!
0r
0p
0n
0l
0j
0q
04
02
00
0.
0,
03
1^"
1R"
11"
0y!
0s!
0k!
0d!
0X!
0v!
1_"
1S"
01"
0`"
0e"
1o"
0k"
0|
09
#480000
0"
0C!
0D!
1b
#490000
1"
1C!
1D!
0b
1L"
0<#
1y"
1B!
1a
0?#
1:#
0t
06
0=#
0!"
0s
05
1;#
0|!
1r
14
1y!
#500000
0"
0C!
0D!
1b
#510000
1"
1C!
1D!
0b
0L"
0K"
1J"
0y"
0M"
0:#
1{"
0Z"
1N"
0B!
0A!
1@!
0a
0`
1_
1?#
1:#
0{"
0N"
18#
0["
1O"
1t
16
0;#
08#
0O"
0\"
1P"
1!"
0r
04
1;#
19#
0P"
0]"
1Q"
0y!
1r
1q
14
13
09#
0Q"
0^"
0R"
1y!
1v!
0q
03
1R"
0_"
0S"
0v!
1S"
1`"
1e"
0o"
1k"
1|
19
#520000
0"
0C!
0D!
1b
#530000
1"
1C!
1D!
0b
0p"
1l"
1L"
0q"
1n"
0m"
1h"
0O!
1I!
1<#
1M"
1B!
1a
1A#
0?#
1o"
0i"
1N"
1v
0t
18
06
1=#
1O"
0!"
1s
15
1P"
1|!
1Q"
0R"
0S"
#540000
0"
0C!
0D!
1b
#550000
1"
1C!
1D!
0b
1p"
0>#
1*#
1&#
0%#
1q"
0h"
0A#
0b"
16#
12#
1.#
1)#
0k"
0{
0v
0z
0<
08
0:
0;#
0r
04
0y!
#560000
0"
0C!
0D!
1b
