TEI_GRUPO17/ProyectoQuartus/simulation/qsim/TEI_GRUPO17.msim.vcd
$comment
	File created using the following command:
		vcd file TEI_GRUPO17.msim.vcd -direction
$end
$date
	Thu Jul 31 22:05:48 2025
$end
$version
	ModelSim Version 10.1d
$end
$timescale
	1ps
$end
$scope module circuito_principal_bloque_vlg_vec_tst $end
$var reg 3 ! b [2:0] $end
$var reg 1 " CLK $end
$var reg 1 # CONTINUAR $end
$var reg 12 $ treg_DATA [11:0] $end
$var reg 1 % LOAD_F $end
$var reg 1 & LOAD_I $end
$var reg 1 ' RECARGAR $end
$var reg 1 ( START $end
$var reg 1 ) UP_DOWN $end
$var wire 1 * DATA [11] $end
$var wire 1 + DATA [10] $end
$var wire 1 , DATA [9] $end
$var wire 1 - DATA [8] $end
$var wire 1 . DATA [7] $end
$var wire 1 / DATA [6] $end
$var wire 1 0 DATA [5] $end
$var wire 1 1 DATA [4] $end
$var wire 1 2 DATA [3] $end
$var wire 1 3 DATA [2] $end
$var wire 1 4 DATA [1] $end
$var wire 1 5 DATA [0] $end
$var wire 1 6 ERROR $end
$var wire 1 7 FIN $end
$var wire 1 8 PAUSA $end
$var wire 1 9 sampler $end
$scope module i1 $end
$var wire 1 : gnd $end
$var wire 1 ; vcc $end
$var wire 1 < unknown $end
$var tri1 1 = devclrn $end
$var tri1 1 > devpor $end
$var tri1 1 ? devoe $end
$var wire 1 @ DATA[11]~output_o $end
$var wire 1 A DATA[10]~output_o $end
$var wire 1 B DATA[9]~output_o $end
$var wire 1 C DATA[8]~output_o $end
$var wire 1 D DATA[7]~output_o $end
$var wire 1 E DATA[6]~output_o $end
$var wire 1 F DATA[5]~output_o $end
$var wire 1 G DATA[4]~output_o $end
$var wire 1 H DATA[3]~output_o $end
$var wire 1 I DATA[2]~output_o $end
$var wire 1 J DATA[1]~output_o $end
$var wire 1 K DATA[0]~output_o $end
$var wire 1 L ERROR~output_o $end
$var wire 1 M FIN~output_o $end
$var wire 1 N PAUSA~output_o $end
$var wire 1 O CLK~input_o $end
$var wire 1 P CLK~inputclkctrl_outclk $end
$var wire 1 Q CONTINUAR~input_o $end
$var wire 1 R RECARGAR~input_o $end
$var wire 1 S inst|inst4|inst6|inst|inst40~4_combout $end
$var wire 1 T b[1]~input_o $end
$var wire 1 U b[2]~input_o $end
$var wire 1 V inst|inst4|inst6|inst|inst40~1_combout $end
$var wire 1 W inst|inst4|inst6|inst|inst~2_combout $end
$var wire 1 X inst|inst4|inst6|inst|inst~1_combout $end
$var wire 1 Y START~input_o $end
$var wire 1 Z DATA[11]~input_o $end
$var wire 1 [ LOAD_I~input_o $end
$var wire 1 \ inst|inst4|inst3|inst2~0_combout $end
$var wire 1 ] inst|inst2|inst|inst11|inst4~q $end
$var wire 1 ^ LOAD_F~input_o $end
$var wire 1 _ inst|inst4|inst3|inst3~0_combout $end
$var wire 1 ` inst|inst2|inst3|inst11|inst4~q $end
$var wire 1 a DATA[10]~input_o $end
$var wire 1 b inst|inst2|inst3|inst10|inst4~q $end
$var wire 1 c inst|inst2|inst|inst10|inst4~q $end
$var wire 1 d inst|inst4|inst11|inst6~0_combout $end
$var wire 1 e UP_DOWN~input_o $end
$var wire 1 f inst|inst4|inst5|inst4~0_combout $end
$var wire 1 g inst|inst4|inst5|inst4~q $end
$var wire 1 h inst|inst4|inst10|inst4~0_combout $end
$var wire 1 i inst|inst4|inst10|inst4~1_combout $end
$var wire 1 j DATA[9]~input_o $end
$var wire 1 k inst|inst2|inst3|inst9|inst4~q $end
$var wire 1 l inst|inst2|inst|inst9|inst4~q $end
$var wire 1 m DATA[8]~input_o $end
$var wire 1 n inst|inst2|inst3|inst8|inst4~q $end
$var wire 1 o inst|inst2|inst|inst8|inst4~q $end
$var wire 1 p DATA[7]~input_o $end
$var wire 1 q inst|inst2|inst|inst7|inst4~q $end
$var wire 1 r DATA[6]~input_o $end
$var wire 1 s inst|inst2|inst3|inst6|inst4~q $end
$var wire 1 t inst|inst2|inst3|inst7|inst4~q $end
$var wire 1 u inst|inst2|inst|inst6|inst4~q $end
$var wire 1 v inst|inst4|inst10|inst|inst7|inst10~5_combout $end
$var wire 1 w DATA[5]~input_o $end
$var wire 1 x inst|inst2|inst3|inst5|inst4~q $end
$var wire 1 y inst|inst2|inst|inst5|inst4~q $end
$var wire 1 z DATA[4]~input_o $end
$var wire 1 { inst|inst2|inst3|inst4|inst4~q $end
$var wire 1 | DATA[3]~input_o $end
$var wire 1 } inst|inst2|inst|inst3|inst4~q $end
$var wire 1 ~ DATA[2]~input_o $end
$var wire 1 !! inst|inst2|inst3|inst2|inst4~q $end
$var wire 1 "! inst|inst2|inst|inst2|inst4~q $end
$var wire 1 #! DATA[1]~input_o $end
$var wire 1 $! inst|inst2|inst|inst1|inst4~q $end
$var wire 1 %! DATA[0]~input_o $end
$var wire 1 &! inst|inst2|inst3|inst|inst4~q $end
$var wire 1 '! inst|inst2|inst|inst|inst4~q $end
$var wire 1 (! inst|inst2|inst3|inst1|inst4~q $end
$var wire 1 )! inst|inst4|inst10|inst|inst7|inst10~0_combout $end
$var wire 1 *! inst|inst4|inst10|inst|inst7|inst10~1_combout $end
$var wire 1 +! inst|inst2|inst3|inst3|inst4~q $end
$var wire 1 ,! inst|inst4|inst10|inst|inst7|inst10~2_combout $end
$var wire 1 -! inst|inst2|inst|inst4|inst4~q $end
$var wire 1 .! inst|inst4|inst10|inst|inst7|inst10~3_combout $end
$var wire 1 /! inst|inst4|inst11|inst6~1_combout $end
$var wire 1 0! inst|inst4|inst10|inst|inst7|inst10~4_combout $end
$var wire 1 1! inst|inst4|inst10|inst|inst7|inst4~4_combout $end
$var wire 1 2! inst|inst4|inst10|inst|inst7|inst4~0_combout $end
$var wire 1 3! inst|inst4|inst11|inst6~2_combout $end
$var wire 1 4! inst|inst4|inst10|inst|inst7|inst4~1_combout $end
$var wire 1 5! inst|inst4|inst10|inst|inst7|inst4~2_combout $end
$var wire 1 6! inst|inst4|inst10|inst|inst7|inst4~3_combout $end
$var wire 1 7! inst|inst4|inst10|inst|inst7|inst4~5_combout $end
$var wire 1 8! inst|inst4|inst10|inst4~4_combout $end
$var wire 1 9! inst|inst4|inst10|inst4~5_combout $end
$var wire 1 :! inst|inst4|inst10|inst4~2_combout $end
$var wire 1 ;! inst|inst4|inst10|inst4~3_combout $end
$var wire 1 <! inst|inst4|inst6|inst|inst40~2_combout $end
$var wire 1 =! inst|inst4|inst6|inst|inst40~3_combout $end
$var wire 1 >! b[0]~input_o $end
$var wire 1 ?! inst|inst4|inst2|inst|inst41|inst4|inst5~0_combout $end
$var wire 1 @! inst|inst4|inst2|inst9~0_combout $end
$var wire 1 A! inst|inst|inst2|inst10|inst4~q $end
$var wire 1 B! inst|inst4|inst2|inst15~0_combout $end
$var wire 1 C! inst|inst4|inst2|inst8~0_combout $end
$var wire 1 D! inst|inst|inst2|inst3|inst4~q $end
$var wire 1 E! inst|inst4|inst2|inst|inst41|inst2|inst5~combout $end
$var wire 1 F! inst|inst|inst2|inst2|inst4~q $end
$var wire 1 G! inst|inst4|inst2|inst|inst41|inst1|inst5~0_combout $end
$var wire 1 H! inst|inst|inst2|inst1|inst4~q $end
$var wire 1 I! inst|inst|inst2|inst|inst4~q $end
$var wire 1 J! inst|inst|inst|inst12|inst6~combout $end
$var wire 1 K! inst|inst|inst4|inst3[0]~6_combout $end
$var wire 1 L! inst|inst4|inst2|inst9~1_combout $end
$var wire 1 M! inst|inst|inst1|inst|inst4~q $end
$var wire 1 N! inst|inst|inst|inst1|inst6~0_combout $end
$var wire 1 O! inst|inst|inst4|inst3[1]~7_combout $end
$var wire 1 P! inst|inst|inst1|inst1|inst4~q $end
$var wire 1 Q! inst|inst|inst|inst1|inst~0_combout $end
$var wire 1 R! inst|inst|inst|inst2|inst~0_combout $end
$var wire 1 S! inst|inst|inst4|inst3[2]~8_combout $end
$var wire 1 T! inst|inst|inst4|inst3[2]~9_combout $end
$var wire 1 U! inst|inst|inst1|inst2|inst4~q $end
$var wire 1 V! inst|inst|inst|inst2|inst~1_combout $end
$var wire 1 W! inst|inst|inst|inst3|inst6~combout $end
$var wire 1 X! inst|inst|inst4|inst3[3]~10_combout $end
$var wire 1 Y! inst|inst|inst1|inst3|inst4~q $end
$var wire 1 Z! inst|inst|inst|inst3|inst~0_combout $end
$var wire 1 [! inst|inst|inst4|inst3[4]~11_combout $end
$var wire 1 \! inst|inst|inst4|inst3[4]~12_combout $end
$var wire 1 ]! inst|inst|inst1|inst4|inst4~q $end
$var wire 1 ^! inst|inst|inst|inst4|inst~1_combout $end
$var wire 1 _! inst|inst|inst|inst4|inst~0_combout $end
$var wire 1 `! inst|inst|inst|inst5|inst6~combout $end
$var wire 1 a! inst|inst|inst4|inst3[5]~13_combout $end
$var wire 1 b! inst|inst|inst1|inst5|inst4~q $end
$var wire 1 c! inst|inst|inst|inst5|inst~0_combout $end
$var wire 1 d! inst|inst|inst4|inst3[6]~4_combout $end
$var wire 1 e! inst|inst|inst4|inst3[6]~5_combout $end
$var wire 1 f! inst|inst|inst1|inst6|inst4~q $end
$var wire 1 g! inst|inst|inst|inst7|inst6~combout $end
$var wire 1 h! inst|inst|inst4|inst3[7]~14_combout $end
$var wire 1 i! inst|inst|inst1|inst7|inst4~q $end
$var wire 1 j! inst|inst|inst|inst7|inst~0_combout $end
$var wire 1 k! inst|inst|inst4|inst3[8]~2_combout $end
$var wire 1 l! inst|inst|inst4|inst3[8]~3_combout $end
$var wire 1 m! inst|inst|inst1|inst8|inst4~q $end
$var wire 1 n! inst|inst|inst|inst9|inst6~combout $end
$var wire 1 o! inst|inst|inst4|inst3[9]~15_combout $end
$var wire 1 p! inst|inst|inst1|inst9|inst4~q $end
$var wire 1 q! inst|inst|inst|inst9|inst~0_combout $end
$var wire 1 r! inst|inst|inst4|inst3[10]~0_combout $end
$var wire 1 s! inst|inst|inst4|inst3[10]~1_combout $end
$var wire 1 t! inst|inst|inst1|inst10|inst4~q $end
$var wire 1 u! inst|inst|inst4|inst3[11]~16_combout $end
$var wire 1 v! inst|inst|inst4|inst3[11]~17_combout $end
$var wire 1 w! inst|inst|inst1|inst11|inst4~q $end
$var wire 1 x! inst|inst|inst|inst11|inst~0_combout $end
$var wire 1 y! inst|inst4|inst11|inst|inst11|inst5~1_combout $end
$var wire 1 z! inst|inst4|inst11|inst|inst11|inst9~0_combout $end
$var wire 1 {! inst|inst4|inst11|inst6~13_combout $end
$var wire 1 |! inst|inst4|inst11|inst|inst8|inst2~combout $end
$var wire 1 }! inst|inst4|inst11|inst|inst11|inst5~2_combout $end
$var wire 1 ~! inst|inst4|inst11|inst|inst7|inst10~0_combout $end
$var wire 1 !" inst|inst4|inst11|inst|inst5|inst2~combout $end
$var wire 1 "" inst|inst4|inst11|inst|inst7|inst10~1_combout $end
$var wire 1 #" inst|inst4|inst11|inst|inst7|inst10~2_combout $end
$var wire 1 $" inst|inst4|inst11|inst|inst7|inst10~3_combout $end
$var wire 1 %" inst|inst4|inst11|inst|inst7|inst10~4_combout $end
$var wire 1 &" inst|inst4|inst11|inst|inst7|inst10~5_combout $end
$var wire 1 '" inst|inst4|inst11|inst|inst11|inst9~1_combout $end
$var wire 1 (" inst|inst4|inst11|inst6~12_combout $end
$var wire 1 )" inst|inst4|inst11|inst6~14_combout $end
$var wire 1 *" inst|inst4|inst11|inst6~6_combout $end
$var wire 1 +" inst|inst4|inst11|inst6~5_combout $end
$var wire 1 ," inst|inst4|inst11|inst6~3_combout $end
$var wire 1 -" inst|inst4|inst11|inst6~4_combout $end
$var wire 1 ." inst|inst4|inst11|inst6~7_combout $end
$var wire 1 /" inst|inst4|inst11|inst6~8_combout $end
$var wire 1 0" inst|inst4|inst11|inst|inst11|inst5~0_combout $end
$var wire 1 1" inst|inst4|inst11|inst6~9_combout $end
$var wire 1 2" inst|inst4|inst11|inst|inst7|inst4~6_combout $end
$var wire 1 3" inst|inst4|inst11|inst|inst7|inst4~0_combout $end
$var wire 1 4" inst|inst4|inst11|inst|inst7|inst4~1_combout $end
$var wire 1 5" inst|inst4|inst11|inst|inst7|inst4~2_combout $end
$var wire 1 6" inst|inst4|inst11|inst|inst7|inst4~3_combout $end
$var wire 1 7" inst|inst4|inst11|inst|inst7|inst4~4_combout $end
$var wire 1 8" inst|inst4|inst11|inst|inst7|inst4~5_combout $end
$var wire 1 9" inst|inst4|inst11|inst|inst11|inst5~3_combout $end
$var wire 1 :" inst|inst4|inst11|inst6~10_combout $end
$var wire 1 ;" inst|inst4|inst11|inst6~11_combout $end
$var wire 1 <" inst|inst4|inst11|inst6~15_combout $end
$var wire 1 =" inst|inst4|inst6|inst|inst40~5_combout $end
$var wire 1 >" inst|inst4|inst6|inst|inst40~6_combout $end
$var wire 1 ?" inst|inst4|inst6|inst1|inst~q $end
$var wire 1 @" inst|inst4|inst6|inst|inst60~0_combout $end
$var wire 1 A" inst|inst4|inst6|inst|inst60~1_combout $end
$var wire 1 B" inst|inst4|inst6|inst|inst52~0_combout $end
$var wire 1 C" inst|inst4|inst6|inst|inst60~2_combout $end
$var wire 1 D" inst|inst4|inst6|inst1|inst2~q $end
$var wire 1 E" inst|inst4|inst6|inst|inst40~0_combout $end
$var wire 1 F" inst|inst4|inst6|inst|inst51~0_combout $end
$var wire 1 G" inst|inst4|inst6|inst|inst51~1_combout $end
$var wire 1 H" inst|inst4|inst6|inst1|inst1~q $end
$var wire 1 I" inst|inst4|inst2|inst7~0_combout $end
$var wire 1 J" inst|inst2|inst2[11]~12_combout $end
$var wire 1 K" inst|inst2|inst2[11]~13_combout $end
$var wire 1 L" inst|inst2|inst2[10]~14_combout $end
$var wire 1 M" inst|inst2|inst2[9]~15_combout $end
$var wire 1 N" inst|inst2|inst2[8]~16_combout $end
$var wire 1 O" inst|inst2|inst2[7]~17_combout $end
$var wire 1 P" inst|inst2|inst2[6]~18_combout $end
$var wire 1 Q" inst|inst2|inst2[5]~19_combout $end
$var wire 1 R" inst|inst2|inst2[4]~20_combout $end
$var wire 1 S" inst|inst2|inst2[3]~21_combout $end
$var wire 1 T" inst|inst2|inst2[2]~22_combout $end
$var wire 1 U" inst|inst2|inst2[1]~23_combout $end
$var wire 1 V" inst|inst2|inst2[0]~24_combout $end
$var wire 1 W" inst|inst4|inst6|inst|inst~0_combout $end
$var wire 1 X" inst|inst4|inst9|inst4~0_combout $end
$var wire 1 Y" inst|inst4|inst9|inst2~0_combout $end
$upscope $end
$upscope $end
$enddefinitions $end
#0
$dumpvars
b1 !
0"
1#
b1 $
0%
1&
0'
0(
0)
15
04
03
02
01
00
0/
0.
0-
0,
0+
0*
06
07
08
x9
0:
1;
x<
1=
1>
1?
z@
zA
zB
zC
zD
zE
zF
zG
zH
zI
zJ
zK
0L
0M
0N
0O
0P
1Q
0R
0S
0T
0U
0V
0W
1X
0Y
0Z
1[
1\
0]
0^
0_
0`
0a
0b
0c
1d
0e
0f
0g
0h
0i
0j
0k
0l
0m
0n
0o
0p
0q
0r
0s
0t
0u
0v
0w
0x
0y
0z
0{
0|
0}
0~
0!!
0"!
0#!
0$!
1%!
0&!
0'!
0(!
0)!
0*!
0+!
0,!
0-!
0.!
1/!
00!
01!
02!
13!
04!
05!
06!
07!
08!
09!
0:!
0;!
0<!
0=!
1>!
0?!
1@!
0A!
1B!
0C!
0D!
0E!
0F!
0G!
0H!
0I!
0J!
0K!
1L!
0M!
0N!
0O!
0P!
0Q!
0R!
0S!
0T!
0U!
0V!
0W!
0X!
0Y!
0Z!
0[!
0\!
0]!
0^!
0_!
0`!
0a!
0b!
0c!
0d!
0e!
0f!
0g!
0h!
0i!
0j!
0k!
0l!
0m!
0n!
0o!
0p!
0q!
0r!
0s!
0t!
0u!
0v!
0w!
0x!
1y!
0z!
1{!
0|!
1}!
0~!
0!"
1""
1#"
1$"
1%"
1&"
1'"
1("
1)"
1*"
1+"
1,"
1-"
1."
1/"
00"
11"
02"
13"
04"
05"
06"
07"
08"
09"
1:"
1;"
1<"
1="
0>"
0?"
0@"
0A"
0B"
0C"
0D"
0E"
0F"
0G"
0H"
0I"
1J"
0K"
1L"
1M"
1N"
1O"
1P"
1Q"
1R"
1S"
1T"
1U"
1V"
0W"
0X"
1Y"
$end
#10000
1"
1O
1P
09
1I!
1'!
1J!
0*"
1)!
1K!
0."
1*!
0;"
1,!
0<"
1.!
10!
18!
19!
1:!
1;!
#20000
b11 $
b10 $
0&
1%
0"
05
14
0%!
1#!
0[
1^
0O
0P
19
0@!
0\
1_
0L!
#30000
1"
1O
1P
09
1(!
0""
14!
0)!
0#"
15!
0*!
0$"
16!
0,!
0%"
17!
0.!
0&"
00!
0'"
08!
09!
0:!
0;!
#40000
bz00000000010 $
bz0000000010 $
bz000000010 $
bz00000010 $
bz0000010 $
bz000010 $
bz00010 $
bz0010 $
bz010 $
bz10 $
1(
bz0 $
bz $
0%
0"
z5
z4
z3
z2
z1
z0
z/
z.
z-
z,
z+
z*
z%!
z#!
z~
z|
zz
zw
zr
zp
zm
zj
za
zZ
1Y
0^
0O
0P
19
x4"
x""
x#"
x$"
x%"
x!"
x~!
x3"
x&"
x'"
x|!
xz!
x}!
x{!
x("
xy!
1A"
1<!
0_
x5"
1G"
1=!
x6"
1>"
x7"
x8"
x9"
x:"
#50000
1"
1O
1P
09
1H"
1?"
1I"
1E"
1L!
1C!
0X
1K"
xK!
x;"
0<!
1K
1J
1I
1H
1G
1F
1E
1D
1C
1B
1A
1@
15
14
13
12
11
10
1/
1.
1-
1,
1+
1*
0V"
0U"
0T"
0S"
0R"
0Q"
0P"
0O"
0N"
0M"
0L"
0J"
x<"
0=!
1%!
1#!
1~
1|
1z
1w
1r
1p
1m
1j
1a
1Z
0K
0J
0I
0H
0G
0F
0E
0D
0C
0B
0A
0@
05
04
03
02
01
00
0/
0.
0-
0,
0+
0*
xG"
xC"
xL!
04"
1""
1K!
05"
1#"
06"
1$"
07"
1!"
1~!
03"
1&"
1|!
1z!
0}!
0("
0y!
0%!
0#!
0~
0|
0z
0w
0r
0p
0m
0j
0a
0Z
0%"
08"
0'"
1{!
09"
14"
0""
0K!
0!"
0~!
13"
0|!
0z!
1("
1y!
0&"
1:"
15"
0#"
1%"
1}!
1;"
16"
0$"
1&"
1<"
17"
0%"
1'"
0G"
1C"
0L!
18"
0&"
19"
0'"
0:"
0;"
0<"
1G"
0C"
1L!
#60000
0(
0"
0Y
0O
0P
19
#70000
1"
1O
1P
09
#80000
0"
0O
0P
19
#90000
1"
1O
1P
09
#100000
0"
0O
0P
19
#110000
1"
1O
1P
09
#120000
0"
0O
0P
19
#130000
1"
1O
1P
09
#140000
0"
0O
0P
19
#150000
1"
1O
1P
09
#160000
0"
0O
0P
19
#170000
1"
1O
1P
09
#180000
0"
0O
0P
19
#190000
1"
1O
1P
09
#200000
0"
0O
0P
19
#210000
1"
1O
1P
09
#220000
b0 !
0"
0>!
0O
0P
19
0="
0>"
#230000
1"
1O
1P
09
0?"
0Y"
1F"
0A"
1N
18
#240000
0"
0O
0P
19
#250000
1"
1O
1P
09
#260000
0"
0O
0P
19
#270000
1"
1O
1P
09
#280000
0"
0O
0P
19
#290000
1"
1O
1P
09
#300000
0"
0O
0P
19
#310000
1"
1O
1P
09
#320000
0"
0O
0P
19
#330000
1"
1O
1P
09
#340000
0"
0O
0P
19
#350000
1"
1O
1P
09
#360000
0"
0O
0P
19
#370000
1"
1O
1P
09
#380000
0"
0O
0P
19
#390000
1"
1O
1P
09
#400000
0"
0O
0P
19
#410000
1"
1O
1P
09
#420000
0"
0O
0P
19
#430000
1"
1O
1P
09
#440000
0"
0O
0P
19
#450000
1"
1O
1P
09
#460000
0"
0O
0P
19
#470000
1"
1O
1P
09
#480000
0"
0O
0P
19
#490000
1"
1O
1P
09
#500000
0"
0O
0P
19
#510000
1"
1O
1P
09
#520000
0"
0O
0P
19
#530000
1"
1O
1P
09
#540000
0"
0O
0P
19
#550000
1"
1O
1P
09
#560000
0"
0O
0P
19
#570000
1"
1O
1P
09
#580000
0"
0O
0P
19
#590000
1"
1O
1P
09
#600000
0"
0O
0P
19
#610000
1"
1O
1P
09
#620000
0"
0O
0P
19
#630000
1"
1O
1P
09
#640000
0"
0O
0P
19
#650000
1"
1O
1P
09
#660000
0"
0O
0P
19
#670000
1"
1O
1P
09
#680000
0"
0O
0P
19
#690000
1"
1O
1P
09
#700000
0"
0O
0P
19
#710000
1"
1O
1P
09
#720000
0"
0O
0P
19
#730000
1"
1O
1P
09
#740000
0"
0O
0P
19
#750000
1"
1O
1P
09
#760000
0"
0O
0P
19
#770000
1"
1O
1P
09
#780000
0"
0O
0P
19
#790000
1"
1O
1P
09
#800000
0"
0O
0P
19
#810000
1"
1O
1P
09
#820000
0"
0O
0P
19
#830000
1"
1O
1P
09
#840000
0"
0O
0P
19
#850000
1"
1O
1P
09
#860000
0"
0O
0P
19
#870000
1"
1O
1P
09
#880000
0"
0O
0P
19
#890000
1"
1O
1P
09
#900000
0"
0O
0P
19
#910000
1"
1O
1P
09
#920000
0"
0O
0P
19
#930000
1"
1O
1P
09
#940000
0"
0O
0P
19
#950000
1"
1O
1P
09
#960000
0"
0O
0P
19
#970000
1"
1O
1P
09
#980000
0"
0O
0P
19
#990000
1"
1O
1P
09
