TEI_GRUPO17/ProyectoQuartus/simulation/qsim/TEI_GRUPO17.msim.vcd
$comment
	File created using the following command:
		vcd file TEI_GRUPO17.msim.vcd -direction
$end
$date
	Wed Jul 30 21:34:26 2025
$end
$version
	ModelSim Version 10.1d
$end
$timescale
	1ps
$end
$scope module circuito_principal_bloque_vlg_vec_tst $end
$var reg 3 ! b [2:0] $end
$var reg 1 " CLK $end
$var reg 1 # CONTINUAR $end
$var reg 12 $ treg_DATA [11:0] $end
$var reg 1 % LOAD_F $end
$var reg 1 & LOAD_I $end
$var reg 1 ' RECARGAR $end
$var reg 1 ( START $end
$var reg 1 ) UP_DOWN $end
$var wire 1 * DATA [11] $end
$var wire 1 + DATA [10] $end
$var wire 1 , DATA [9] $end
$var wire 1 - DATA [8] $end
$var wire 1 . DATA [7] $end
$var wire 1 / DATA [6] $end
$var wire 1 0 DATA [5] $end
$var wire 1 1 DATA [4] $end
$var wire 1 2 DATA [3] $end
$var wire 1 3 DATA [2] $end
$var wire 1 4 DATA [1] $end
$var wire 1 5 DATA [0] $end
$var wire 1 6 ERROR $end
$var wire 1 7 FIN $end
$var wire 1 8 FINDET $end
$var wire 1 9 Ienb_UC $end
$var wire 1 : IenVI_UC $end
$var wire 1 ; OenVC_UC $end
$var wire 1 < PAUSA $end
$var wire 1 = sampler $end
$scope module i1 $end
$var wire 1 > gnd $end
$var wire 1 ? vcc $end
$var wire 1 @ unknown $end
$var tri1 1 A devclrn $end
$var tri1 1 B devpor $end
$var tri1 1 C devoe $end
$var wire 1 D DATA[11]~output_o $end
$var wire 1 E DATA[10]~output_o $end
$var wire 1 F DATA[9]~output_o $end
$var wire 1 G DATA[8]~output_o $end
$var wire 1 H DATA[7]~output_o $end
$var wire 1 I DATA[6]~output_o $end
$var wire 1 J DATA[5]~output_o $end
$var wire 1 K DATA[4]~output_o $end
$var wire 1 L DATA[3]~output_o $end
$var wire 1 M DATA[2]~output_o $end
$var wire 1 N DATA[1]~output_o $end
$var wire 1 O DATA[0]~output_o $end
$var wire 1 P ERROR~output_o $end
$var wire 1 Q FIN~output_o $end
$var wire 1 R PAUSA~output_o $end
$var wire 1 S FINDET~output_o $end
$var wire 1 T Ienb_UC~output_o $end
$var wire 1 U OenVC_UC~output_o $end
$var wire 1 V IenVI_UC~output_o $end
$var wire 1 W CLK~input_o $end
$var wire 1 X CLK~inputclkctrl_outclk $end
$var wire 1 Y CONTINUAR~input_o $end
$var wire 1 Z RECARGAR~input_o $end
$var wire 1 [ inst|inst6|inst6|inst|inst~1_combout $end
$var wire 1 \ inst|inst6|inst7|inst8~0_combout $end
$var wire 1 ] LOAD_I~input_o $end
$var wire 1 ^ inst|inst6|inst7|inst9~0_combout $end
$var wire 1 _ DATA[9]~input_o $end
$var wire 1 ` b[0]~input_o $end
$var wire 1 a b[2]~input_o $end
$var wire 1 b b[1]~input_o $end
$var wire 1 c UP_DOWN~input_o $end
$var wire 1 d inst|inst6|inst5|inst4~0_combout $end
$var wire 1 e inst|inst6|inst5|inst4~q $end
$var wire 1 f inst|inst6|inst7|inst|inst41|inst4|inst5~0_combout $end
$var wire 1 g inst|inst6|inst2~combout $end
$var wire 1 h inst|inst|inst2|inst10|inst4~q $end
$var wire 1 i DATA[8]~input_o $end
$var wire 1 j DATA[6]~input_o $end
$var wire 1 k DATA[5]~input_o $end
$var wire 1 l inst|inst6|inst7|inst|inst41|inst2|inst5~combout $end
$var wire 1 m inst|inst|inst2|inst2|inst4~q $end
$var wire 1 n DATA[0]~input_o $end
$var wire 1 o inst|inst|inst2|inst|inst4~q $end
$var wire 1 p inst|inst|inst4|inst3[0]~6_combout $end
$var wire 1 q inst|inst|inst4|inst3[0]~7_combout $end
$var wire 1 r inst|inst6|inst7|inst9~1_combout $end
$var wire 1 s inst|inst|inst1|inst|inst4~q $end
$var wire 1 t inst|inst6|inst7|inst|inst41|inst1|inst5~0_combout $end
$var wire 1 u inst|inst|inst2|inst1|inst4~q $end
$var wire 1 v inst|inst|inst|inst1|inst6~0_combout $end
$var wire 1 w DATA[1]~input_o $end
$var wire 1 x inst|inst|inst4|inst3[1]~8_combout $end
$var wire 1 y inst|inst|inst1|inst1|inst4~q $end
$var wire 1 z inst|inst|inst|inst1|inst~0_combout $end
$var wire 1 { inst|inst|inst|inst2|inst~0_combout $end
$var wire 1 | DATA[3]~input_o $end
$var wire 1 } inst|inst|inst2|inst3|inst4~q $end
$var wire 1 ~ DATA[2]~input_o $end
$var wire 1 !! inst|inst|inst4|inst3[2]~9_combout $end
$var wire 1 "! inst|inst|inst4|inst3[2]~10_combout $end
$var wire 1 #! inst|inst|inst1|inst2|inst4~q $end
$var wire 1 $! inst|inst|inst|inst2|inst~1_combout $end
$var wire 1 %! inst|inst|inst|inst3|inst6~combout $end
$var wire 1 &! inst|inst|inst4|inst3[3]~11_combout $end
$var wire 1 '! inst|inst|inst1|inst3|inst4~q $end
$var wire 1 (! inst|inst|inst|inst4|inst~0_combout $end
$var wire 1 )! DATA[4]~input_o $end
$var wire 1 *! inst|inst|inst|inst3|inst~0_combout $end
$var wire 1 +! inst|inst|inst4|inst3[4]~12_combout $end
$var wire 1 ,! inst|inst|inst4|inst3[4]~13_combout $end
$var wire 1 -! inst|inst|inst1|inst4|inst4~q $end
$var wire 1 .! inst|inst|inst|inst4|inst~1_combout $end
$var wire 1 /! inst|inst|inst|inst5|inst6~combout $end
$var wire 1 0! inst|inst|inst4|inst3[5]~14_combout $end
$var wire 1 1! inst|inst|inst1|inst5|inst4~q $end
$var wire 1 2! inst|inst|inst|inst5|inst~0_combout $end
$var wire 1 3! inst|inst|inst4|inst3[6]~4_combout $end
$var wire 1 4! inst|inst|inst4|inst3[6]~5_combout $end
$var wire 1 5! inst|inst|inst1|inst6|inst4~q $end
$var wire 1 6! DATA[7]~input_o $end
$var wire 1 7! inst|inst|inst|inst7|inst6~combout $end
$var wire 1 8! inst|inst|inst4|inst3[7]~15_combout $end
$var wire 1 9! inst|inst|inst1|inst7|inst4~q $end
$var wire 1 :! inst|inst|inst|inst7|inst~0_combout $end
$var wire 1 ;! inst|inst|inst4|inst3[8]~2_combout $end
$var wire 1 <! inst|inst|inst4|inst3[8]~3_combout $end
$var wire 1 =! inst|inst|inst1|inst8|inst4~q $end
$var wire 1 >! inst|inst|inst|inst9|inst6~combout $end
$var wire 1 ?! inst|inst|inst4|inst3[9]~16_combout $end
$var wire 1 @! inst|inst|inst1|inst9|inst4~q $end
$var wire 1 A! inst|inst|inst|inst9|inst~0_combout $end
$var wire 1 B! inst|inst|inst4|inst3[10]~0_combout $end
$var wire 1 C! DATA[10]~input_o $end
$var wire 1 D! inst|inst|inst4|inst3[10]~1_combout $end
$var wire 1 E! inst|inst|inst1|inst10|inst4~q $end
$var wire 1 F! DATA[11]~input_o $end
$var wire 1 G! inst|inst|inst4|inst3[11]~17_combout $end
$var wire 1 H! inst|inst|inst4|inst3[11]~18_combout $end
$var wire 1 I! inst|inst|inst1|inst11|inst4~q $end
$var wire 1 J! inst|inst|inst|inst11|inst~0_combout $end
$var wire 1 K! LOAD_F~input_o $end
$var wire 1 L! inst|inst6|inst3|inst3~0_combout $end
$var wire 1 M! inst|inst4|inst3|inst8|inst4~q $end
$var wire 1 N! inst|inst6|inst8|inst|inst11|inst9~0_combout $end
$var wire 1 O! inst|inst4|inst3|inst9|inst4~q $end
$var wire 1 P! inst|inst4|inst3|inst11|inst4~feeder_combout $end
$var wire 1 Q! inst|inst4|inst3|inst11|inst4~q $end
$var wire 1 R! inst|inst4|inst3|inst10|inst4~feeder_combout $end
$var wire 1 S! inst|inst4|inst3|inst10|inst4~q $end
$var wire 1 T! inst|inst6|inst8|inst|inst11|inst5~1_combout $end
$var wire 1 U! inst|inst6|inst8|inst6~13_combout $end
$var wire 1 V! inst|inst6|inst8|inst6~12_combout $end
$var wire 1 W! inst|inst4|inst3|inst7|inst4~q $end
$var wire 1 X! inst|inst6|inst8|inst|inst8|inst2~combout $end
$var wire 1 Y! inst|inst6|inst8|inst|inst11|inst5~2_combout $end
$var wire 1 Z! inst|inst4|inst3|inst6|inst4~q $end
$var wire 1 [! inst|inst4|inst3|inst5|inst4~q $end
$var wire 1 \! inst|inst6|inst8|inst|inst7|inst10~0_combout $end
$var wire 1 ]! inst|inst4|inst3|inst4|inst4~q $end
$var wire 1 ^! inst|inst6|inst8|inst|inst5|inst2~combout $end
$var wire 1 _! inst|inst4|inst3|inst2|inst4~q $end
$var wire 1 `! inst|inst4|inst3|inst1|inst4~q $end
$var wire 1 a! inst|inst4|inst3|inst|inst4~q $end
$var wire 1 b! inst|inst6|inst8|inst|inst7|inst10~1_combout $end
$var wire 1 c! inst|inst6|inst8|inst|inst7|inst10~2_combout $end
$var wire 1 d! inst|inst4|inst3|inst3|inst4~q $end
$var wire 1 e! inst|inst6|inst8|inst|inst7|inst10~3_combout $end
$var wire 1 f! inst|inst6|inst8|inst|inst7|inst10~4_combout $end
$var wire 1 g! inst|inst6|inst8|inst|inst7|inst10~5_combout $end
$var wire 1 h! inst|inst6|inst8|inst|inst11|inst9~1_combout $end
$var wire 1 i! inst|inst6|inst8|inst6~14_combout $end
$var wire 1 j! inst|inst6|inst3|inst2~0_combout $end
$var wire 1 k! inst|inst4|inst|inst6|inst4~q $end
$var wire 1 l! inst|inst4|inst|inst7|inst4~q $end
$var wire 1 m! inst|inst6|inst8|inst6~0_combout $end
$var wire 1 n! inst|inst4|inst|inst11|inst4~q $end
$var wire 1 o! inst|inst4|inst|inst10|inst4~q $end
$var wire 1 p! inst|inst6|inst8|inst6~1_combout $end
$var wire 1 q! inst|inst4|inst|inst4|inst4~q $end
$var wire 1 r! inst|inst4|inst|inst5|inst4~q $end
$var wire 1 s! inst|inst6|inst8|inst6~2_combout $end
$var wire 1 t! inst|inst4|inst|inst9|inst4~q $end
$var wire 1 u! inst|inst4|inst|inst8|inst4~q $end
$var wire 1 v! inst|inst6|inst8|inst6~3_combout $end
$var wire 1 w! inst|inst6|inst8|inst6~4_combout $end
$var wire 1 x! inst|inst4|inst|inst2|inst4~q $end
$var wire 1 y! inst|inst4|inst|inst3|inst4~q $end
$var wire 1 z! inst|inst6|inst8|inst6~5_combout $end
$var wire 1 {! inst|inst4|inst|inst|inst4~q $end
$var wire 1 |! inst|inst4|inst|inst1|inst4~q $end
$var wire 1 }! inst|inst6|inst8|inst6~6_combout $end
$var wire 1 ~! inst|inst6|inst8|inst6~7_combout $end
$var wire 1 !" inst|inst6|inst8|inst|inst11|inst5~0_combout $end
$var wire 1 "" inst|inst6|inst8|inst6~9_combout $end
$var wire 1 #" inst|inst6|inst8|inst6~8_combout $end
$var wire 1 $" inst|inst6|inst8|inst|inst7|inst4~6_combout $end
$var wire 1 %" inst|inst6|inst8|inst|inst7|inst4~0_combout $end
$var wire 1 &" inst|inst6|inst8|inst|inst7|inst4~1_combout $end
$var wire 1 '" inst|inst6|inst8|inst|inst7|inst4~2_combout $end
$var wire 1 (" inst|inst6|inst8|inst|inst7|inst4~3_combout $end
$var wire 1 )" inst|inst6|inst8|inst|inst7|inst4~4_combout $end
$var wire 1 *" inst|inst6|inst8|inst|inst7|inst4~5_combout $end
$var wire 1 +" inst|inst6|inst8|inst|inst11|inst5~3_combout $end
$var wire 1 ," inst|inst6|inst8|inst6~10_combout $end
$var wire 1 -" inst|inst6|inst8|inst6~11_combout $end
$var wire 1 ." inst|inst6|inst8|inst6~15_combout $end
$var wire 1 /" inst|inst6|inst6|inst|inst40~0_combout $end
$var wire 1 0" inst|inst6|inst6|inst|inst51~0_combout $end
$var wire 1 1" START~input_o $end
$var wire 1 2" inst|inst6|inst1|inst4~0_combout $end
$var wire 1 3" inst|inst6|inst1|inst4~1_combout $end
$var wire 1 4" inst|inst6|inst1|inst|inst7|inst10~5_combout $end
$var wire 1 5" inst|inst6|inst1|inst|inst7|inst4~4_combout $end
$var wire 1 6" inst|inst6|inst1|inst|inst7|inst4~0_combout $end
$var wire 1 7" inst|inst6|inst1|inst|inst7|inst4~1_combout $end
$var wire 1 8" inst|inst6|inst1|inst|inst7|inst4~2_combout $end
$var wire 1 9" inst|inst6|inst1|inst|inst7|inst4~3_combout $end
$var wire 1 :" inst|inst6|inst1|inst|inst7|inst4~5_combout $end
$var wire 1 ;" inst|inst6|inst1|inst|inst7|inst10~0_combout $end
$var wire 1 <" inst|inst6|inst1|inst|inst7|inst10~1_combout $end
$var wire 1 =" inst|inst6|inst1|inst|inst7|inst10~2_combout $end
$var wire 1 >" inst|inst6|inst1|inst|inst7|inst10~3_combout $end
$var wire 1 ?" inst|inst6|inst1|inst|inst7|inst10~4_combout $end
$var wire 1 @" inst|inst6|inst1|inst4~4_combout $end
$var wire 1 A" inst|inst6|inst1|inst4~5_combout $end
$var wire 1 B" inst|inst6|inst1|inst4~2_combout $end
$var wire 1 C" inst|inst6|inst1|inst4~3_combout $end
$var wire 1 D" inst|inst6|inst6|inst|inst40~2_combout $end
$var wire 1 E" inst|inst6|inst6|inst|inst51~1_combout $end
$var wire 1 F" inst|inst6|inst6|inst1|inst1~q $end
$var wire 1 G" inst|inst6|inst6|inst|inst40~4_combout $end
$var wire 1 H" inst|inst6|inst6|inst|inst40~5_combout $end
$var wire 1 I" inst|inst6|inst6|inst|inst40~1_combout $end
$var wire 1 J" inst|inst6|inst6|inst|inst~2_combout $end
$var wire 1 K" inst|inst6|inst6|inst|inst40~3_combout $end
$var wire 1 L" inst|inst6|inst6|inst|inst40~6_combout $end
$var wire 1 M" inst|inst6|inst6|inst1|inst~q $end
$var wire 1 N" inst|inst6|inst6|inst|inst60~0_combout $end
$var wire 1 O" inst|inst6|inst6|inst|inst60~1_combout $end
$var wire 1 P" inst|inst6|inst6|inst|inst52~0_combout $end
$var wire 1 Q" inst|inst6|inst6|inst|inst60~2_combout $end
$var wire 1 R" inst|inst6|inst6|inst1|inst2~q $end
$var wire 1 S" inst|inst6|inst7|inst6~0_combout $end
$var wire 1 T" inst|inst4|inst2[11]~12_combout $end
$var wire 1 U" inst|inst4|inst2[11]~13_combout $end
$var wire 1 V" inst|inst4|inst2[10]~14_combout $end
$var wire 1 W" inst|inst4|inst2[9]~15_combout $end
$var wire 1 X" inst|inst4|inst2[8]~16_combout $end
$var wire 1 Y" inst|inst4|inst2[7]~17_combout $end
$var wire 1 Z" inst|inst4|inst2[6]~18_combout $end
$var wire 1 [" inst|inst4|inst2[5]~24_combout $end
$var wire 1 \" inst|inst4|inst2[4]~23_combout $end
$var wire 1 ]" inst|inst4|inst2[3]~22_combout $end
$var wire 1 ^" inst|inst4|inst2[2]~21_combout $end
$var wire 1 _" inst|inst4|inst2[1]~20_combout $end
$var wire 1 `" inst|inst4|inst2[0]~19_combout $end
$var wire 1 a" inst|inst6|inst6|inst|inst~0_combout $end
$var wire 1 b" inst|inst6|inst4|inst4~0_combout $end
$var wire 1 c" inst|inst6|inst4|inst2~0_combout $end
$upscope $end
$upscope $end
$enddefinitions $end
#0
$dumpvars
b1 !
0"
1#
b1 $
0%
1&
0'
0(
0)
15
04
03
02
01
00
0/
0.
0-
0,
0+
0*
06
07
18
19
1:
0;
0<
x=
0>
1?
x@
1A
1B
1C
zD
zE
zF
zG
zH
zI
zJ
zK
zL
zM
zN
zO
0P
0Q
0R
1S
1T
0U
1V
0W
0X
1Y
0Z
1[
0\
1]
1^
0_
1`
0a
0b
0c
0d
0e
0f
1g
0h
0i
0j
0k
0l
0m
1n
0o
1p
1q
1r
0s
0t
0u
0v
0w
0x
0y
0z
0{
0|
0}
0~
1!!
0"!
0#!
0$!
0%!
0&!
0'!
0(!
0)!
0*!
1+!
0,!
0-!
0.!
0/!
00!
01!
02!
13!
04!
05!
06!
07!
08!
09!
0:!
1;!
0<!
0=!
0>!
0?!
0@!
0A!
1B!
0C!
0D!
0E!
0F!
0G!
0H!
0I!
0J!
0K!
0L!
0M!
0N!
0O!
0P!
0Q!
0R!
0S!
1T!
1U!
1V!
0W!
0X!
1Y!
0Z!
0[!
0\!
0]!
0^!
0_!
0`!
0a!
1b!
1c!
0d!
1e!
1f!
1g!
1h!
1i!
1j!
0k!
0l!
1m!
0n!
0o!
1p!
0q!
0r!
1s!
0t!
0u!
1v!
1w!
0x!
0y!
1z!
0{!
0|!
1}!
1~!
0!"
1""
1#"
0$"
1%"
0&"
0'"
0("
0)"
0*"
0+"
1,"
1-"
1."
0/"
00"
01"
02"
03"
04"
05"
06"
07"
08"
09"
0:"
0;"
0<"
0="
0>"
0?"
0@"
0A"
0B"
0C"
0D"
0E"
0F"
0G"
1H"
0I"
0J"
0K"
0L"
0M"
0N"
0O"
0P"
0Q"
0R"
0S"
1T"
0U"
1V"
1W"
1X"
1Y"
1Z"
1["
1\"
1]"
1^"
1_"
1`"
0a"
0b"
1c"
$end
#10000
1"
1W
1X
0=
1{!
1s
1o
1;"
0}!
1v
1<"
0~!
1="
0-"
1>"
0."
1?"
0S
08
1@"
1A"
1B"
1C"
#20000
b101 $
0&
1%
0"
13
1~
0]
1K!
0W
0X
1=
1"!
0j!
0^
1L!
1H!
1D!
1?!
1<!
18!
14!
10!
1,!
1&!
1x
0r
0V
0:
#30000
1"
1W
1X
0=
1a!
1_!
0;"
1}!
0b!
0<"
18"
0z!
0c!
0="
19"
0e!
0>"
1:"
0f!
0?"
0g!
0@"
0h!
0A"
0B"
0C"
#40000
bz00000000101 $
bz0000000101 $
bz000000101 $
bz00000101 $
bz0000101 $
bz000101 $
bz00101 $
bz0101 $
bz101 $
bz1z1 $
bz1zz $
1(
bz $
0%
0"
z5
z4
z3
z2
z1
z0
z/
z.
z-
z,
z+
z*
zn
zw
z~
z|
z)!
zk
zj
z6!
zi
z_
zC!
zF!
11"
0K!
0W
0X
1=
x&"
xb!
x'"
xe!
xf!
x^!
x\!
x%"
xg!
xh!
xX!
xN!
xY!
xU!
xV!
xT!
xR!
xP!
1O"
1D"
0L!
xc!
x("
1K"
1E"
x)"
1L"
x*"
x+"
x,"
#50000
1"
1W
1X
0=
1M"
1F"
0[
1/"
0p
1\
1U"
1S"
1r
0D"
x-"
0q
0H!
0B!
0?!
0;!
08!
03!
00!
0+!
0&!
0!!
1O
1N
1M
1L
1K
1J
1I
1H
1G
1F
1E
1D
1U
1V
15
14
13
12
11
10
1/
1.
1-
1,
1+
1*
1;
1:
0_"
0^"
0]"
0\"
0["
0Z"
0Y"
0X"
0W"
0V"
0T"
0K"
0D!
0<!
04!
0,!
0"!
1n
1w
1~
1|
1)!
1k
1j
16!
1i
1_
1C!
1F!
0N
0M
0L
0K
0J
0I
0H
0G
0F
0E
0D
04
03
02
01
00
0/
0.
0-
0,
0+
0*
x."
0&"
1b!
0("
1e!
0)"
1^!
1\!
0%"
1g!
1X!
1N!
0Y!
0V!
0T!
1R!
1P!
0w
0~
0|
0)!
0k
0j
06!
0i
0_
0C!
0F!
xQ"
xE"
xS
x8
xr
1'"
0c!
0f!
0*"
0h!
1U!
0+"
0b!
x("
xe!
0^!
0\!
1%"
0X!
0N!
1V!
1T!
0R!
0P!
xV
x:
1("
0e!
0g!
1,"
x)"
xf!
1Y!
1)"
0f!
1-"
x*"
xg!
1*"
0g!
x+"
xh!
1."
1+"
0h!
x,"
1Q"
0E"
1S
18
0r
0,"
x-"
0V
0:
0-"
x."
xQ"
xE"
xS
x8
0."
xr
0Q"
1E"
0S
xV
08
x:
1r
1V
1:
#60000
0(
0"
01"
0W
0X
1=
#70000
1"
1W
1X
0=
1y
0s
1p
1_"
0`"
1q
1N
0O
14
05
1w
0n
1b!
#80000
0"
0W
0X
1=
#90000
1"
1W
1X
0=
1s
1z
0v
0p
1`"
1!!
0x
0q
1O
15
1"!
1n
#100000
0"
0W
0X
1=
#110000
1"
1W
1X
0=
1#!
0y
0s
1$!
0!!
0z
1p
1^"
0_"
0`"
1%!
0"!
0$!
1!!
1q
1M
0N
0O
13
04
05
1&!
0%!
1"!
1~
0w
0n
0&!
0'"
1c!
1&"
0b!
0("
1e!
1'"
0c!
0)"
1f!
1("
0e!
0*"
1g!
1)"
0f!
0+"
1h!
1*"
0g!
1,"
1+"
0h!
1-"
0,"
0-"
1."
1Q"
0E"
1S
18
0."
0r
0Q"
1E"
0S
0V
08
0:
1r
1V
1:
#120000
0"
0W
0X
1=
#130000
1"
1W
1X
0=
1s
1v
0p
1`"
1x
0q
1O
15
1n
0&"
0'"
0("
0)"
0*"
0+"
1,"
1-"
1."
1Q"
0E"
1S
18
0r
0V
0:
#140000
0"
0W
0X
1=
#150000
1"
1W
1X
0=
1R"
0F"
1N"
1G"
10"
0/"
1p
0\
0L"
1b"
1L"
1E"
0O"
1q
1H!
1D!
1B!
1?!
1<!
1;!
18!
14!
13!
10!
1,!
1+!
1&!
1Q
17
#160000
0"
0W
0X
1=
#170000
1"
1W
1X
0=
1F"
0N"
0L"
1J"
1^
0b"
0S"
0g
0Q"
1K"
0H!
0D!
0?!
0<!
08!
04!
00!
0,!
0&!
0x
0Q
0U
0T
07
0;
09
0^"
1r
1L"
0M
1V
03
1:
0~
1'"
0"!
1("
1)"
1*"
1+"
0,"
0-"
0."
0S
08
#180000
0"
0W
0X
1=
#190000
1"
1W
1X
0=
0R"
0#!
0J"
0G"
00"
1/"
0p
0^
1\
1S"
1g
0K"
1O"
0q
1D!
1<!
14!
1,!
1"!
1x
0B!
0;!
03!
0+!
0!!
1U
1T
1;
19
0D!
0<!
04!
0,!
0"!
#200000
0"
0W
0X
1=
#210000
1"
1W
1X
0=
1y
0s
1p
1_"
0`"
1q
1N
0O
14
05
1w
0n
1b!
#220000
0"
0W
0X
1=
#230000
1"
1W
1X
0=
1s
1z
0v
0p
1`"
1!!
0x
0q
1O
15
1"!
1n
#240000
0"
0W
0X
1=
#250000
1"
1W
1X
0=
1#!
0y
0s
1$!
0!!
0z
1p
1^"
0_"
0`"
1%!
0"!
0$!
1!!
1q
1M
0N
0O
13
04
05
1&!
0%!
1"!
1~
0w
0n
0&!
0'"
1c!
1&"
0b!
0("
1e!
1'"
0c!
0)"
1f!
1("
0e!
0*"
1g!
1)"
0f!
0+"
1h!
1*"
0g!
1,"
1+"
0h!
1-"
0,"
0-"
1."
1Q"
0E"
1S
18
0."
0r
0Q"
1E"
0S
0V
08
0:
1r
1V
1:
#260000
0"
0W
0X
1=
#270000
1"
1W
1X
0=
1s
1v
0p
1`"
1x
0q
1O
15
1n
0&"
0'"
0("
0)"
0*"
0+"
1,"
1-"
1."
1Q"
0E"
1S
18
0r
0V
0:
#280000
0"
0W
0X
1=
#290000
1"
1W
1X
0=
1R"
0F"
1N"
1G"
10"
0/"
1p
0\
0L"
1b"
1L"
1E"
0O"
1q
1H!
1D!
1B!
1?!
1<!
1;!
18!
14!
13!
10!
1,!
1+!
1&!
1Q
17
#300000
0"
0W
0X
1=
#310000
1"
1W
1X
0=
1F"
0N"
0L"
1J"
1^
0b"
0S"
0g
0Q"
1K"
0H!
0D!
0?!
0<!
08!
04!
00!
0,!
0&!
0x
0Q
0U
0T
07
0;
09
0^"
1r
1L"
0M
1V
03
1:
0~
1'"
0"!
1("
1)"
1*"
1+"
0,"
0-"
0."
0S
08
#320000
0"
0W
0X
1=
#330000
1"
1W
1X
0=
0R"
0#!
0J"
0G"
00"
1/"
0p
0^
1\
1S"
1g
0K"
1O"
0q
1D!
1<!
14!
1,!
1"!
1x
0B!
0;!
03!
0+!
0!!
1U
1T
1;
19
0D!
0<!
04!
0,!
0"!
#340000
0"
0W
0X
1=
#350000
1"
1W
1X
0=
1y
0s
1p
1_"
0`"
1q
1N
0O
14
05
1w
0n
1b!
#360000
0"
0W
0X
1=
#370000
1"
1W
1X
0=
1s
1z
0v
0p
1`"
1!!
0x
0q
1O
15
1"!
1n
#380000
0"
0W
0X
1=
#390000
1"
1W
1X
0=
1#!
0y
0s
1$!
0!!
0z
1p
1^"
0_"
0`"
1%!
0"!
0$!
1!!
1q
1M
0N
0O
13
04
05
1&!
0%!
1"!
1~
0w
0n
0&!
0'"
1c!
1&"
0b!
0("
1e!
1'"
0c!
0)"
1f!
1("
0e!
0*"
1g!
1)"
0f!
0+"
1h!
1*"
0g!
1,"
1+"
0h!
1-"
0,"
0-"
1."
1Q"
0E"
1S
18
0."
0r
0Q"
1E"
0S
0V
08
0:
1r
1V
1:
#400000
0"
0W
0X
1=
#410000
1"
1W
1X
0=
1s
1v
0p
1`"
1x
0q
1O
15
1n
0&"
0'"
0("
0)"
0*"
0+"
1,"
1-"
1."
1Q"
0E"
1S
18
0r
0V
0:
#420000
0"
0W
0X
1=
#430000
1"
1W
1X
0=
1R"
0F"
1N"
1G"
10"
0/"
1p
0\
0L"
1b"
1L"
1E"
0O"
1q
1H!
1D!
1B!
1?!
1<!
1;!
18!
14!
13!
10!
1,!
1+!
1&!
1Q
17
#440000
0"
0W
0X
1=
#450000
1"
1W
1X
0=
1F"
0N"
0L"
1J"
1^
0b"
0S"
0g
0Q"
1K"
0H!
0D!
0?!
0<!
08!
04!
00!
0,!
0&!
0x
0Q
0U
0T
07
0;
09
0^"
1r
1L"
0M
1V
03
1:
0~
1'"
0"!
1("
1)"
1*"
1+"
0,"
0-"
0."
0S
08
#460000
0"
0W
0X
1=
#470000
1"
1W
1X
0=
0R"
0#!
0J"
0G"
00"
1/"
0p
0^
1\
1S"
1g
0K"
1O"
0q
1D!
1<!
14!
1,!
1"!
1x
0B!
0;!
03!
0+!
0!!
1U
1T
1;
19
0D!
0<!
04!
0,!
0"!
#480000
0"
0W
0X
1=
#490000
1"
1W
1X
0=
1y
0s
1p
1_"
0`"
1q
1N
0O
14
05
1w
0n
1b!
#500000
0"
0W
0X
1=
#510000
1"
1W
1X
0=
1s
1z
0v
0p
1`"
1!!
0x
0q
1O
15
1"!
1n
#520000
0"
0W
0X
1=
#530000
1"
1W
1X
0=
1#!
0y
0s
1$!
0!!
0z
1p
1^"
0_"
0`"
1%!
0"!
0$!
1!!
1q
1M
0N
0O
13
04
05
1&!
0%!
1"!
1~
0w
0n
0&!
0'"
1c!
1&"
0b!
0("
1e!
1'"
0c!
0)"
1f!
1("
0e!
0*"
1g!
1)"
0f!
0+"
1h!
1*"
0g!
1,"
1+"
0h!
1-"
0,"
0-"
1."
1Q"
0E"
1S
18
0."
0r
0Q"
1E"
0S
0V
08
0:
1r
1V
1:
#540000
0"
0W
0X
1=
#550000
1"
1W
1X
0=
1s
1v
0p
1`"
1x
0q
1O
15
1n
0&"
0'"
0("
0)"
0*"
0+"
1,"
1-"
1."
1Q"
0E"
1S
18
0r
0V
0:
#560000
0"
0W
0X
1=
#570000
1"
1W
1X
0=
1R"
0F"
1N"
1G"
10"
0/"
1p
0\
0L"
1b"
1L"
1E"
0O"
1q
1H!
1D!
1B!
1?!
1<!
1;!
18!
14!
13!
10!
1,!
1+!
1&!
1Q
17
#580000
0"
0W
0X
1=
#590000
1"
1W
1X
0=
1F"
0N"
0L"
1J"
1^
0b"
0S"
0g
0Q"
1K"
0H!
0D!
0?!
0<!
08!
04!
00!
0,!
0&!
0x
0Q
0U
0T
07
0;
09
0^"
1r
1L"
0M
1V
03
1:
0~
1'"
0"!
1("
1)"
1*"
1+"
0,"
0-"
0."
0S
08
#600000
0"
0W
0X
1=
#610000
1"
1W
1X
0=
0R"
0#!
0J"
0G"
00"
1/"
0p
0^
1\
1S"
1g
0K"
1O"
0q
1D!
1<!
14!
1,!
1"!
1x
0B!
0;!
03!
0+!
0!!
1U
1T
1;
19
0D!
0<!
04!
0,!
0"!
#620000
0"
0W
0X
1=
#630000
1"
1W
1X
0=
1y
0s
1p
1_"
0`"
1q
1N
0O
14
05
1w
0n
1b!
#640000
0"
0W
0X
1=
#650000
1"
1W
1X
0=
1s
1z
0v
0p
1`"
1!!
0x
0q
1O
15
1"!
1n
#660000
0"
0W
0X
1=
#670000
1"
1W
1X
0=
1#!
0y
0s
1$!
0!!
0z
1p
1^"
0_"
0`"
1%!
0"!
0$!
1!!
1q
1M
0N
0O
13
04
05
1&!
0%!
1"!
1~
0w
0n
0&!
0'"
1c!
1&"
0b!
0("
1e!
1'"
0c!
0)"
1f!
1("
0e!
0*"
1g!
1)"
0f!
0+"
1h!
1*"
0g!
1,"
1+"
0h!
1-"
0,"
0-"
1."
1Q"
0E"
1S
18
0."
0r
0Q"
1E"
0S
0V
08
0:
1r
1V
1:
#680000
0"
0W
0X
1=
#690000
1"
1W
1X
0=
1s
1v
0p
1`"
1x
0q
1O
15
1n
0&"
0'"
0("
0)"
0*"
0+"
1,"
1-"
1."
1Q"
0E"
1S
18
0r
0V
0:
#700000
0"
0W
0X
1=
#710000
1"
1W
1X
0=
1R"
0F"
1N"
1G"
10"
0/"
1p
0\
0L"
1b"
1L"
1E"
0O"
1q
1H!
1D!
1B!
1?!
1<!
1;!
18!
14!
13!
10!
1,!
1+!
1&!
1Q
17
#720000
0"
0W
0X
1=
#730000
1"
1W
1X
0=
1F"
0N"
0L"
1J"
1^
0b"
0S"
0g
0Q"
1K"
0H!
0D!
0?!
0<!
08!
04!
00!
0,!
0&!
0x
0Q
0U
0T
07
0;
09
0^"
1r
1L"
0M
1V
03
1:
0~
1'"
0"!
1("
1)"
1*"
1+"
0,"
0-"
0."
0S
08
#740000
0"
0W
0X
1=
#750000
1"
1W
1X
0=
0R"
0#!
0J"
0G"
00"
1/"
0p
0^
1\
1S"
1g
0K"
1O"
0q
1D!
1<!
14!
1,!
1"!
1x
0B!
0;!
03!
0+!
0!!
1U
1T
1;
19
0D!
0<!
04!
0,!
0"!
#760000
0"
0W
0X
1=
#770000
1"
1W
1X
0=
1y
0s
1p
1_"
0`"
1q
1N
0O
14
05
1w
0n
1b!
#780000
0"
0W
0X
1=
