TEI_GRUPO17/ProyectoQuartus/simulation/qsim/TEI_GRUPO17.msim.vcd
$comment
	File created using the following command:
		vcd file TEI_GRUPO17.msim.vcd -direction
$end
$date
	Fri Aug 01 04:49:19 2025
$end
$version
	ModelSim Version 10.1d
$end
$timescale
	1ps
$end
$scope module circuito_principal_bloque_vlg_vec_tst $end
$var reg 3 ! b [2:0] $end
$var reg 1 " CLK $end
$var reg 1 # CONTINUAR $end
$var reg 12 $ treg_DATA [11:0] $end
$var reg 1 % LOAD_F $end
$var reg 1 & LOAD_I $end
$var reg 1 ' RECARGAR $end
$var reg 1 ( START $end
$var reg 1 ) UP_DOWN $end
$var wire 1 * DATA [11] $end
$var wire 1 + DATA [10] $end
$var wire 1 , DATA [9] $end
$var wire 1 - DATA [8] $end
$var wire 1 . DATA [7] $end
$var wire 1 / DATA [6] $end
$var wire 1 0 DATA [5] $end
$var wire 1 1 DATA [4] $end
$var wire 1 2 DATA [3] $end
$var wire 1 3 DATA [2] $end
$var wire 1 4 DATA [1] $end
$var wire 1 5 DATA [0] $end
$var wire 1 6 ERROR $end
$var wire 1 7 FIN $end
$var wire 1 8 PAUSA $end
$var wire 1 9 sampler $end
$scope module i1 $end
$var wire 1 : gnd $end
$var wire 1 ; vcc $end
$var wire 1 < unknown $end
$var tri1 1 = devclrn $end
$var tri1 1 > devpor $end
$var tri1 1 ? devoe $end
$var wire 1 @ DATA[11]~output_o $end
$var wire 1 A DATA[10]~output_o $end
$var wire 1 B DATA[9]~output_o $end
$var wire 1 C DATA[8]~output_o $end
$var wire 1 D DATA[7]~output_o $end
$var wire 1 E DATA[6]~output_o $end
$var wire 1 F DATA[5]~output_o $end
$var wire 1 G DATA[4]~output_o $end
$var wire 1 H DATA[3]~output_o $end
$var wire 1 I DATA[2]~output_o $end
$var wire 1 J DATA[1]~output_o $end
$var wire 1 K DATA[0]~output_o $end
$var wire 1 L ERROR~output_o $end
$var wire 1 M FIN~output_o $end
$var wire 1 N PAUSA~output_o $end
$var wire 1 O CLK~input_o $end
$var wire 1 P CLK~inputclkctrl_outclk $end
$var wire 1 Q CONTINUAR~input_o $end
$var wire 1 R inst|inst4|inst6|inst|inst40~0_combout $end
$var wire 1 S b[2]~input_o $end
$var wire 1 T b[1]~input_o $end
$var wire 1 U b[0]~input_o $end
$var wire 1 V inst|inst4|inst|inst3~combout $end
$var wire 1 W RECARGAR~input_o $end
$var wire 1 X inst|inst4|inst6|inst|inst40~1_combout $end
$var wire 1 Y inst|inst4|inst6|inst|inst31~0_combout $end
$var wire 1 Z DATA[10]~input_o $end
$var wire 1 [ DATA[11]~input_o $end
$var wire 1 \ LOAD_F~input_o $end
$var wire 1 ] inst|inst4|inst3|inst3~0_combout $end
$var wire 1 ^ inst|inst2|inst3|inst10|inst4~q $end
$var wire 1 _ inst|inst2|inst3|inst11|inst4~q $end
$var wire 1 ` inst|inst4|inst11|inst6~12_combout $end
$var wire 1 a inst|inst4|inst6|inst|inst~1_combout $end
$var wire 1 b UP_DOWN~input_o $end
$var wire 1 c inst|inst4|inst5|inst4~0_combout $end
$var wire 1 d inst|inst4|inst5|inst4~q $end
$var wire 1 e DATA[9]~input_o $end
$var wire 1 f DATA[8]~input_o $end
$var wire 1 g inst|inst2|inst3|inst8|inst4~q $end
$var wire 1 h inst|inst4|inst11|inst|inst11|inst9~0_combout $end
$var wire 1 i inst|inst2|inst3|inst9|inst4~q $end
$var wire 1 j inst|inst4|inst11|inst|inst11|inst5~1_combout $end
$var wire 1 k inst|inst4|inst11|inst6~13_combout $end
$var wire 1 l DATA[7]~input_o $end
$var wire 1 m inst|inst2|inst3|inst7|inst4~q $end
$var wire 1 n inst|inst4|inst11|inst|inst8|inst2~combout $end
$var wire 1 o inst|inst4|inst11|inst|inst11|inst5~2_combout $end
$var wire 1 p DATA[6]~input_o $end
$var wire 1 q inst|inst2|inst3|inst6|inst4~q $end
$var wire 1 r DATA[5]~input_o $end
$var wire 1 s inst|inst2|inst3|inst5|inst4~q $end
$var wire 1 t inst|inst4|inst11|inst|inst7|inst10~0_combout $end
$var wire 1 u DATA[4]~input_o $end
$var wire 1 v inst|inst2|inst3|inst4|inst4~q $end
$var wire 1 w inst|inst4|inst11|inst|inst5|inst2~combout $end
$var wire 1 x DATA[3]~input_o $end
$var wire 1 y inst|inst2|inst3|inst3|inst4~q $end
$var wire 1 z DATA[2]~input_o $end
$var wire 1 { inst|inst2|inst3|inst2|inst4~q $end
$var wire 1 | DATA[1]~input_o $end
$var wire 1 } inst|inst2|inst3|inst1|inst4~q $end
$var wire 1 ~ DATA[0]~input_o $end
$var wire 1 !! inst|inst2|inst3|inst|inst4~q $end
$var wire 1 "! inst|inst4|inst11|inst|inst7|inst10~1_combout $end
$var wire 1 #! inst|inst4|inst11|inst|inst7|inst10~2_combout $end
$var wire 1 $! inst|inst4|inst11|inst|inst7|inst10~3_combout $end
$var wire 1 %! inst|inst4|inst11|inst|inst7|inst10~4_combout $end
$var wire 1 &! inst|inst4|inst11|inst|inst7|inst10~5_combout $end
$var wire 1 '! inst|inst4|inst11|inst|inst11|inst9~1_combout $end
$var wire 1 (! inst|inst4|inst11|inst6~14_combout $end
$var wire 1 )! inst|inst4|inst4|inst|inst41|inst4|inst5~0_combout $end
$var wire 1 *! inst|inst4|inst4|inst15~0_combout $end
$var wire 1 +! inst|inst|inst2|inst10|inst4~q $end
$var wire 1 ,! LOAD_I~input_o $end
$var wire 1 -! inst|inst4|inst4|inst11~0_combout $end
$var wire 1 .! inst|inst4|inst4|inst|inst41|inst2|inst5~combout $end
$var wire 1 /! inst|inst|inst2|inst2|inst4~q $end
$var wire 1 0! inst|inst|inst2|inst|inst4~q $end
$var wire 1 1! inst|inst|inst4|inst3[0]~6_combout $end
$var wire 1 2! inst|inst|inst4|inst3[0]~7_combout $end
$var wire 1 3! inst|inst4|inst4|inst21~0_combout $end
$var wire 1 4! inst|inst4|inst3|inst2~0_combout $end
$var wire 1 5! inst|inst2|inst|inst2|inst4~q $end
$var wire 1 6! inst|inst2|inst|inst3|inst4~feeder_combout $end
$var wire 1 7! inst|inst2|inst|inst3|inst4~q $end
$var wire 1 8! inst|inst4|inst11|inst6~5_combout $end
$var wire 1 9! inst|inst2|inst|inst|inst4~q $end
$var wire 1 :! inst|inst2|inst|inst1|inst4~q $end
$var wire 1 ;! inst|inst4|inst11|inst6~6_combout $end
$var wire 1 <! inst|inst2|inst|inst5|inst4~q $end
$var wire 1 =! inst|inst2|inst|inst4|inst4~feeder_combout $end
$var wire 1 >! inst|inst2|inst|inst4|inst4~q $end
$var wire 1 ?! inst|inst4|inst11|inst6~2_combout $end
$var wire 1 @! inst|inst2|inst|inst11|inst4~q $end
$var wire 1 A! inst|inst2|inst|inst10|inst4~q $end
$var wire 1 B! inst|inst4|inst11|inst6~0_combout $end
$var wire 1 C! inst|inst2|inst|inst8|inst4~q $end
$var wire 1 D! inst|inst2|inst|inst9|inst4~q $end
$var wire 1 E! inst|inst4|inst11|inst6~3_combout $end
$var wire 1 F! inst|inst2|inst|inst7|inst4~q $end
$var wire 1 G! inst|inst2|inst|inst6|inst4~q $end
$var wire 1 H! inst|inst4|inst11|inst6~1_combout $end
$var wire 1 I! inst|inst4|inst11|inst6~4_combout $end
$var wire 1 J! inst|inst4|inst11|inst6~7_combout $end
$var wire 1 K! inst|inst4|inst11|inst6~8_combout $end
$var wire 1 L! inst|inst4|inst11|inst|inst11|inst5~0_combout $end
$var wire 1 M! inst|inst4|inst11|inst6~9_combout $end
$var wire 1 N! inst|inst4|inst11|inst|inst7|inst4~6_combout $end
$var wire 1 O! inst|inst4|inst11|inst|inst7|inst4~0_combout $end
$var wire 1 P! inst|inst4|inst11|inst|inst7|inst4~1_combout $end
$var wire 1 Q! inst|inst4|inst11|inst|inst7|inst4~2_combout $end
$var wire 1 R! inst|inst4|inst11|inst|inst7|inst4~3_combout $end
$var wire 1 S! inst|inst4|inst11|inst|inst7|inst4~4_combout $end
$var wire 1 T! inst|inst4|inst11|inst|inst7|inst4~5_combout $end
$var wire 1 U! inst|inst4|inst11|inst|inst11|inst5~3_combout $end
$var wire 1 V! inst|inst4|inst11|inst6~10_combout $end
$var wire 1 W! inst|inst4|inst11|inst6~11_combout $end
$var wire 1 X! inst|inst4|inst4|inst21~1_combout $end
$var wire 1 Y! inst|inst4|inst4|inst21~2_combout $end
$var wire 1 Z! inst|inst|inst1|inst|inst4~q $end
$var wire 1 [! inst|inst4|inst4|inst|inst41|inst1|inst5~0_combout $end
$var wire 1 \! inst|inst|inst2|inst1|inst4~q $end
$var wire 1 ]! inst|inst|inst|inst1|inst6~0_combout $end
$var wire 1 ^! inst|inst|inst4|inst3[1]~8_combout $end
$var wire 1 _! inst|inst|inst1|inst1|inst4~q $end
$var wire 1 `! inst|inst|inst|inst1|inst~0_combout $end
$var wire 1 a! inst|inst|inst4|inst3[2]~9_combout $end
$var wire 1 b! inst|inst|inst4|inst3[2]~10_combout $end
$var wire 1 c! inst|inst|inst1|inst2|inst4~q $end
$var wire 1 d! inst|inst|inst|inst2|inst~1_combout $end
$var wire 1 e! inst|inst|inst|inst2|inst~0_combout $end
$var wire 1 f! inst|inst|inst2|inst3|inst4~q $end
$var wire 1 g! inst|inst|inst|inst3|inst6~combout $end
$var wire 1 h! inst|inst|inst4|inst3[3]~11_combout $end
$var wire 1 i! inst|inst|inst1|inst3|inst4~q $end
$var wire 1 j! inst|inst|inst|inst4|inst~0_combout $end
$var wire 1 k! inst|inst|inst|inst3|inst~0_combout $end
$var wire 1 l! inst|inst|inst4|inst3[4]~12_combout $end
$var wire 1 m! inst|inst|inst4|inst3[4]~13_combout $end
$var wire 1 n! inst|inst|inst1|inst4|inst4~q $end
$var wire 1 o! inst|inst|inst|inst4|inst~1_combout $end
$var wire 1 p! inst|inst|inst|inst5|inst6~combout $end
$var wire 1 q! inst|inst|inst4|inst3[5]~14_combout $end
$var wire 1 r! inst|inst|inst1|inst5|inst4~q $end
$var wire 1 s! inst|inst|inst|inst5|inst~0_combout $end
$var wire 1 t! inst|inst|inst4|inst3[6]~4_combout $end
$var wire 1 u! inst|inst|inst4|inst3[6]~5_combout $end
$var wire 1 v! inst|inst|inst1|inst6|inst4~q $end
$var wire 1 w! inst|inst|inst|inst7|inst6~combout $end
$var wire 1 x! inst|inst|inst4|inst3[7]~15_combout $end
$var wire 1 y! inst|inst|inst1|inst7|inst4~q $end
$var wire 1 z! inst|inst|inst|inst7|inst~0_combout $end
$var wire 1 {! inst|inst|inst4|inst3[8]~2_combout $end
$var wire 1 |! inst|inst|inst4|inst3[8]~3_combout $end
$var wire 1 }! inst|inst|inst1|inst8|inst4~q $end
$var wire 1 ~! inst|inst|inst|inst9|inst6~combout $end
$var wire 1 !" inst|inst|inst4|inst3[9]~16_combout $end
$var wire 1 "" inst|inst|inst1|inst9|inst4~q $end
$var wire 1 #" inst|inst|inst|inst9|inst~0_combout $end
$var wire 1 $" inst|inst|inst4|inst3[10]~0_combout $end
$var wire 1 %" inst|inst|inst4|inst3[10]~1_combout $end
$var wire 1 &" inst|inst|inst1|inst10|inst4~q $end
$var wire 1 '" inst|inst|inst4|inst3[11]~17_combout $end
$var wire 1 (" inst|inst|inst4|inst3[11]~18_combout $end
$var wire 1 )" inst|inst|inst1|inst11|inst4~q $end
$var wire 1 *" inst|inst|inst|inst11|inst~0_combout $end
$var wire 1 +" inst|inst4|inst11|inst6~15_combout $end
$var wire 1 ," START~input_o $end
$var wire 1 -" inst|inst4|inst6|inst|inst52~0_combout $end
$var wire 1 ." inst|inst4|inst10|inst4~0_combout $end
$var wire 1 /" inst|inst4|inst10|inst4~1_combout $end
$var wire 1 0" inst|inst4|inst10|inst|inst7|inst10~5_combout $end
$var wire 1 1" inst|inst4|inst10|inst|inst7|inst10~0_combout $end
$var wire 1 2" inst|inst4|inst10|inst|inst7|inst10~1_combout $end
$var wire 1 3" inst|inst4|inst10|inst|inst7|inst10~2_combout $end
$var wire 1 4" inst|inst4|inst10|inst|inst7|inst10~3_combout $end
$var wire 1 5" inst|inst4|inst10|inst|inst7|inst10~4_combout $end
$var wire 1 6" inst|inst4|inst10|inst|inst7|inst4~0_combout $end
$var wire 1 7" inst|inst4|inst10|inst|inst7|inst4~4_combout $end
$var wire 1 8" inst|inst4|inst10|inst|inst7|inst4~1_combout $end
$var wire 1 9" inst|inst4|inst10|inst|inst7|inst4~2_combout $end
$var wire 1 :" inst|inst4|inst10|inst|inst7|inst4~3_combout $end
$var wire 1 ;" inst|inst4|inst10|inst|inst7|inst4~5_combout $end
$var wire 1 <" inst|inst4|inst10|inst4~3_combout $end
$var wire 1 =" inst|inst4|inst10|inst4~4_combout $end
$var wire 1 >" inst|inst4|inst10|inst4~2_combout $end
$var wire 1 ?" inst|inst4|inst6|inst|inst61~combout $end
$var wire 1 @" inst|inst4|inst6|inst|inst40~2_combout $end
$var wire 1 A" inst|inst4|inst6|inst1|inst~q $end
$var wire 1 B" inst|inst4|inst6|inst|inst51~0_combout $end
$var wire 1 C" inst|inst4|inst6|inst|inst51~1_combout $end
$var wire 1 D" inst|inst4|inst6|inst1|inst1~q $end
$var wire 1 E" inst|inst4|inst4|inst8~0_combout $end
$var wire 1 F" inst|inst4|inst6|inst|inst60~1_combout $end
$var wire 1 G" inst|inst4|inst6|inst|inst60~0_combout $end
$var wire 1 H" inst|inst4|inst6|inst|inst52~1_combout $end
$var wire 1 I" inst|inst4|inst6|inst|inst60~2_combout $end
$var wire 1 J" inst|inst4|inst6|inst1|inst2~q $end
$var wire 1 K" inst|inst4|inst6|inst|inst~2_combout $end
$var wire 1 L" inst|inst4|inst4|inst6~0_combout $end
$var wire 1 M" inst|inst2|inst2[11]~12_combout $end
$var wire 1 N" inst|inst2|inst2[11]~13_combout $end
$var wire 1 O" inst|inst2|inst2[10]~14_combout $end
$var wire 1 P" inst|inst2|inst2[9]~15_combout $end
$var wire 1 Q" inst|inst2|inst2[8]~16_combout $end
$var wire 1 R" inst|inst2|inst2[7]~17_combout $end
$var wire 1 S" inst|inst2|inst2[6]~18_combout $end
$var wire 1 T" inst|inst2|inst2[5]~19_combout $end
$var wire 1 U" inst|inst2|inst2[4]~20_combout $end
$var wire 1 V" inst|inst2|inst2[3]~21_combout $end
$var wire 1 W" inst|inst2|inst2[2]~22_combout $end
$var wire 1 X" inst|inst2|inst2[1]~23_combout $end
$var wire 1 Y" inst|inst2|inst2[0]~24_combout $end
$var wire 1 Z" inst|inst4|inst6|inst|inst~0_combout $end
$var wire 1 [" inst|inst4|inst9|inst4~0_combout $end
$var wire 1 \" inst|inst4|inst9|inst2~0_combout $end
$upscope $end
$upscope $end
$enddefinitions $end
#0
$dumpvars
b111 !
0"
0#
b0 $
0%
1&
0'
0(
0)
05
04
03
02
01
00
0/
0.
0-
0,
0+
0*
06
07
08
x9
0:
1;
x<
1=
1>
1?
z@
zA
zB
zC
zD
zE
zF
zG
zH
zI
zJ
zK
0L
0M
0N
0O
0P
0Q
0R
1S
1T
1U
0V
0W
0X
0Y
0Z
0[
0\
0]
0^
0_
1`
1a
0b
0c
0d
0e
0f
0g
0h
0i
1j
1k
0l
0m
0n
1o
0p
0q
0r
0s
0t
0u
0v
0w
0x
0y
0z
0{
0|
0}
0~
0!!
0"!
0#!
0$!
0%!
0&!
0'!
1(!
0)!
1*!
0+!
1,!
1-!
1.!
0/!
00!
11!
02!
03!
14!
05!
06!
07!
18!
09!
0:!
1;!
0<!
0=!
0>!
1?!
0@!
0A!
1B!
0C!
0D!
1E!
0F!
0G!
1H!
1I!
1J!
1K!
0L!
1M!
0N!
1O!
0P!
0Q!
0R!
0S!
0T!
0U!
1V!
1W!
1X!
1Y!
0Z!
1[!
0\!
0]!
0^!
0_!
0`!
1a!
0b!
0c!
0d!
0e!
0f!
0g!
0h!
0i!
0j!
0k!
1l!
0m!
0n!
0o!
0p!
0q!
0r!
0s!
1t!
0u!
0v!
0w!
0x!
0y!
0z!
1{!
0|!
0}!
0~!
0!"
0""
0#"
1$"
0%"
0&"
0'"
0("
0)"
0*"
1+"
0,"
0-"
0."
0/"
00"
01"
02"
03"
04"
05"
06"
07"
08"
09"
0:"
0;"
0<"
0="
0>"
0?"
0@"
0A"
0B"
0C"
0D"
0E"
0F"
0G"
0H"
0I"
0J"
0K"
0L"
1M"
0N"
1O"
1P"
1Q"
1R"
1S"
1T"
1U"
1V"
1W"
1X"
1Y"
0Z"
0["
1\"
$end
#10000
1"
1O
1P
09
1\!
10!
1/!
1]!
#20000
b1000000 $
b1000100 $
b1000110 $
0&
1%
0"
14
13
1/
1|
1z
1p
0,!
1\
0O
0P
19
1^!
1"!
1b!
1#!
1u!
0O!
1&!
04!
0-!
1]
1$!
1'!
1("
1%"
1!"
1|!
1x!
1q!
1m!
1h!
0Y!
12!
1%!
#30000
1"
1O
1P
09
1}
1{
1q
18"
0;!
0"!
19"
08!
16"
1O!
0H!
0J!
0#!
1:"
1;"
0I!
0W!
0$!
0+"
0%!
0&!
0'!
#40000
bz00001000110 $
bz0001000110 $
bz001000110 $
bz01000110 $
bz1000110 $
bz1z00110 $
bz1zz0110 $
bz1zzz110 $
bz1zzz11z $
1(
bz11z $
bz1z $
bz $
0%
0"
z5
z4
z3
z2
z1
z0
z/
z.
z-
z,
z+
z*
z~
z|
zz
zx
zu
zr
zp
zl
zf
ze
zZ
z[
1,"
0\
0O
0P
19
xP!
x"!
xQ!
x6!
x$!
x=!
x%!
xw
xt
xO!
xN!
x'!
xn
xh
xo
xk
xj
x`
1-"
0]
x#!
xR!
x&!
xU!
1F"
1?"
xS!
xV!
1B"
1@"
xT!
1C"
#50000
1"
1O
1P
09
1D"
1A"
1L"
1E"
0-"
13!
0a
1Y
1N"
0("
0$"
0!"
0{!
0x!
0t!
0q!
0l!
0h!
1X
0?"
1Y!
xW!
1K
1J
1I
1H
1G
1F
1E
1D
1C
1B
1A
1@
15
14
13
12
11
10
1/
1.
1-
1,
1+
1*
0Y"
0X"
0W"
0V"
0U"
0T"
0S"
0R"
0Q"
0P"
0O"
0M"
0%"
0|!
0u!
0m!
x+"
xY!
1~
1|
1z
1x
1u
1r
1p
1l
1f
1e
1Z
1[
0K
0J
0I
0H
0G
0F
0E
0D
0C
0B
0A
0@
05
04
03
02
01
00
0/
0.
0-
0,
0+
0*
xI"
xC"
0P!
1"!
0R!
16!
1$!
0S!
1=!
1w
1t
0O!
0N!
1n
1h
0o
0j
0`
0~
0|
0z
0x
0u
0r
0p
0l
0f
0e
0Z
0[
1Q!
0#!
0%!
0T!
0&!
0U!
1k
0'!
1P!
0"!
xR!
06!
x$!
0=!
0w
0t
1N!
0n
0h
1j
1`
1R!
0$!
1V!
xS!
x%!
1o
1S!
0%!
1W!
1U!
1+"
0Y!
0V!
1I"
0C"
0W!
0+"
1Y!
0I"
1C"
#60000
0(
0"
0,"
0O
0P
19
#70000
1"
1O
1P
09
1c!
1_!
1Z!
1d!
0a!
1`!
01!
1W"
1X"
1Y"
1g!
0b!
1e!
1a!
02!
1I
1J
1K
13
14
15
1h!
1b!
1z
1|
1~
0P!
1"!
0Q!
1#!
0R!
1$!
0S!
1%!
#80000
0"
0O
0P
19
#90000
1"
1O
1P
09
1i!
0Z!
1k!
0g!
0]!
11!
1V"
0Y"
1l!
0h!
0^!
12!
1H
0K
12
05
1m!
1x
0~
16!
0"!
0#!
#100000
0"
0O
0P
19
#110000
1"
1O
1P
09
1n!
0i!
0_!
1Z!
1o!
0l!
0k!
1g!
01!
1U"
0V"
0X"
1Y"
1p!
0m!
0o!
1l!
1h!
02!
1G
0H
0J
1K
11
02
04
15
1q!
0p!
1m!
1u
0x
0|
1~
0q!
1=!
06!
0$!
1P!
1Q!
1R!
#120000
0"
0O
0P
19
#130000
1"
1O
1P
09
1i!
0Z!
1k!
0g!
0`!
1]!
11!
1V"
0Y"
1o!
0l!
0h!
0e!
0a!
1^!
12!
1H
0K
12
05
1p!
0m!
0b!
1x
0~
1q!
0R!
16!
1$!
#140000
0"
0O
0P
19
#150000
1"
1O
1P
09
1r!
0n!
0i!
0c!
1_!
1Z!
1s!
0p!
0o!
1l!
0k!
1g!
0d!
1a!
1`!
01!
1T"
0U"
0V"
0W"
1X"
1Y"
1t!
0q!
0s!
1p!
1m!
0l!
1h!
0g!
1b!
1e!
0a!
02!
1F
0G
0H
0I
1J
1K
10
01
02
03
14
15
1u!
0t!
1q!
0m!
0h!
1g!
0b!
1r
0u
0x
0z
1|
1~
0u!
1h!
1w
1t
0=!
1R!
06!
0$!
0P!
1"!
0%!
#160000
0"
0O
0P
19
#170000
1"
1O
1P
09
1i!
0Z!
1k!
0g!
0]!
11!
1V"
0Y"
1l!
0h!
0^!
12!
1H
0K
12
05
1m!
1x
0~
0R!
16!
1$!
0"!
#180000
b11 !
b10 !
0"
0U
0S
0O
0P
19
0.!
#190000
1"
1O
1P
09
1n!
0i!
0_!
1Z!
00!
0/!
1o!
0l!
0k!
1g!
0`!
1]!
0e!
1a!
1U"
0V"
0X"
1Y"
1s!
0p!
0m!
0o!
1l!
1h!
0a!
1^!
0g!
1b!
1G
0H
0J
1K
11
02
04
15
1t!
0q!
0s!
1p!
1m!
0b!
0h!
1u
0x
0|
1~
1u!
0t!
1q!
1=!
1R!
06!
0$!
1P!
0u!
#200000
0"
0O
0P
19
#210000
1"
1O
1P
09
1_!
1`!
0]!
1X"
1a!
0^!
1J
14
1b!
1|
0P!
1"!
#220000
0"
0O
0P
19
#230000
1"
1O
1P
09
1c!
0_!
1d!
0a!
0`!
1]!
1W"
0X"
1g!
0b!
0d!
1a!
1^!
1I
0J
13
04
1h!
0g!
1b!
1z
0|
0h!
0Q!
1#!
1P!
0"!
0R!
1$!
1Q!
0#!
1R!
0$!
#240000
0"
0O
0P
19
#250000
1"
1O
1P
09
1_!
1`!
0]!
1X"
1d!
0a!
0^!
1J
14
1g!
0b!
1|
1h!
0P!
1"!
0Q!
1#!
0R!
1$!
#260000
0"
0O
0P
19
#270000
1"
1O
1P
09
1i!
0c!
0_!
1k!
0g!
0d!
1a!
0`!
1]!
1V"
0W"
0X"
1o!
0l!
0h!
0k!
1g!
1b!
0a!
1^!
1H
0I
0J
12
03
04
1s!
0p!
0m!
0o!
1l!
1h!
0b!
1x
0z
0|
1t!
0q!
0s!
1p!
1m!
16!
1Q!
0#!
1P!
0"!
1u!
0t!
1q!
0u!
#280000
0"
0O
0P
19
#290000
1"
1O
1P
09
1_!
1`!
0]!
1X"
1a!
0^!
1J
14
1b!
1|
0P!
1"!
#300000
0"
0O
0P
19
#310000
1"
1O
1P
09
1c!
0_!
1d!
0a!
0`!
1]!
1W"
0X"
1k!
0g!
0b!
0d!
1a!
1^!
1I
0J
13
04
1o!
0l!
0h!
0k!
1g!
1b!
1z
0|
1s!
0p!
0m!
0o!
1l!
1h!
0Q!
1#!
1P!
0"!
1t!
0q!
0s!
1p!
1m!
1Q!
0#!
1u!
0t!
1q!
0u!
#320000
0"
0O
0P
19
#330000
1"
1O
1P
09
1_!
1`!
0]!
1X"
1d!
0a!
0^!
1J
14
1k!
0g!
0b!
1|
1o!
0l!
0h!
0P!
1"!
1s!
0p!
0m!
0Q!
1#!
1t!
0q!
1u!
#340000
0"
0O
0P
19
#350000
1"
1O
1P
09
1v!
0r!
0n!
0i!
0c!
0_!
1w!
0t!
0s!
1p!
0o!
1l!
0k!
1g!
0d!
1a!
0`!
1]!
1S"
0T"
0U"
0V"
0W"
0X"
1x!
0u!
0w!
1t!
1q!
0p!
1m!
0l!
1h!
0g!
1b!
0a!
1^!
1E
0F
0G
0H
0I
0J
1/
00
01
02
03
04
0x!
1u!
0q!
0m!
0h!
0b!
1p
0r
0u
0x
0z
0|
1O!
0N!
1&!
0w
0t
0=!
06!
1Q!
0#!
1P!
0"!
0U!
1'!
1%!
0&!
1R!
0$!
1V!
1&!
0'!
1S!
0%!
1W!
1'!
1T!
0&!
1+"
0Y!
1U!
0'!
1I"
0C"
0V!
0W!
0+"
1Y!
0I"
1C"
#360000
0"
0O
0P
19
#370000
1"
1O
1P
09
1_!
1`!
0]!
1X"
1a!
0^!
1J
14
1b!
1|
0P!
1"!
#380000
0"
0O
0P
19
#390000
1"
1O
1P
09
1c!
0_!
1d!
0a!
0`!
1]!
1W"
0X"
1g!
0b!
0d!
1a!
1^!
1I
0J
13
04
1h!
0g!
1b!
1z
0|
0h!
0Q!
1#!
1P!
0"!
0R!
1$!
1Q!
0#!
0S!
1%!
1R!
0$!
0T!
1&!
1S!
0%!
0U!
1'!
1T!
0&!
1V!
1U!
0'!
1W!
0V!
1+"
0Y!
0W!
1I"
0C"
0+"
1Y!
0I"
1C"
#400000
0"
0O
0P
19
#410000
1"
1O
1P
09
1_!
1`!
0]!
1X"
1d!
0a!
0^!
1J
14
1g!
0b!
1|
1h!
0P!
1"!
0Q!
1#!
0R!
1$!
0S!
1%!
0T!
1&!
0U!
1'!
1V!
1W!
1+"
0Y!
1I"
0C"
#420000
0"
0O
0P
19
#430000
1"
1O
1P
09
1J"
0D"
1G"
0E"
1C"
03!
0Y
0B"
1["
0F"
1("
1%"
1$"
1!"
1|!
1{!
1x!
1q!
1m!
1l!
1b!
1a!
1^!
0X
1M
17
0@"
#440000
b110 !
b111 !
0"
1U
1S
0O
0P
19
1.!
#450000
1"
1O
1P
09
1D"
0A"
10!
1/!
1B"
0C"
1]!
1e!
0["
1C"
0M
07
#460000
0"
0O
0P
19
#470000
1"
1O
1P
09
#480000
0"
0O
0P
19
#490000
1"
1O
1P
09
#500000
0"
0O
0P
19
#510000
1"
1O
1P
09
#520000
0"
0O
0P
19
#530000
1"
1O
1P
09
#540000
0"
0O
0P
19
#550000
1"
1O
1P
09
#560000
0"
0O
0P
19
#570000
1"
1O
1P
09
#580000
0"
0O
0P
19
#590000
1"
1O
1P
09
#600000
0"
0O
0P
19
#610000
1"
1O
1P
09
#620000
0"
0O
0P
19
#630000
1"
1O
1P
09
#640000
0"
0O
0P
19
#650000
1"
1O
1P
09
#660000
0"
0O
0P
19
#670000
1"
1O
1P
09
#680000
0"
0O
0P
19
#690000
1"
1O
1P
09
#700000
0"
0O
0P
19
#710000
1"
1O
1P
09
#720000
0"
0O
0P
19
#730000
1"
1O
1P
09
#740000
0"
0O
0P
19
#750000
1"
1O
1P
09
#760000
0"
0O
0P
19
#770000
1"
1O
1P
09
#780000
0"
0O
0P
19
#790000
1"
1O
1P
09
#800000
0"
0O
0P
19
#810000
1"
1O
1P
09
#820000
0"
0O
0P
19
#830000
1"
1O
1P
09
#840000
0"
0O
0P
19
#850000
1"
1O
1P
09
#860000
0"
0O
0P
19
#870000
1"
1O
1P
09
#880000
b11 !
b10 !
0"
0U
0S
0O
0P
19
0.!
#890000
1"
1O
1P
09
00!
0/!
0]!
0e!
#900000
0"
0O
0P
19
#910000
1"
1O
1P
09
#920000
0"
0O
0P
19
#930000
1"
1O
1P
09
#940000
0"
0O
0P
19
#950000
1"
1O
1P
09
#960000
0"
0O
0P
19
#970000
1"
1O
1P
09
#980000
0"
0O
0P
19
#990000
1"
1O
1P
09
