TEI_GRUPO17/ProyectoQuartus/simulation/qsim/TEI_GRUPO17.msim.vcd
$comment
	File created using the following command:
		vcd file TEI_GRUPO17.msim.vcd -direction
$end
$date
	Fri Aug 01 05:50:50 2025
$end
$version
	ModelSim Version 10.1d
$end
$timescale
	1ps
$end
$scope module circuito_principal_bloque_vlg_vec_tst $end
$var reg 3 ! b [2:0] $end
$var reg 1 " CLK $end
$var reg 1 # CONTINUAR $end
$var reg 12 $ treg_DATA [11:0] $end
$var reg 1 % LOAD_F $end
$var reg 1 & LOAD_I $end
$var reg 1 ' RECARGAR $end
$var reg 1 ( START $end
$var reg 1 ) UP_DOWN $end
$var wire 1 * DATA [11] $end
$var wire 1 + DATA [10] $end
$var wire 1 , DATA [9] $end
$var wire 1 - DATA [8] $end
$var wire 1 . DATA [7] $end
$var wire 1 / DATA [6] $end
$var wire 1 0 DATA [5] $end
$var wire 1 1 DATA [4] $end
$var wire 1 2 DATA [3] $end
$var wire 1 3 DATA [2] $end
$var wire 1 4 DATA [1] $end
$var wire 1 5 DATA [0] $end
$var wire 1 6 ERROR $end
$var wire 1 7 FIN $end
$var wire 1 8 PAUSA $end
$var wire 1 9 sampler $end
$scope module i1 $end
$var wire 1 : gnd $end
$var wire 1 ; vcc $end
$var wire 1 < unknown $end
$var tri1 1 = devclrn $end
$var tri1 1 > devpor $end
$var tri1 1 ? devoe $end
$var wire 1 @ DATA[11]~output_o $end
$var wire 1 A DATA[10]~output_o $end
$var wire 1 B DATA[9]~output_o $end
$var wire 1 C DATA[8]~output_o $end
$var wire 1 D DATA[7]~output_o $end
$var wire 1 E DATA[6]~output_o $end
$var wire 1 F DATA[5]~output_o $end
$var wire 1 G DATA[4]~output_o $end
$var wire 1 H DATA[3]~output_o $end
$var wire 1 I DATA[2]~output_o $end
$var wire 1 J DATA[1]~output_o $end
$var wire 1 K DATA[0]~output_o $end
$var wire 1 L ERROR~output_o $end
$var wire 1 M FIN~output_o $end
$var wire 1 N PAUSA~output_o $end
$var wire 1 O CLK~input_o $end
$var wire 1 P CLK~inputclkctrl_outclk $end
$var wire 1 Q RECARGAR~input_o $end
$var wire 1 R b[2]~input_o $end
$var wire 1 S b[1]~input_o $end
$var wire 1 T b[0]~input_o $end
$var wire 1 U inst|inst4|inst|inst3~combout $end
$var wire 1 V DATA[3]~input_o $end
$var wire 1 W LOAD_I~input_o $end
$var wire 1 X inst|inst4|inst3|inst2~0_combout $end
$var wire 1 Y inst|inst2|inst|inst3|inst4~q $end
$var wire 1 Z LOAD_F~input_o $end
$var wire 1 [ inst|inst4|inst3|inst3~0_combout $end
$var wire 1 \ inst|inst2|inst3|inst3|inst4~q $end
$var wire 1 ] DATA[2]~input_o $end
$var wire 1 ^ inst|inst2|inst3|inst2|inst4~q $end
$var wire 1 _ inst|inst2|inst|inst2|inst4~q $end
$var wire 1 ` inst|inst4|inst8|inst6~9_combout $end
$var wire 1 a DATA[0]~input_o $end
$var wire 1 b inst|inst2|inst|inst|inst4~q $end
$var wire 1 c inst|inst2|inst3|inst|inst4~q $end
$var wire 1 d DATA[1]~input_o $end
$var wire 1 e inst|inst2|inst3|inst1|inst4~q $end
$var wire 1 f inst|inst2|inst|inst1|inst4~q $end
$var wire 1 g inst|inst4|inst8|inst6~10_combout $end
$var wire 1 h CONTINUAR~input_o $end
$var wire 1 i inst|inst4|inst6|inst|inst40~0_combout $end
$var wire 1 j START~input_o $end
$var wire 1 k inst|inst4|inst6|inst|inst52~0_combout $end
$var wire 1 l DATA[11]~input_o $end
$var wire 1 m inst|inst2|inst3|inst11|inst4~q $end
$var wire 1 n inst|inst2|inst|inst11|inst4~q $end
$var wire 1 o UP_DOWN~input_o $end
$var wire 1 p inst|inst4|inst5|inst4~0_combout $end
$var wire 1 q inst|inst4|inst5|inst4~q $end
$var wire 1 r DATA[10]~input_o $end
$var wire 1 s inst|inst2|inst3|inst10|inst4~q $end
$var wire 1 t inst|inst2|inst|inst10|inst4~q $end
$var wire 1 u DATA[9]~input_o $end
$var wire 1 v inst|inst2|inst3|inst9|inst4~q $end
$var wire 1 w inst|inst2|inst|inst9|inst4~q $end
$var wire 1 x DATA[8]~input_o $end
$var wire 1 y inst|inst2|inst3|inst8|inst4~q $end
$var wire 1 z inst|inst2|inst|inst8|inst4~q $end
$var wire 1 { DATA[5]~input_o $end
$var wire 1 | inst|inst2|inst3|inst5|inst4~q $end
$var wire 1 } inst|inst2|inst|inst5|inst4~q $end
$var wire 1 ~ DATA[4]~input_o $end
$var wire 1 !! inst|inst2|inst|inst4|inst4~q $end
$var wire 1 "! inst|inst2|inst3|inst4|inst4~q $end
$var wire 1 #! inst|inst4|inst10|inst|inst7|inst4~4_combout $end
$var wire 1 $! DATA[7]~input_o $end
$var wire 1 %! inst|inst2|inst|inst7|inst4~q $end
$var wire 1 &! inst|inst2|inst3|inst7|inst4~q $end
$var wire 1 '! DATA[6]~input_o $end
$var wire 1 (! inst|inst2|inst3|inst6|inst4~q $end
$var wire 1 )! inst|inst2|inst|inst6|inst4~q $end
$var wire 1 *! inst|inst4|inst10|inst|inst7|inst4~0_combout $end
$var wire 1 +! inst|inst4|inst8|inst6~0_combout $end
$var wire 1 ,! inst|inst4|inst10|inst|inst7|inst4~1_combout $end
$var wire 1 -! inst|inst4|inst10|inst|inst7|inst4~2_combout $end
$var wire 1 .! inst|inst4|inst8|inst6~1_combout $end
$var wire 1 /! inst|inst4|inst10|inst|inst7|inst4~3_combout $end
$var wire 1 0! inst|inst4|inst10|inst|inst7|inst4~5_combout $end
$var wire 1 1! inst|inst4|inst10|inst4~1_combout $end
$var wire 1 2! inst|inst4|inst10|inst|inst7|inst10~4_combout $end
$var wire 1 3! inst|inst4|inst10|inst|inst7|inst10~0_combout $end
$var wire 1 4! inst|inst4|inst10|inst|inst7|inst10~1_combout $end
$var wire 1 5! inst|inst4|inst10|inst|inst7|inst10~2_combout $end
$var wire 1 6! inst|inst4|inst10|inst|inst7|inst10~3_combout $end
$var wire 1 7! inst|inst4|inst10|inst|inst7|inst10~5_combout $end
$var wire 1 8! inst|inst4|inst10|inst4~0_combout $end
$var wire 1 9! inst|inst4|inst10|inst4~4_combout $end
$var wire 1 :! inst|inst4|inst10|inst4~5_combout $end
$var wire 1 ;! inst|inst4|inst10|inst4~2_combout $end
$var wire 1 <! inst|inst4|inst10|inst4~3_combout $end
$var wire 1 =! inst|inst4|inst6|inst|inst61~combout $end
$var wire 1 >! inst|inst4|inst6|inst|inst40~combout $end
$var wire 1 ?! inst|inst4|inst6|inst1|inst~q $end
$var wire 1 @! inst|inst4|inst6|inst|inst~1_combout $end
$var wire 1 A! inst|inst4|inst8|inst6~6_combout $end
$var wire 1 B! inst|inst4|inst8|inst6~7_combout $end
$var wire 1 C! inst|inst4|inst8|inst6~8_combout $end
$var wire 1 D! inst|inst4|inst8|inst6~11_combout $end
$var wire 1 E! inst|inst4|inst8|inst|inst11|inst5~0_combout $end
$var wire 1 F! inst|inst4|inst8|inst|inst11|inst5~2_combout $end
$var wire 1 G! inst|inst4|inst8|inst6~13_combout $end
$var wire 1 H! inst|inst4|inst8|inst6~12_combout $end
$var wire 1 I! inst|inst4|inst8|inst|inst8|inst2~combout $end
$var wire 1 J! inst|inst4|inst8|inst|inst11|inst5~1_combout $end
$var wire 1 K! inst|inst4|inst8|inst|inst7|inst4~0_combout $end
$var wire 1 L! inst|inst4|inst8|inst|inst7|inst4~1_combout $end
$var wire 1 M! inst|inst4|inst8|inst|inst3|inst2~combout $end
$var wire 1 N! inst|inst4|inst8|inst|inst7|inst4~2_combout $end
$var wire 1 O! inst|inst4|inst8|inst|inst7|inst4~3_combout $end
$var wire 1 P! inst|inst4|inst8|inst|inst7|inst4~4_combout $end
$var wire 1 Q! inst|inst4|inst8|inst|inst11|inst5~3_combout $end
$var wire 1 R! inst|inst4|inst8|inst|inst11|inst5~4_combout $end
$var wire 1 S! inst|inst4|inst8|inst6~14_combout $end
$var wire 1 T! inst|inst4|inst4|inst|inst41|inst4|inst5~0_combout $end
$var wire 1 U! inst|inst4|inst4|inst15~0_combout $end
$var wire 1 V! inst|inst|inst2|inst10|inst4~q $end
$var wire 1 W! inst|inst4|inst4|inst11~0_combout $end
$var wire 1 X! inst|inst4|inst4|inst8~0_combout $end
$var wire 1 Y! inst|inst|inst2|inst3|inst4~q $end
$var wire 1 Z! inst|inst|inst2|inst|inst4~q $end
$var wire 1 [! inst|inst|inst4|inst3[0]~6_combout $end
$var wire 1 \! inst|inst|inst4|inst3[0]~7_combout $end
$var wire 1 ]! inst|inst4|inst4|inst6~0_combout $end
$var wire 1 ^! inst|inst4|inst8|inst6~2_combout $end
$var wire 1 _! inst|inst4|inst8|inst|inst11|inst9~0_combout $end
$var wire 1 `! inst|inst4|inst8|inst6~3_combout $end
$var wire 1 a! inst|inst4|inst8|inst|inst7|inst10~0_combout $end
$var wire 1 b! inst|inst4|inst8|inst|inst7|inst10~1_combout $end
$var wire 1 c! inst|inst4|inst8|inst|inst7|inst10~2_combout $end
$var wire 1 d! inst|inst4|inst8|inst|inst7|inst10~3_combout $end
$var wire 1 e! inst|inst4|inst8|inst|inst7|inst10~4_combout $end
$var wire 1 f! inst|inst4|inst8|inst|inst7|inst10~5_combout $end
$var wire 1 g! inst|inst4|inst8|inst|inst7|inst10~6_combout $end
$var wire 1 h! inst|inst4|inst8|inst6~4_combout $end
$var wire 1 i! inst|inst4|inst8|inst6~5_combout $end
$var wire 1 j! inst|inst4|inst4|inst21~0_combout $end
$var wire 1 k! inst|inst|inst1|inst|inst4~q $end
$var wire 1 l! inst|inst4|inst4|inst|inst41|inst1|inst5~0_combout $end
$var wire 1 m! inst|inst|inst2|inst1|inst4~q $end
$var wire 1 n! inst|inst|inst|inst1|inst6~0_combout $end
$var wire 1 o! inst|inst|inst4|inst3[1]~8_combout $end
$var wire 1 p! inst|inst|inst1|inst1|inst4~q $end
$var wire 1 q! inst|inst|inst|inst1|inst~0_combout $end
$var wire 1 r! inst|inst4|inst4|inst|inst41|inst2|inst5~combout $end
$var wire 1 s! inst|inst|inst2|inst2|inst4~q $end
$var wire 1 t! inst|inst|inst4|inst3[2]~9_combout $end
$var wire 1 u! inst|inst|inst4|inst3[2]~10_combout $end
$var wire 1 v! inst|inst|inst1|inst2|inst4~q $end
$var wire 1 w! inst|inst|inst|inst2|inst~1_combout $end
$var wire 1 x! inst|inst|inst|inst2|inst~0_combout $end
$var wire 1 y! inst|inst|inst|inst3|inst6~combout $end
$var wire 1 z! inst|inst|inst4|inst3[3]~11_combout $end
$var wire 1 {! inst|inst|inst1|inst3|inst4~q $end
$var wire 1 |! inst|inst|inst|inst4|inst~0_combout $end
$var wire 1 }! inst|inst|inst|inst3|inst~0_combout $end
$var wire 1 ~! inst|inst|inst4|inst3[4]~12_combout $end
$var wire 1 !" inst|inst|inst4|inst3[4]~13_combout $end
$var wire 1 "" inst|inst|inst1|inst4|inst4~q $end
$var wire 1 #" inst|inst|inst|inst4|inst~1_combout $end
$var wire 1 $" inst|inst|inst|inst5|inst6~combout $end
$var wire 1 %" inst|inst|inst4|inst3[5]~14_combout $end
$var wire 1 &" inst|inst|inst1|inst5|inst4~q $end
$var wire 1 '" inst|inst|inst|inst5|inst~0_combout $end
$var wire 1 (" inst|inst|inst4|inst3[6]~4_combout $end
$var wire 1 )" inst|inst|inst4|inst3[6]~5_combout $end
$var wire 1 *" inst|inst|inst1|inst6|inst4~q $end
$var wire 1 +" inst|inst|inst|inst7|inst6~combout $end
$var wire 1 ," inst|inst|inst4|inst3[7]~15_combout $end
$var wire 1 -" inst|inst|inst1|inst7|inst4~q $end
$var wire 1 ." inst|inst|inst|inst7|inst~0_combout $end
$var wire 1 /" inst|inst|inst4|inst3[8]~2_combout $end
$var wire 1 0" inst|inst|inst4|inst3[8]~3_combout $end
$var wire 1 1" inst|inst|inst1|inst8|inst4~q $end
$var wire 1 2" inst|inst|inst|inst9|inst6~combout $end
$var wire 1 3" inst|inst|inst4|inst3[9]~16_combout $end
$var wire 1 4" inst|inst|inst1|inst9|inst4~q $end
$var wire 1 5" inst|inst|inst|inst9|inst~0_combout $end
$var wire 1 6" inst|inst|inst4|inst3[10]~0_combout $end
$var wire 1 7" inst|inst|inst4|inst3[10]~1_combout $end
$var wire 1 8" inst|inst|inst1|inst10|inst4~q $end
$var wire 1 9" inst|inst|inst4|inst3[11]~17_combout $end
$var wire 1 :" inst|inst|inst4|inst3[11]~18_combout $end
$var wire 1 ;" inst|inst|inst1|inst11|inst4~q $end
$var wire 1 <" inst|inst|inst|inst11|inst~0_combout $end
$var wire 1 =" inst|inst4|inst8|inst6~15_combout $end
$var wire 1 >" inst|inst4|inst8|inst13~combout $end
$var wire 1 ?" inst|inst4|inst6|inst|inst60~0_combout $end
$var wire 1 @" inst|inst4|inst6|inst|inst60~1_combout $end
$var wire 1 A" inst|inst4|inst6|inst|inst60~2_combout $end
$var wire 1 B" inst|inst4|inst6|inst1|inst2~q $end
$var wire 1 C" inst|inst4|inst6|inst|inst62~0_combout $end
$var wire 1 D" inst|inst4|inst6|inst|inst51~0_combout $end
$var wire 1 E" inst|inst4|inst6|inst|inst51~1_combout $end
$var wire 1 F" inst|inst4|inst6|inst1|inst1~q $end
$var wire 1 G" inst|inst4|inst4|inst6~1_combout $end
$var wire 1 H" inst|inst4|inst6|inst|inst~2_combout $end
$var wire 1 I" inst|inst2|inst2[11]~12_combout $end
$var wire 1 J" inst|inst2|inst2[11]~13_combout $end
$var wire 1 K" inst|inst2|inst2[10]~14_combout $end
$var wire 1 L" inst|inst2|inst2[9]~15_combout $end
$var wire 1 M" inst|inst2|inst2[8]~16_combout $end
$var wire 1 N" inst|inst2|inst2[7]~17_combout $end
$var wire 1 O" inst|inst2|inst2[6]~18_combout $end
$var wire 1 P" inst|inst2|inst2[5]~19_combout $end
$var wire 1 Q" inst|inst2|inst2[4]~20_combout $end
$var wire 1 R" inst|inst2|inst2[3]~21_combout $end
$var wire 1 S" inst|inst2|inst2[2]~22_combout $end
$var wire 1 T" inst|inst2|inst2[1]~23_combout $end
$var wire 1 U" inst|inst2|inst2[0]~24_combout $end
$var wire 1 V" inst|inst4|inst6|inst|inst~0_combout $end
$var wire 1 W" inst|inst4|inst9|inst4~0_combout $end
$var wire 1 X" inst|inst4|inst9|inst2~0_combout $end
$upscope $end
$upscope $end
$enddefinitions $end
#0
$dumpvars
b0 !
0"
0#
b0 $
0%
1&
0'
0(
0)
05
04
03
02
01
00
0/
0.
0-
0,
0+
0*
06
07
08
x9
0:
1;
x<
1=
1>
1?
z@
zA
zB
zC
zD
zE
zF
zG
zH
zI
zJ
zK
0L
0M
0N
0O
0P
0Q
0R
0S
0T
1U
0V
1W
1X
0Y
0Z
0[
0\
0]
0^
0_
1`
0a
0b
0c
0d
0e
0f
1g
0h
0i
0j
0k
0l
0m
0n
0o
0p
0q
0r
0s
0t
0u
0v
0w
0x
0y
0z
0{
0|
0}
0~
0!!
0"!
0#!
0$!
0%!
0&!
0'!
0(!
0)!
0*!
1+!
0,!
0-!
1.!
0/!
00!
01!
02!
03!
04!
05!
06!
07!
08!
09!
0:!
0;!
0<!
0=!
0>!
0?!
1@!
1A!
1B!
1C!
1D!
1E!
0F!
1G!
1H!
0I!
1J!
0K!
0L!
0M!
0N!
0O!
0P!
0Q!
0R!
1S!
0T!
1U!
0V!
1W!
0X!
0Y!
0Z!
1[!
0\!
0]!
1^!
0_!
1`!
0a!
0b!
0c!
0d!
0e!
0f!
0g!
1h!
0i!
1j!
0k!
0l!
0m!
0n!
0o!
0p!
0q!
0r!
0s!
1t!
0u!
0v!
0w!
0x!
0y!
0z!
0{!
0|!
0}!
1~!
0!"
0""
0#"
0$"
0%"
0&"
0'"
1("
0)"
0*"
0+"
0,"
0-"
0."
1/"
00"
01"
02"
03"
04"
05"
16"
07"
08"
09"
0:"
0;"
0<"
1="
0>"
0?"
0@"
0A"
0B"
0C"
0D"
0E"
0F"
0G"
0H"
1I"
0J"
1K"
1L"
1M"
1N"
1O"
1P"
1Q"
1R"
1S"
1T"
1U"
0V"
0W"
1X"
$end
#10000
1"
1O
1P
09
#20000
b1 !
b10 $
0&
1%
0"
14
1d
1T
0W
1Z
0O
0P
19
1o!
1b!
0U
0W!
0X
1[
1c!
1>"
1:"
17"
13"
10"
1,"
1)"
1%"
1!"
1z!
1u!
0j!
1\!
1d!
1e!
1f!
1g!
0h!
#30000
1"
1O
1P
09
1Z!
1e
0b!
1,!
0g
0c!
1-!
0D!
0d!
1/!
0="
0e!
10!
0>"
0f!
0g!
1h!
#40000
bz00000000010 $
bz0000000010 $
bz000000010 $
bz00000010 $
bz0000010 $
bz000010 $
bz00010 $
bz0010 $
bz010 $
bz10 $
bz1z $
1(
bz $
0%
0"
z5
z4
z3
z2
z1
z0
z/
z.
z-
z,
z+
z*
za
zd
z]
zV
z~
z{
z'!
z$!
zx
zu
zr
zl
1j
0Z
0O
0P
19
xb!
xL!
xc!
xa!
xM!
xd!
xe!
xf!
xg!
x_!
xI!
x`!
xJ!
x^!
xE!
1k
0[
xN!
xh!
1=!
xO!
1E"
1>!
xP!
xQ!
xR!
xS!
#50000
1"
1O
1P
09
1F"
1?!
1G"
1C"
1?"
1]!
1X!
0@!
0k
1J"
1j!
0:"
06"
03"
0/"
0,"
0("
0%"
0~!
0z!
0t!
0o!
x="
0=!
1K
1J
1I
1H
1G
1F
1E
1D
1C
1B
1A
1@
15
14
13
12
11
10
1/
1.
1-
1,
1+
1*
0U"
0T"
0S"
0R"
0Q"
0P"
0O"
0N"
0M"
0L"
0K"
0I"
07"
00"
0)"
0!"
0u!
x>"
xj!
1a
1d
1]
1V
1~
1{
1'!
1$!
1x
1u
1r
1l
0K
0J
0I
0H
0G
0F
0E
0D
0C
0B
0A
0@
05
04
03
02
01
00
0/
0.
0-
0,
0+
0*
xE"
x@"
1b!
0L!
0N!
1a!
1M!
1d!
0O!
1e!
0P!
1f!
0Q!
1g!
0R!
1_!
1I!
0J!
0^!
0E!
0a
0d
0]
0V
0~
0{
0'!
0$!
0x
0u
0r
0l
xA"
0c!
0h!
1S!
1`!
0b!
1L!
0a!
0M!
0_!
0I!
1^!
1E!
0d!
1="
1h!
1N!
1J!
0e!
1>"
0j!
1O!
0h!
0f!
0E"
1@"
1P!
0g!
1A"
1Q!
1h!
1R!
0S!
0="
0>"
1j!
1E"
0@"
0A"
#60000
0(
0"
0j
0O
0P
19
#70000
1"
1O
1P
09
1k!
1n!
0[!
1U"
1o!
0\!
1K
15
1a
#80000
0"
0O
0P
19
#90000
1"
1O
1P
09
1p!
0k!
1[!
1T"
0U"
1\!
1J
0K
14
05
1d
0a
0L!
0N!
0O!
0P!
0Q!
0R!
1S!
1="
1>"
0j!
0E"
1@"
1A"
#100000
0"
0O
0P
19
#110000
1"
1O
1P
09
0F"
1B"
1D"
0C"
0?"
0]!
0X!
0@"
1W"
1E"
0>!
1@"
1:"
17"
16"
13"
10"
1/"
1,"
1)"
1("
1%"
1!"
1~!
1z!
1u!
1t!
0A"
1M
17
1A"
#120000
0"
0O
0P
19
#130000
1"
1O
1P
09
1F"
0?!
0W"
0M
07
#140000
b11 !
1'
b10 !
0"
0T
1S
1Q
0O
0P
19
1l!
0D"
0@"
0E"
0A"
#150000
1"
1O
1P
09
0F"
0B"
1m!
0Z!
0G"
1@!
1q!
0n!
0J"
0="
zK
zJ
zI
zH
zG
zF
zE
zD
zC
zB
zA
z@
z5
z4
z3
z2
z1
z0
z/
z.
z-
z,
z+
z*
1U"
1S"
1R"
1Q"
1P"
1O"
1N"
1M"
1L"
1K"
1I"
0>"
za
zd
z]
zV
z~
z{
z'!
z$!
zx
zu
zr
zl
xb!
xL!
xc!
xa!
xM!
xd!
xe!
xf!
xg!
x_!
xI!
x`!
xJ!
x^!
xE!
xN!
xh!
xO!
xP!
xQ!
xR!
xS!
#160000
1&
b0zzzzzzzzzzz $
b0zzzzzzzzzz $
b0zzzzzzzzz $
b0zzzzzzzz $
b0zzzzzzz $
b0zzzzzz $
b0zzzzz $
b0zzzz $
b0zzz $
b1zz $
b1z1 $
b101 $
0'
0"
15
04
13
02
01
00
0/
0.
0-
0,
0+
0*
1W
1a
0d
1]
0V
0~
0{
0'!
0$!
0x
0u
0r
0l
0Q
0O
0P
19
1W!
1X
0b!
1L!
0N!
0a!
0M!
0_!
0I!
1^!
1E!
0:"
07"
03"
00"
0,"
0)"
0%"
0!"
0z!
0o!
1j!
1c!
0O!
1`!
1J!
1d!
0P!
1e!
0Q!
1f!
0R!
1g!
1S!
0h!
#170000
1"
1O
1P
09
1v!
0p!
1k!
1b
1_
1w!
0q!
1n!
15!
0-!
0`
1y!
0w!
16!
0/!
0y!
17!
00!
18!
19!
1:!
1;!
1<!
#180000
1%
0&
b1 $
0"
03
1Z
0W
0]
0O
0P
19
1[
0W!
0X
0u!
0c!
1N!
1:"
17"
13"
10"
1,"
1)"
1%"
1!"
1z!
1u!
1o!
0j!
0d!
1O!
0e!
1P!
0f!
1Q!
0g!
1R!
1h!
0S!
#190000
1"
1O
1P
09
0e
1c
0L!
0,!
1g
0N!
0O!
0P!
0Q!
0R!
1S!
#200000
1(
bz00000000001 $
bz0000000001 $
bz000000001 $
bz00000001 $
bz0000001 $
bz000001 $
bz00001 $
bz0001 $
bz001 $
bz00z $
bz0zz $
0%
bz $
0"
z5
z4
z3
z2
z1
z0
z/
z.
z-
z,
z+
z*
1j
za
zd
z]
zV
z~
z{
z'!
z$!
zx
zu
zr
zl
0Z
0O
0P
19
1k
xb!
xL!
xc!
xa!
xM!
xd!
xe!
xf!
xg!
x_!
xI!
x`!
xJ!
x^!
xE!
0[
1A"
xN!
xh!
xO!
xP!
xQ!
xR!
xS!
#210000
1"
1O
1P
09
1B"
1@"
0U!
0@!
0k
1V"
x="
1L
16
x>"
#220000
0(
0"
0j
0O
0P
19
#230000
1"
1O
1P
09
#240000
1'
0"
1Q
0O
0P
19
0@"
0A"
#250000
1"
1O
1P
09
0B"
1U!
1@!
0V"
0="
0L
06
0>"
#260000
1&
b0zzzzzzzzzzz $
b0zzzzzzzzzz $
b0zzzzzzzzz $
b0zzzzzzzz $
b0zzzzzzz $
b0zzzzzz $
b0zzzzz $
b0zzzz $
b0zzz $
b0zz1 $
b0z01 $
b101 $
0'
0"
15
04
13
02
01
00
0/
0.
0-
0,
0+
0*
1W
1a
0d
1]
0V
0~
0{
0'!
0$!
0x
0u
0r
0l
0Q
0O
0P
19
1W!
1X
0b!
0L!
0N!
0a!
0M!
0_!
0I!
1^!
1E!
0:"
07"
03"
00"
0,"
0)"
0%"
0!"
0z!
0o!
1j!
1c!
0O!
1`!
1J!
1d!
0P!
1e!
0Q!
1f!
0R!
1g!
1S!
0h!
#270000
1"
1O
1P
09
#280000
1)
1%
0&
b1 $
0"
03
1o
1Z
0W
0]
0O
0P
19
1p
1[
0W!
0X
0u!
0c!
1:"
17"
13"
10"
1,"
1)"
1%"
1!"
1z!
1u!
1o!
0j!
0d!
0e!
0f!
0g!
1h!
#290000
1"
1O
1P
09
1q
1r!
1T!
08!
09!
0:!
0;!
0<!
#300000
1(
bz00000000001 $
bz0000000001 $
bz000000001 $
bz00000001 $
bz0000001 $
bz000001 $
bz00001 $
bz0001 $
bz001 $
bz00z $
bz0zz $
0%
bz $
0"
z5
z4
z3
z2
z1
z0
z/
z.
z-
z,
z+
z*
1j
za
zd
z]
zV
z~
z{
z'!
z$!
zx
zu
zr
zl
0Z
0O
0P
19
1k
xb!
xL!
xc!
xa!
xM!
xd!
xe!
xf!
xg!
x_!
xI!
x`!
xJ!
x^!
xE!
0[
1=!
xN!
xh!
1E"
1>!
xO!
xP!
xQ!
xR!
#310000
0)
1"
0o
1O
1P
09
0p
1F"
1s!
1Y!
1V!
1?!
1G"
1C"
1?"
1]!
1X!
0@!
0k
1w!
1y!
19"
12"
1+"
1$"
1J"
1j!
0t!
1="
1p
0=!
1}!
1|!
0y!
1K
1J
1I
1H
1G
1F
1E
1D
1C
1B
1A
1@
15
14
13
12
11
10
1/
1.
1-
1,
1+
1*
0T"
0R"
0Q"
0P"
0O"
0N"
0M"
0L"
0K"
0I"
0u!
1>"
0j!
0~!
1'"
0$"
0z!
1a
1d
1]
1V
1~
1{
1'!
1$!
1x
1u
1r
1l
0J
0H
0G
0F
0E
0D
0C
0B
0A
0@
04
02
01
00
0/
0.
0-
0,
0+
0*
0E"
1@"
0!"
1."
0+"
0("
0%"
1b!
0L!
0N!
1a!
1M!
1d!
0O!
1e!
0P!
1f!
0Q!
1g!
0R!
1_!
1I!
0J!
0^!
0E!
0d
0V
0~
0{
0'!
0$!
0x
0u
0r
0l
1A"
15"
02"
0/"
0,"
0)"
0c!
0h!
1`!
0b!
0a!
0M!
0_!
0I!
1^!
1E!
1<"
09"
06"
03"
00"
0d!
1h!
1c!
1J!
0="
1i!
0:"
07"
0e!
1d!
0h!
0f!
1e!
0i!
0g!
1f!
0>"
1j!
1h!
1g!
1E"
0@"
1i!
0h!
0A"
1>"
0j!
0i!
0E"
1@"
0>"
1j!
1A"
1E"
0@"
0A"
#320000
1#
0(
0"
1h
0j
0O
0P
19
#330000
1"
1O
1P
09
0v!
1p!
0w!
1t!
1q!
0n!
0S"
1T"
0}!
0|!
1y!
1u!
1x!
0t!
0o!
0I
1J
03
14
1~!
0'"
1$"
1z!
1}!
1|!
0y!
0u!
0]
1d
1!"
0."
1+"
1("
1%"
0~!
1'"
0$"
0z!
0c!
1b!
05"
12"
1/"
1,"
1)"
0!"
1."
0+"
0("
0%"
0d!
1c!
0<"
19"
16"
13"
10"
15"
02"
0/"
0,"
0)"
0e!
1d!
1="
1:"
17"
1<"
09"
06"
03"
00"
0f!
1e!
1>"
0j!
0="
0:"
07"
0g!
1f!
0E"
1@"
0>"
1j!
1h!
1g!
1A"
1E"
0@"
1i!
0h!
0A"
1>"
0j!
0i!
0E"
1@"
0>"
1j!
1A"
1E"
0@"
0A"
#340000
0"
0O
0P
19
#350000
1"
1O
1P
09
0p!
0q!
1n!
0T"
0x!
1t!
1o!
0J
04
0}!
0|!
1y!
1u!
0d
1~!
0'"
1$"
1z!
0b!
1!"
0."
1+"
1("
1%"
0c!
05"
12"
1/"
1,"
1)"
0d!
0<"
19"
16"
13"
10"
0e!
1="
1:"
17"
0f!
1>"
0j!
0g!
0E"
1@"
1h!
1A"
#360000
0"
0O
0P
19
#370000
1"
1O
1P
09
0F"
1B"
1D"
0C"
0?"
0]!
0X!
1i
0@"
1W"
1E"
1@"
0A"
1M
17
1A"
#380000
0"
0O
0P
19
#390000
1"
1O
1P
09
1F"
1H"
0G"
1?"
1W!
0U!
0W"
0@"
0:"
07"
03"
00"
0,"
0)"
0%"
0!"
0z!
0u!
0o!
1j!
0M
07
1S"
0A"
1I
13
1]
1u!
1c!
1d!
1e!
1f!
1g!
0h!
#400000
0"
0O
0P
19
#410000
1"
1O
1P
09
0B"
1v!
0H"
1G"
0D"
1C"
1@"
1]!
1X!
0W!
1U!
0i
1w!
0E"
1A"
0j!
1:"
17"
13"
10"
1,"
1)"
1%"
1!"
1z!
0t!
1o!
1}!
1|!
0y!
0u!
0~!
1'"
0$"
0z!
0!"
1."
0+"
0("
0%"
15"
02"
0/"
0,"
0)"
1<"
09"
06"
03"
00"
0="
0:"
07"
0>"
1j!
1E"
0@"
0A"
#420000
0"
0O
0P
19
#430000
1"
1O
1P
09
0v!
1p!
0w!
1t!
1q!
0n!
0S"
1T"
0}!
0|!
1y!
1u!
1x!
0t!
0o!
0I
1J
03
14
1~!
0'"
1$"
1z!
1}!
1|!
0y!
0u!
0]
1d
1!"
0."
1+"
1("
1%"
0~!
1'"
0$"
0z!
0c!
1b!
05"
12"
1/"
1,"
1)"
0!"
1."
0+"
0("
0%"
0d!
1c!
0<"
19"
16"
13"
10"
15"
02"
0/"
0,"
0)"
0e!
1d!
1="
1:"
17"
1<"
09"
06"
03"
00"
0f!
1e!
1>"
0j!
0="
0:"
07"
0g!
1f!
0E"
1@"
0>"
1j!
1h!
1g!
1A"
1E"
0@"
1i!
0h!
0A"
1>"
0j!
0i!
0E"
1@"
0>"
1j!
1A"
1E"
0@"
0A"
#440000
0"
0O
0P
19
#450000
1"
1O
1P
09
0p!
0q!
1n!
0T"
0x!
1t!
1o!
0J
04
0}!
0|!
1y!
1u!
0d
1~!
0'"
1$"
1z!
0b!
1!"
0."
1+"
1("
1%"
0c!
05"
12"
1/"
1,"
1)"
0d!
0<"
19"
16"
13"
10"
0e!
1="
1:"
17"
0f!
1>"
0j!
0g!
0E"
1@"
1h!
1A"
#460000
0"
0O
0P
19
#470000
b0 !
1"
0S
1O
1P
09
0r!
0l!
0T!
1U
0>"
0]!
0>!
1E"
0@"
0A"
0F"
1B"
1D"
0C"
0?"
0X!
1i
1W"
1>!
1@"
1M
17
1A"
#480000
0"
0O
0P
19
#490000
1"
1O
1P
09
1F"
0s!
0m!
0Y!
0V!
1H"
0G"
1?"
1W!
0U!
0n!
0y!
09"
02"
0+"
0$"
0W"
0@"
0:"
07"
03"
00"
0,"
0)"
0%"
0!"
0z!
0u!
0o!
1j!
0M
07
1S"
0A"
1I
13
1]
1u!
1c!
1d!
1e!
1f!
1g!
0h!
#500000
0"
0O
0P
19
#510000
1"
1O
1P
09
0B"
1v!
0H"
1G"
0D"
1C"
1X!
0W!
1U!
0i
0>!
17"
06"
10"
0/"
1)"
0("
1!"
0~!
0j!
07"
00"
0)"
0!"
#520000
0"
0O
0P
19
#530000
1"
1O
1P
09
0?!
0X"
1D"
0?"
1N
18
#540000
0"
0O
0P
19
#550000
1"
1O
1P
09
#560000
0"
0O
0P
19
#570000
1"
1O
1P
09
#580000
0"
0O
0P
19
