TEI_GRUPO17/ProyectoQuartus/simulation/qsim/TEI_GRUPO17.msim.vcd
$comment
	File created using the following command:
		vcd file TEI_GRUPO17.msim.vcd -direction
$end
$date
	Thu Jul 31 23:40:12 2025
$end
$version
	ModelSim Version 10.1d
$end
$timescale
	1ps
$end
$scope module circuito_principal_bloque_vlg_vec_tst $end
$var reg 3 ! b [2:0] $end
$var reg 1 " CLK $end
$var reg 1 # CONTINUAR $end
$var reg 12 $ treg_DATA [11:0] $end
$var reg 1 % LOAD_F $end
$var reg 1 & LOAD_I $end
$var reg 1 ' RECARGAR $end
$var reg 1 ( START $end
$var reg 1 ) UP_DOWN $end
$var wire 1 * DATA [11] $end
$var wire 1 + DATA [10] $end
$var wire 1 , DATA [9] $end
$var wire 1 - DATA [8] $end
$var wire 1 . DATA [7] $end
$var wire 1 / DATA [6] $end
$var wire 1 0 DATA [5] $end
$var wire 1 1 DATA [4] $end
$var wire 1 2 DATA [3] $end
$var wire 1 3 DATA [2] $end
$var wire 1 4 DATA [1] $end
$var wire 1 5 DATA [0] $end
$var wire 1 6 ERROR $end
$var wire 1 7 FIN $end
$var wire 1 8 PAUSA $end
$var wire 1 9 sampler $end
$scope module i1 $end
$var wire 1 : gnd $end
$var wire 1 ; vcc $end
$var wire 1 < unknown $end
$var tri1 1 = devclrn $end
$var tri1 1 > devpor $end
$var tri1 1 ? devoe $end
$var wire 1 @ DATA[11]~output_o $end
$var wire 1 A DATA[10]~output_o $end
$var wire 1 B DATA[9]~output_o $end
$var wire 1 C DATA[8]~output_o $end
$var wire 1 D DATA[7]~output_o $end
$var wire 1 E DATA[6]~output_o $end
$var wire 1 F DATA[5]~output_o $end
$var wire 1 G DATA[4]~output_o $end
$var wire 1 H DATA[3]~output_o $end
$var wire 1 I DATA[2]~output_o $end
$var wire 1 J DATA[1]~output_o $end
$var wire 1 K DATA[0]~output_o $end
$var wire 1 L ERROR~output_o $end
$var wire 1 M FIN~output_o $end
$var wire 1 N PAUSA~output_o $end
$var wire 1 O CLK~input_o $end
$var wire 1 P CLK~inputclkctrl_outclk $end
$var wire 1 Q RECARGAR~input_o $end
$var wire 1 R inst|inst4|inst6|inst|inst40~0_combout $end
$var wire 1 S inst|inst4|inst6|inst|inst51~0_combout $end
$var wire 1 T b[1]~input_o $end
$var wire 1 U UP_DOWN~input_o $end
$var wire 1 V inst|inst4|inst6|inst|inst~1_combout $end
$var wire 1 W inst|inst4|inst5|inst4~0_combout $end
$var wire 1 X inst|inst4|inst5|inst4~q $end
$var wire 1 Y b[0]~input_o $end
$var wire 1 Z b[2]~input_o $end
$var wire 1 [ inst|inst4|inst4|inst|inst41|inst4|inst5~0_combout $end
$var wire 1 \ inst|inst4|inst4|inst8~0_combout $end
$var wire 1 ] inst|inst|inst2|inst10|inst4~q $end
$var wire 1 ^ DATA[11]~input_o $end
$var wire 1 _ LOAD_I~input_o $end
$var wire 1 ` inst|inst4|inst4|inst11~0_combout $end
$var wire 1 a inst|inst4|inst4|inst15~0_combout $end
$var wire 1 b DATA[10]~input_o $end
$var wire 1 c DATA[9]~input_o $end
$var wire 1 d DATA[8]~input_o $end
$var wire 1 e DATA[7]~input_o $end
$var wire 1 f DATA[5]~input_o $end
$var wire 1 g DATA[4]~input_o $end
$var wire 1 h inst|inst|inst2|inst3|inst4~q $end
$var wire 1 i DATA[3]~input_o $end
$var wire 1 j DATA[2]~input_o $end
$var wire 1 k inst|inst4|inst4|inst|inst41|inst2|inst5~combout $end
$var wire 1 l inst|inst|inst2|inst2|inst4~q $end
$var wire 1 m DATA[0]~input_o $end
$var wire 1 n inst|inst|inst2|inst|inst4~q $end
$var wire 1 o inst|inst|inst|inst12|inst6~combout $end
$var wire 1 p inst|inst|inst4|inst3[0]~6_combout $end
$var wire 1 q inst|inst4|inst4|inst21~0_combout $end
$var wire 1 r inst|inst|inst1|inst|inst4~q $end
$var wire 1 s DATA[1]~input_o $end
$var wire 1 t inst|inst4|inst4|inst|inst41|inst1|inst5~0_combout $end
$var wire 1 u inst|inst|inst2|inst1|inst4~q $end
$var wire 1 v inst|inst|inst|inst1|inst6~0_combout $end
$var wire 1 w inst|inst|inst4|inst3[1]~7_combout $end
$var wire 1 x inst|inst|inst1|inst1|inst4~q $end
$var wire 1 y inst|inst|inst|inst1|inst~0_combout $end
$var wire 1 z inst|inst|inst4|inst3[2]~8_combout $end
$var wire 1 { inst|inst|inst4|inst3[2]~9_combout $end
$var wire 1 | inst|inst|inst1|inst2|inst4~q $end
$var wire 1 } inst|inst|inst|inst2|inst~1_combout $end
$var wire 1 ~ inst|inst|inst|inst2|inst~0_combout $end
$var wire 1 !! inst|inst|inst|inst3|inst6~combout $end
$var wire 1 "! inst|inst|inst4|inst3[3]~10_combout $end
$var wire 1 #! inst|inst|inst1|inst3|inst4~q $end
$var wire 1 $! inst|inst|inst|inst3|inst~0_combout $end
$var wire 1 %! inst|inst|inst4|inst3[4]~11_combout $end
$var wire 1 &! inst|inst|inst4|inst3[4]~12_combout $end
$var wire 1 '! inst|inst|inst1|inst4|inst4~q $end
$var wire 1 (! inst|inst|inst|inst4|inst~1_combout $end
$var wire 1 )! inst|inst|inst|inst4|inst~0_combout $end
$var wire 1 *! inst|inst|inst|inst5|inst6~combout $end
$var wire 1 +! inst|inst|inst4|inst3[5]~13_combout $end
$var wire 1 ,! inst|inst|inst1|inst5|inst4~q $end
$var wire 1 -! inst|inst|inst|inst5|inst~0_combout $end
$var wire 1 .! inst|inst|inst4|inst3[6]~4_combout $end
$var wire 1 /! DATA[6]~input_o $end
$var wire 1 0! inst|inst|inst4|inst3[6]~5_combout $end
$var wire 1 1! inst|inst|inst1|inst6|inst4~q $end
$var wire 1 2! inst|inst|inst|inst7|inst6~combout $end
$var wire 1 3! inst|inst|inst4|inst3[7]~14_combout $end
$var wire 1 4! inst|inst|inst1|inst7|inst4~q $end
$var wire 1 5! inst|inst|inst|inst7|inst~0_combout $end
$var wire 1 6! inst|inst|inst4|inst3[8]~2_combout $end
$var wire 1 7! inst|inst|inst4|inst3[8]~3_combout $end
$var wire 1 8! inst|inst|inst1|inst8|inst4~q $end
$var wire 1 9! inst|inst|inst|inst9|inst6~combout $end
$var wire 1 :! inst|inst|inst4|inst3[9]~15_combout $end
$var wire 1 ;! inst|inst|inst1|inst9|inst4~q $end
$var wire 1 <! inst|inst|inst|inst9|inst~0_combout $end
$var wire 1 =! inst|inst|inst4|inst3[10]~0_combout $end
$var wire 1 >! inst|inst|inst4|inst3[10]~1_combout $end
$var wire 1 ?! inst|inst|inst1|inst10|inst4~q $end
$var wire 1 @! inst|inst|inst4|inst3[11]~16_combout $end
$var wire 1 A! inst|inst|inst4|inst3[11]~17_combout $end
$var wire 1 B! inst|inst|inst1|inst11|inst4~q $end
$var wire 1 C! inst|inst|inst|inst11|inst~0_combout $end
$var wire 1 D! LOAD_F~input_o $end
$var wire 1 E! inst|inst4|inst3|inst3~0_combout $end
$var wire 1 F! inst|inst2|inst3|inst10|inst4~q $end
$var wire 1 G! inst|inst2|inst3|inst11|inst4~q $end
$var wire 1 H! inst|inst4|inst11|inst6~12_combout $end
$var wire 1 I! inst|inst2|inst3|inst8|inst4~q $end
$var wire 1 J! inst|inst4|inst11|inst|inst11|inst9~0_combout $end
$var wire 1 K! inst|inst2|inst3|inst9|inst4~q $end
$var wire 1 L! inst|inst4|inst11|inst|inst11|inst5~1_combout $end
$var wire 1 M! inst|inst4|inst11|inst6~13_combout $end
$var wire 1 N! inst|inst2|inst3|inst7|inst4~q $end
$var wire 1 O! inst|inst2|inst3|inst5|inst4~q $end
$var wire 1 P! inst|inst4|inst11|inst|inst7|inst10~0_combout $end
$var wire 1 Q! inst|inst2|inst3|inst6|inst4~q $end
$var wire 1 R! inst|inst2|inst3|inst4|inst4~q $end
$var wire 1 S! inst|inst4|inst11|inst|inst5|inst2~combout $end
$var wire 1 T! inst|inst2|inst3|inst2|inst4~q $end
$var wire 1 U! inst|inst2|inst3|inst|inst4~q $end
$var wire 1 V! inst|inst2|inst3|inst1|inst4~q $end
$var wire 1 W! inst|inst4|inst11|inst|inst7|inst10~1_combout $end
$var wire 1 X! inst|inst4|inst11|inst|inst7|inst10~2_combout $end
$var wire 1 Y! inst|inst2|inst3|inst3|inst4~q $end
$var wire 1 Z! inst|inst4|inst11|inst|inst7|inst10~3_combout $end
$var wire 1 [! inst|inst4|inst11|inst|inst7|inst10~4_combout $end
$var wire 1 \! inst|inst4|inst11|inst|inst7|inst10~5_combout $end
$var wire 1 ]! inst|inst4|inst11|inst|inst8|inst2~combout $end
$var wire 1 ^! inst|inst4|inst11|inst|inst11|inst5~2_combout $end
$var wire 1 _! inst|inst4|inst11|inst|inst11|inst9~1_combout $end
$var wire 1 `! inst|inst4|inst11|inst6~14_combout $end
$var wire 1 a! inst|inst4|inst3|inst2~0_combout $end
$var wire 1 b! inst|inst2|inst|inst2|inst4~q $end
$var wire 1 c! inst|inst2|inst|inst3|inst4~q $end
$var wire 1 d! inst|inst4|inst11|inst6~5_combout $end
$var wire 1 e! inst|inst2|inst|inst|inst4~q $end
$var wire 1 f! inst|inst2|inst|inst1|inst4~q $end
$var wire 1 g! inst|inst4|inst11|inst6~6_combout $end
$var wire 1 h! inst|inst2|inst|inst11|inst4~q $end
$var wire 1 i! inst|inst2|inst|inst10|inst4~q $end
$var wire 1 j! inst|inst4|inst11|inst6~0_combout $end
$var wire 1 k! inst|inst2|inst|inst5|inst4~q $end
$var wire 1 l! inst|inst2|inst|inst4|inst4~q $end
$var wire 1 m! inst|inst4|inst11|inst6~2_combout $end
$var wire 1 n! inst|inst2|inst|inst8|inst4~q $end
$var wire 1 o! inst|inst2|inst|inst9|inst4~q $end
$var wire 1 p! inst|inst4|inst11|inst6~3_combout $end
$var wire 1 q! inst|inst2|inst|inst7|inst4~q $end
$var wire 1 r! inst|inst2|inst|inst6|inst4~q $end
$var wire 1 s! inst|inst4|inst11|inst6~1_combout $end
$var wire 1 t! inst|inst4|inst11|inst6~4_combout $end
$var wire 1 u! inst|inst4|inst11|inst6~7_combout $end
$var wire 1 v! inst|inst4|inst11|inst6~8_combout $end
$var wire 1 w! inst|inst4|inst11|inst|inst11|inst5~0_combout $end
$var wire 1 x! inst|inst4|inst11|inst6~9_combout $end
$var wire 1 y! inst|inst4|inst11|inst|inst7|inst4~6_combout $end
$var wire 1 z! inst|inst4|inst11|inst|inst7|inst4~0_combout $end
$var wire 1 {! inst|inst4|inst11|inst|inst7|inst4~1_combout $end
$var wire 1 |! inst|inst4|inst11|inst|inst7|inst4~2_combout $end
$var wire 1 }! inst|inst4|inst11|inst|inst7|inst4~3_combout $end
$var wire 1 ~! inst|inst4|inst11|inst|inst7|inst4~4_combout $end
$var wire 1 !" inst|inst4|inst11|inst|inst7|inst4~5_combout $end
$var wire 1 "" inst|inst4|inst11|inst|inst11|inst5~3_combout $end
$var wire 1 #" inst|inst4|inst11|inst6~10_combout $end
$var wire 1 $" inst|inst4|inst11|inst6~11_combout $end
$var wire 1 %" inst|inst4|inst11|inst6~15_combout $end
$var wire 1 &" START~input_o $end
$var wire 1 '" inst|inst4|inst10|inst|inst7|inst10~5_combout $end
$var wire 1 (" inst|inst4|inst10|inst|inst7|inst4~4_combout $end
$var wire 1 )" inst|inst4|inst10|inst|inst7|inst4~0_combout $end
$var wire 1 *" inst|inst4|inst10|inst|inst7|inst4~1_combout $end
$var wire 1 +" inst|inst4|inst10|inst|inst7|inst4~2_combout $end
$var wire 1 ," inst|inst4|inst10|inst|inst7|inst4~3_combout $end
$var wire 1 -" inst|inst4|inst10|inst|inst7|inst4~5_combout $end
$var wire 1 ." inst|inst4|inst10|inst|inst7|inst10~0_combout $end
$var wire 1 /" inst|inst4|inst10|inst|inst7|inst10~1_combout $end
$var wire 1 0" inst|inst4|inst10|inst|inst7|inst10~2_combout $end
$var wire 1 1" inst|inst4|inst10|inst|inst7|inst10~3_combout $end
$var wire 1 2" inst|inst4|inst10|inst|inst7|inst10~4_combout $end
$var wire 1 3" inst|inst4|inst10|inst4~4_combout $end
$var wire 1 4" inst|inst4|inst10|inst4~5_combout $end
$var wire 1 5" inst|inst4|inst10|inst4~2_combout $end
$var wire 1 6" inst|inst4|inst10|inst4~0_combout $end
$var wire 1 7" inst|inst4|inst10|inst4~1_combout $end
$var wire 1 8" inst|inst4|inst10|inst4~3_combout $end
$var wire 1 9" inst|inst4|inst6|inst|inst40~2_combout $end
$var wire 1 :" inst|inst4|inst6|inst|inst51~1_combout $end
$var wire 1 ;" inst|inst4|inst6|inst1|inst1~q $end
$var wire 1 <" CONTINUAR~input_o $end
$var wire 1 =" inst|inst4|inst6|inst|inst40~4_combout $end
$var wire 1 >" inst|inst4|inst6|inst|inst40~5_combout $end
$var wire 1 ?" inst|inst4|inst6|inst|inst~2_combout $end
$var wire 1 @" inst|inst4|inst6|inst|inst40~1_combout $end
$var wire 1 A" inst|inst4|inst6|inst|inst40~3_combout $end
$var wire 1 B" inst|inst4|inst6|inst|inst40~6_combout $end
$var wire 1 C" inst|inst4|inst6|inst1|inst~q $end
$var wire 1 D" inst|inst4|inst6|inst|inst60~1_combout $end
$var wire 1 E" inst|inst4|inst6|inst|inst52~0_combout $end
$var wire 1 F" inst|inst4|inst6|inst|inst60~0_combout $end
$var wire 1 G" inst|inst4|inst6|inst|inst60~2_combout $end
$var wire 1 H" inst|inst4|inst6|inst1|inst2~q $end
$var wire 1 I" inst|inst4|inst4|inst6~0_combout $end
$var wire 1 J" inst|inst2|inst2[11]~12_combout $end
$var wire 1 K" inst|inst2|inst2[11]~13_combout $end
$var wire 1 L" inst|inst2|inst2[10]~14_combout $end
$var wire 1 M" inst|inst2|inst2[9]~15_combout $end
$var wire 1 N" inst|inst2|inst2[8]~16_combout $end
$var wire 1 O" inst|inst2|inst2[7]~17_combout $end
$var wire 1 P" inst|inst2|inst2[6]~18_combout $end
$var wire 1 Q" inst|inst2|inst2[5]~19_combout $end
$var wire 1 R" inst|inst2|inst2[4]~20_combout $end
$var wire 1 S" inst|inst2|inst2[3]~21_combout $end
$var wire 1 T" inst|inst2|inst2[2]~22_combout $end
$var wire 1 U" inst|inst2|inst2[1]~23_combout $end
$var wire 1 V" inst|inst2|inst2[0]~24_combout $end
$var wire 1 W" inst|inst4|inst6|inst|inst~0_combout $end
$var wire 1 X" inst|inst4|inst9|inst4~0_combout $end
$var wire 1 Y" inst|inst4|inst9|inst2~0_combout $end
$upscope $end
$upscope $end
$enddefinitions $end
#0
$dumpvars
b1 !
0"
0#
b1 $
0%
1&
0'
0(
0)
x5
x4
x3
x2
x1
x0
x/
x.
x-
x,
x+
x*
x6
x7
x8
x9
0:
1;
x<
1=
1>
1?
x@
xA
xB
xC
xD
xE
xF
xG
xH
xI
xJ
xK
xL
xM
xN
0O
xP
0Q
xR
xS
0T
0U
xV
xW
0X
1Y
0Z
x[
x\
0]
x^
1_
x`
xa
xb
xc
xd
xe
xf
xg
0h
xi
xj
xk
0l
xm
0n
xo
xp
xq
0r
xs
xt
0u
xv
xw
0x
xy
xz
x{
0|
x}
x~
x!!
x"!
0#!
x$!
x%!
x&!
0'!
x(!
x)!
x*!
x+!
0,!
x-!
x.!
x/!
x0!
01!
x2!
x3!
04!
x5!
x6!
x7!
08!
x9!
x:!
0;!
x<!
x=!
x>!
0?!
x@!
xA!
0B!
xC!
0D!
xE!
0F!
0G!
xH!
0I!
xJ!
0K!
xL!
xM!
0N!
0O!
xP!
0Q!
0R!
xS!
0T!
0U!
0V!
xW!
xX!
0Y!
xZ!
x[!
x\!
x]!
x^!
x_!
x`!
xa!
0b!
0c!
xd!
0e!
0f!
xg!
0h!
0i!
xj!
0k!
0l!
xm!
0n!
0o!
xp!
0q!
0r!
xs!
xt!
xu!
xv!
xw!
xx!
xy!
xz!
x{!
x|!
x}!
x~!
x!"
x""
x#"
x$"
x%"
0&"
x'"
x("
x)"
x*"
x+"
x,"
x-"
x."
x/"
x0"
x1"
x2"
x3"
x4"
x5"
x6"
x7"
x8"
x9"
x:"
0;"
0<"
x="
x>"
x?"
x@"
xA"
xB"
0C"
xD"
xE"
xF"
xG"
0H"
xI"
xJ"
xK"
xL"
xM"
xN"
xO"
xP"
xQ"
xR"
xS"
xT"
xU"
xV"
xW"
xX"
xY"
$end
#158
0P
#426
0y
#455
0w!
#473
0\
#478
0R
#481
0F"
#563
0~
#564
1v!
#567
1m!
#622
09!
#627
0<!
#709
0(!
#711
0}
#714
1j!
#721
0*"
#724
0)!
#727
0{!
#728
06"
#734
0)"
#738
1s!
#743
1g!
#745
0$!
#751
0S
#754
0y!
#772
0="
#781
1V
#788
0-!
#794
05!
#795
0C!
#799
02!
#825
0'"
#844
0."
#862
1p!
#1020
1d!
#1026
1x!
#1027
0("
#1046
0o
#1048
0|!
#1103
0@"
#1124
0X"
#1125
0?"
#1161
0/"
#1175
0+"
#1240
0v
#1247
0I"
#1253
1Y"
#1257
0K"
#1362
0!!
#1378
0D"
#1402
0W"
#1406
0*!
#1409
07"
#1413
1a
#1424
1`!
#1428
0[
1t!
#1481
00"
#1575
0@!
#1592
0E"
#1600
1T"
#1652
09"
#1727
0,"
#1732
1u!
#1799
01"
#1925
0}!
#1959
z@
zE
zK
0*
0/
15
09
#1969
zA
zC
zD
zF
zG
zH
0+
0-
0.
00
01
02
19
#1979
zB
zI
zJ
0,
03
04
09
#1980
0:"
#2038
0G"
#2120
1U"
#2121
02"
#2174
0-"
#2225
1M"
#2227
1J"
#2228
1S"
#2239
1N"
#2241
1L"
#2243
0~!
#2268
1O"
#2270
1Q"
1R"
#2272
1P"
#2276
1V"
#2377
0w
#2379
0A"
#2440
03"
#2526
0A!
#2528
0+!
0.!
06!
#2553
0z
#2565
0!"
#2625
1m
#2700
1$"
0B"
#2721
0"!
#2730
0%!
#2739
0p
#2760
04"
#2789
0/!
0^
#2809
0i
0g
0f
0e
0d
0b
#2816
0:!
#2819
03!
#2829
0s
0j
0c
#2886
0""
#2976
00!
#3003
1%"
#3011
0=!
#3052
0&!
#3077
05"
#3216
1#"
#3259
0{
#3305
1`
#3307
1a!
#3479
07!
#3492
0E!
#3526
08"
#3553
0W
#3630
0k
#3644
1>"
#3710
0>!
#3984
0N
08
#3995
0t
#4080
0M
07
#4340
0L
06
#4604
1q
#6265
1W!
#6332
0]!
#6500
0J!
#6567
1X!
#6983
1Z!
#7070
1M!
#7155
0P!
#7179
0S!
#7254
1L!
#7258
1H!
#7418
1z!
#7572
1^!
#7636
1[!
#7939
1\!
#8332
1_!
#10000
1"
19
#10690
1O
#10870
1P
#12377
1e!
#13157
1."
#13169
0g!
#13460
1/"
#13764
10"
#13780
0u!
#14066
11"
#14372
12"
#14675
13"
#14799
0$"
#14980
14"
#15117
0%"
#15282
15"
#15699
18"
#20000
b11 $
b10 $
1%
0&
0"
05
14
09
#20676
1D!
#20686
1s
#20830
0m
#20850
0_
#20852
0O
#21010
0P
#23923
1E!
#24430
0`
#24431
0a!
#25779
0q
#30000
1"
19
#30690
1O
#30870
1P
#32377
1V!
#32730
1*"
#33033
0."
#33160
0W!
#33173
1+"
#33350
0/"
#33477
0X!
#33670
00"
#33677
1,"
#33926
0Z!
#33988
01"
#34090
1-"
#34244
0[!
#34310
02"
#34562
0\!
#34629
03"
#34949
04"
#35011
0_!
#35266
05"
#35715
08"
#40000
bz00000000010 $
bz0000000010 $
bz000000010 $
bz00000010 $
bz0000010 $
bz000010 $
bz00010 $
bz0010 $
bz010 $
bz10 $
bz0 $
bz $
0%
0"
z5
z4
z3
z2
z1
z0
z/
z.
z-
z,
z+
z*
09
#40666
z^
z/!
zm
#40676
zb
zd
ze
zf
zg
zi
#40686
zc
zj
#40840
0D!
#40850
zs
#40852
0O
#41010
0P
#43919
x]!
#43955
x^!
#44034
x[!
#44061
xJ!
#44073
xM!
#44075
x\!
#44161
xL!
#44176
xH!
#44306
xW!
#44332
0E!
#44401
xX!
#44403
xZ!
#44486
x{!
#44489
x_!
#44620
xP!
#44643
xS!
#44745
xz!
#44790
x|!
#45645
x}!
#45948
x~!
#46254
x!"
#46559
x""
#46853
x#"
#50000
1"
19
#50690
1O
#50870
1P
#60000
0"
09
#60852
0O
#61010
0P
#70000
1(
1"
19
#70690
1O
1&"
#70870
1P
#72118
1D"
#72371
19"
#72681
1:"
#72682
1A"
#72987
1B"
#80000
0"
09
#80852
0O
#81010
0P
#90000
1"
19
#90690
1O
#90870
1P
#92740
1;"
1C"
#93141
1\
#93146
1R
#93245
0V
#93640
1q
#93909
1I"
#93918
1K"
#93920
09"
#94225
x$"
#94226
0T"
#94250
0A"
#94528
x%"
#94763
0U"
#94864
0M"
#94867
0J"
0S"
#94872
0N"
#94873
0L"
#94921
0O"
#94924
0Q"
#94927
0P"
#94928
0R"
0V"
#95045
xq
#95155
x:"
#95287
xG"
#97181
0I
03
09
#97542
0J
04
19
#97625
0C
0-
09
#97636
0B
0,
19
#97660
0K
05
09
#97810
0E
0/
19
#97862
0@
0*
09
#97885
0A
0+
19
#97995
0G
01
09
#98009
0D
0.
19
#98012
0F
00
09
#98031
0j
#98039
0H
02
19
#98392
0s
#98465
0d
#98486
0c
#98490
0m
#98640
0/!
#98692
0^
#98725
0b
#98835
0g
#98849
0e
#98852
0f
#98879
0i
#100000
0"
09
#100852
0O
#101010
0P
#101988
0]!
#102156
0J!
#102344
1{!
#102404
0W!
#102648
1|!
#102721
0X!
#102726
1M!
#103170
0Z!
1L!
#103174
1H!
#103198
0P!
#103222
0S!
#103458
1z!
#103488
1^!
0[!
#103503
1}!
#103806
1~!
#104255
0\!
#104515
1!"
#104704
0_!
#104820
1""
#105114
0#"
#105561
0$"
#105879
0%"
#106442
1q
#106534
1:"
#106695
0G"
#110000
1"
19
#110690
1O
#110870
1P
#112348
1n
#113318
1o
#114547
1p
#120000
0"
09
#120852
0O
#121010
0P
#130000
0(
1"
19
#130690
1O
#130852
0&"
#130870
1P
#132348
1r
#133088
0o
#133480
1V"
#133502
1v
#133808
1w
#134343
0p
#136213
1K
15
09
#136879
1m
#140000
0"
19
#140852
0O
#141010
0P
#150000
1"
09
#150690
1O
#150870
1P
#152348
0r
1x
#153138
1o
#153473
1U"
#153594
0V"
#154367
1p
#156253
1J
14
19
#156326
0K
05
09
#156939
1s
#157156
0m
#160000
0"
19
#160574
0{!
#160650
1W!
#160852
0O
#160895
0|!
#160952
1X!
#161010
0P
#161084
0W!
#161368
1Z!
#161401
0X!
#161671
1[!
#161772
0}!
#161850
0Z!
#161974
1\!
#162090
0~!
#162168
0[!
#162388
1_!
#162412
0!"
#162486
0\!
#162733
0""
#162935
0_!
#163063
1#"
#163478
1$"
#163781
1%"
#164298
0q
#164408
0:"
#164540
1G"
#170000
1"
09
#170690
1O
#170870
1P
#172372
1H"
#172740
0;"
#172780
1S
#173001
0R
#173006
0\
#173020
1="
#173218
0="
#173338
1:"
#173471
0D"
#173475
1F"
#173638
1?"
#173670
0I"
#173674
1`
#173718
0a
#173830
0B"
#173988
1I"
#173996
0?"
1X"
#173998
1a
#174132
0`
#176985
1M
17
#180000
0"
19
#180852
0O
#181010
0P
#190000
1"
09
#190690
1O
#190870
1P
#192740
1;"
0C"
#193144
1="
#193447
0>"
#193915
0X"
#196871
0M
07
#200000
0"
19
#200852
0O
#201010
0P
#210000
1"
09
#210690
1O
#210870
1P
#220000
0"
19
#220852
0O
#221010
0P
#230000
1"
09
#230690
1O
#230870
1P
#240000
0"
19
#240852
0O
#241010
0P
#250000
1"
09
#250690
1O
#250870
1P
#260000
0"
19
#260852
0O
#261010
0P
#270000
1"
09
#270690
1O
#270870
1P
#280000
0"
19
#280852
0O
#281010
0P
#290000
1"
09
#290690
1O
#290870
1P
#300000
0"
19
#300852
0O
#301010
0P
#310000
1"
09
#310690
1O
#310870
1P
#320000
0"
19
#320852
0O
#321010
0P
#330000
1"
09
#330690
1O
#330870
1P
#340000
0"
19
#340852
0O
#341010
0P
#350000
1"
09
#350690
1O
#350870
1P
#360000
0"
19
#360852
0O
#361010
0P
#370000
1"
09
#370690
1O
#370870
1P
#380000
0"
19
#380852
0O
#381010
0P
#390000
1"
09
#390690
1O
#390870
1P
#400000
0"
19
#400852
0O
#401010
0P
#410000
1"
09
#410690
1O
#410870
1P
#420000
0"
19
#420852
0O
#421010
0P
#430000
1"
09
#430690
1O
#430870
1P
#440000
0"
19
#440852
0O
#441010
0P
#450000
1"
09
#450690
1O
#450870
1P
#460000
0"
19
#460852
0O
#461010
0P
#470000
1"
09
#470690
1O
#470870
1P
#480000
0"
19
#480852
0O
#481010
0P
#490000
1"
09
#490690
1O
#490870
1P
#500000
0"
19
#500852
0O
#501010
0P
#510000
1"
09
#510690
1O
#510870
1P
#520000
0"
19
#520852
0O
#521010
0P
#530000
1"
09
#530690
1O
#530870
1P
#540000
0"
19
#540852
0O
#541010
0P
#550000
1"
09
#550690
1O
#550870
1P
#560000
0"
19
#560852
0O
#561010
0P
#570000
1"
09
#570690
1O
#570870
1P
#580000
0"
19
#580852
0O
#581010
0P
#590000
1"
09
#590690
1O
#590870
1P
#600000
0"
19
#600852
0O
#601010
0P
#610000
1"
09
#610690
1O
#610870
1P
#620000
0"
19
#620852
0O
#621010
0P
#630000
1"
09
#630690
1O
#630870
1P
#640000
0"
19
#640852
0O
#641010
0P
#650000
1"
09
#650690
1O
#650870
1P
#660000
0"
19
#660852
0O
#661010
0P
#670000
1"
09
#670690
1O
#670870
1P
#680000
0"
19
#680852
0O
#681010
0P
#690000
1"
09
#690690
1O
#690870
1P
#700000
0"
19
#700852
0O
#701010
0P
#710000
1"
09
#710690
1O
#710870
1P
#720000
0"
19
#720852
0O
#721010
0P
#730000
1"
09
#730690
1O
#730870
1P
#740000
0"
19
#740852
0O
#741010
0P
#750000
1"
09
#750690
1O
#750870
1P
#760000
0"
19
#760852
0O
#761010
0P
#770000
1"
09
#770690
1O
#770870
1P
#780000
0"
19
#780852
0O
#781010
0P
#790000
1"
09
#790690
1O
#790870
1P
#800000
0"
19
#800852
0O
#801010
0P
#810000
1"
09
#810690
1O
#810870
1P
#820000
0"
19
#820852
0O
#821010
0P
#830000
1"
09
#830690
1O
#830870
1P
#840000
0"
19
#840852
0O
#841010
0P
#850000
1"
09
#850690
1O
#850870
1P
#860000
0"
19
#860852
0O
#861010
0P
#870000
1"
09
#870690
1O
#870870
1P
#880000
0"
19
#880852
0O
#881010
0P
#890000
1"
09
#890690
1O
#890870
1P
#900000
0"
19
#900852
0O
#901010
0P
#910000
1"
09
#910690
1O
#910870
1P
#920000
0"
19
#920852
0O
#921010
0P
#930000
1"
09
#930690
1O
#930870
1P
#940000
0"
19
#940852
0O
#941010
0P
#950000
1"
09
#950690
1O
#950870
1P
#960000
0"
19
#960852
0O
#961010
0P
#970000
1"
09
#970690
1O
#970870
1P
#980000
0"
19
#980852
0O
#981010
0P
#990000
1"
09
#990690
1O
